<svg xmlns="http://www.w3.org/2000/svg" width="90" height="90" viewBox="0 0 90 90">
    <g fill="none" fill-rule="evenodd">
        <path fill="none" d="M0 0h90v90H0z"/>
        <path fill="#FFF" fill-opacity=".516" d="M45 74c-16.016 0-29-12.984-29-29s12.984-29 29-29 29 12.984 29 29-12.984 29-29 29zm7.504-21.512c-.215-.483-.59-.644-1.02-.43-1.987 1.128-3.92 1.504-6.23 1.504-4.833 0-8.056-3.544-8.056-8.861s3.223-8.861 8.056-8.861c2.31 0 4.243.376 6.23 1.504.43.214.805.053 1.02-.43l3.544-7.465c.162-.376-.053-.752-.483-.967-3.115-1.933-7.304-3.114-11.278-3.114-11.063 0-18.474 7.733-18.474 19.333 0 11.6 7.411 19.333 18.474 19.333 3.974 0 8.163-1.181 11.278-3.115.43-.214.645-.59.483-.966l-3.544-7.465z"/>
    </g>
</svg>
