<?xml version="1.0" encoding="UTF-8" standalone="no"?>
<svg width="1825px" height="1005px" viewBox="0 0 1825 1005" version="1.1" xmlns="http://www.w3.org/2000/svg" xmlns:xlink="http://www.w3.org/1999/xlink">
    <!-- Generator: Sketch 39.1 (31720) - http://www.bohemiancoding.com/sketch -->
    <title>Group 4</title>
    <desc>Created with Sketch.</desc>
    <defs></defs>
    <g id="Desktop-list" stroke="none" stroke-width="1" fill="none" fill-rule="evenodd">
        <g id="Desktop-landing-page" transform="translate(-36.000000, -73.000000)" fill="#FFFFFF">
            <g id="stars_desktop" transform="translate(-618.000000, -634.000000)">
                <g id="Group-4">
                    <circle id="Oval" cx="1453" cy="864" r="2"></circle>
                    <ellipse id="Oval-Copy-24" cx="799" cy="1170.58579" rx="2" ry="2"></ellipse>
                    <circle id="Oval-Copy-12" transform="translate(1755.828427, 775.828427) rotate(45.000000) translate(-1755.828427, -775.828427) " cx="1755.82843" cy="775.828427" r="2"></circle>
                    <ellipse id="Oval-Copy-25" transform="translate(1101.828427, 1082.414214) rotate(45.000000) translate(-1101.828427, -1082.414214) " cx="1101.82843" cy="1082.41421" rx="2" ry="2"></ellipse>
                    <circle id="Oval-Copy-7" opacity="0.358208955" cx="1493" cy="867" r="1"></circle>
                    <ellipse id="Oval-Copy-26" opacity="0.358208955" cx="839" cy="1173.58579" rx="1" ry="1"></ellipse>
                    <circle id="Oval-Copy-13" opacity="0.358208955" transform="translate(1796.414214, 779.414214) rotate(45.000000) translate(-1796.414214, -779.414214) " cx="1796.41421" cy="779.414214" r="1"></circle>
                    <ellipse id="Oval-Copy-27" opacity="0.358208955" transform="translate(1142.414214, 1085.000000) rotate(45.000000) translate(-1142.414214, -1085.000000) " cx="1142.41421" cy="1085" rx="1" ry="1"></ellipse>
                    <circle id="Oval-Copy-8" opacity="0.358208955" cx="1619" cy="974" r="1"></circle>
                    <ellipse id="Oval-Copy-28" opacity="0.358208955" cx="965" cy="1280.58579" rx="1" ry="1"></ellipse>
                    <circle id="Oval-Copy-14" opacity="0.358208955" transform="translate(1922.414214, 886.414214) rotate(45.000000) translate(-1922.414214, -886.414214) " cx="1922.41421" cy="886.414214" r="1"></circle>
                    <ellipse id="Oval-Copy-29" opacity="0.358208955" transform="translate(1268.414214, 1192.000000) rotate(45.000000) translate(-1268.414214, -1192.000000) " cx="1268.41421" cy="1192" rx="1" ry="1"></ellipse>
                    <ellipse id="Oval-Copy-32" opacity="0.358208955" cx="827" cy="1688.58579" rx="1" ry="1"></ellipse>
                    <circle id="Oval-Copy-16" opacity="0.358208955" transform="translate(1784.414214, 1294.414214) rotate(45.000000) translate(-1784.414214, -1294.414214) " cx="1784.41421" cy="1294.41421" r="1"></circle>
                    <ellipse id="Oval-Copy-33" opacity="0.358208955" transform="translate(1130.414214, 1600.000000) rotate(45.000000) translate(-1130.414214, -1600.000000) " cx="1130.41421" cy="1600" rx="1" ry="1"></ellipse>
                    <circle id="Oval-Copy-11" cx="1551" cy="1300" r="1"></circle>
                    <ellipse id="Oval-Copy-34" cx="897" cy="1606.58579" rx="1" ry="1"></ellipse>
                    <circle id="Oval-Copy-17" transform="translate(1854.414214, 1212.414214) rotate(45.000000) translate(-1854.414214, -1212.414214) " cx="1854.41421" cy="1212.41421" r="1"></circle>
                    <circle id="Oval-Copy-9" cx="1687" cy="923" r="1"></circle>
                    <ellipse id="Oval-Copy-30" cx="1033" cy="1229.58579" rx="1" ry="1"></ellipse>
                    <circle id="Oval-Copy-15" transform="translate(1990.414214, 835.414214) rotate(45.000000) translate(-1990.414214, -835.414214) " cx="1990.41421" cy="835.414214" r="1"></circle>
                    <ellipse id="Oval-Copy-31" transform="translate(1336.414214, 1141.000000) rotate(45.000000) translate(-1336.414214, -1141.000000) " cx="1336.41421" cy="1141" rx="1" ry="1"></ellipse>
                    <circle id="Oval-Copy-10" opacity="0.358208955" cx="1481" cy="1382" r="1"></circle>
                    <circle id="Oval-Copy-61" opacity="0.358208955" transform="translate(1986.414214, 942.414214) rotate(90.000000) translate(-1986.414214, -942.414214) " cx="1986.41421" cy="942.414214" r="1"></circle>
                    <ellipse id="Oval-Copy-60" opacity="0.358208955" transform="translate(1332.414214, 1248.000000) rotate(90.000000) translate(-1332.414214, -1248.000000) " cx="1332.41421" cy="1248" rx="1" ry="1"></ellipse>
                    <circle id="Oval-Copy-58" opacity="0.358208955" transform="translate(1848.414214, 1350.414214) rotate(90.000000) translate(-1848.414214, -1350.414214) " cx="1848.41421" cy="1350.41421" r="1"></circle>
                    <ellipse id="Oval-Copy-57" opacity="0.358208955" transform="translate(1194.414214, 1656.000000) rotate(90.000000) translate(-1194.414214, -1656.000000) " cx="1194.41421" cy="1656" rx="1" ry="1"></ellipse>
                    <circle id="Oval-Copy-56" transform="translate(1615.000000, 1356.000000) rotate(90.000000) translate(-1615.000000, -1356.000000) " cx="1615" cy="1356" r="1"></circle>
                    <ellipse id="Oval-Copy-55" transform="translate(961.000000, 1662.585786) rotate(90.000000) translate(-961.000000, -1662.585786) " cx="961" cy="1662.58579" rx="1" ry="1"></ellipse>
                    <circle id="Oval-Copy-54" transform="translate(1918.414214, 1268.414214) rotate(90.000000) translate(-1918.414214, -1268.414214) " cx="1918.41421" cy="1268.41421" r="1"></circle>
                    <circle id="Oval-Copy-53" transform="translate(1751.000000, 979.000000) rotate(90.000000) translate(-1751.000000, -979.000000) " cx="1751" cy="979" r="1"></circle>
                    <ellipse id="Oval-Copy-52" transform="translate(1097.000000, 1285.585786) rotate(90.000000) translate(-1097.000000, -1285.585786) " cx="1097" cy="1285.58579" rx="1" ry="1"></ellipse>
                    <circle id="Oval-Copy-51" transform="translate(2054.414214, 891.414214) rotate(90.000000) translate(-2054.414214, -891.414214) " cx="2054.41421" cy="891.414214" r="1"></circle>
                    <ellipse id="Oval-Copy-50" transform="translate(1400.414214, 1197.000000) rotate(90.000000) translate(-1400.414214, -1197.000000) " cx="1400.41421" cy="1197" rx="1" ry="1"></ellipse>
                    <circle id="Oval-Copy-49" opacity="0.358208955" transform="translate(1545.000000, 1438.000000) rotate(90.000000) translate(-1545.000000, -1438.000000) " cx="1545" cy="1438" r="1"></circle>
                    <ellipse id="Oval-Copy-35" transform="translate(1200.414214, 1518.000000) rotate(45.000000) translate(-1200.414214, -1518.000000) " cx="1200.41421" cy="1518" rx="1" ry="1"></ellipse>
                    <circle id="Oval-Copy" opacity="0.358208955" cx="1548" cy="929" r="2"></circle>
                    <ellipse id="Oval-Copy-36" opacity="0.358208955" cx="894" cy="1235.58579" rx="2" ry="2"></ellipse>
                    <circle id="Oval-Copy-18" opacity="0.358208955" transform="translate(1850.828427, 840.828427) rotate(45.000000) translate(-1850.828427, -840.828427) " cx="1850.82843" cy="840.828427" r="2"></circle>
                    <ellipse id="Oval-Copy-37" opacity="0.358208955" transform="translate(1196.828427, 1147.414214) rotate(45.000000) translate(-1196.828427, -1147.414214) " cx="1196.82843" cy="1147.41421" rx="2" ry="2"></ellipse>
                    <ellipse id="Oval-Copy-38" cx="1046" cy="1541.58579" rx="2" ry="2"></ellipse>
                    <circle id="Oval-Copy-19" transform="translate(2002.828427, 1146.828427) rotate(45.000000) translate(-2002.828427, -1146.828427) " cx="2002.82843" cy="1146.82843" r="2"></circle>
                    <ellipse id="Oval-Copy-39" transform="translate(1266.828427, 1389.828427) rotate(45.000000) translate(-1266.828427, -1389.828427) " cx="1266.82843" cy="1389.82843" rx="2" ry="2"></ellipse>
                    <circle id="Oval-Copy-5" cx="1465" cy="1385" r="2"></circle>
                    <ellipse id="Oval-Copy-40" cx="811" cy="1691.58579" rx="2" ry="2"></ellipse>
                    <circle id="Oval-Copy-20" transform="translate(1767.828427, 1296.828427) rotate(45.000000) translate(-1767.828427, -1296.828427) " cx="1767.82843" cy="1296.82843" r="2"></circle>
                    <g id="Group-3" transform="translate(176.000000, 1357.000000)" opacity="0.880597015">
                        <circle id="Oval-Copy-2" cx="656" cy="91" r="2"></circle>
                        <circle id="Oval-Copy-22" transform="translate(958.828427, 2.828427) rotate(45.000000) translate(-958.828427, -2.828427) " cx="958.828427" cy="2.82842712" r="2"></circle>
                        <circle id="Oval-Copy-3" cx="712" cy="176" r="2"></circle>
                    </g>
                    <g id="Group-3-Copy" transform="translate(2152.569462, 1750.569462) rotate(45.000000) translate(-2152.569462, -1750.569462) translate(1626.069462, 1331.569462)" opacity="0.880597015">
                        <circle id="Oval-Copy-2" cx="656" cy="91" r="2"></circle>
                        <ellipse id="Oval-Copy-44" cx="2" cy="397.585786" rx="2" ry="2"></ellipse>
                        <ellipse id="Oval-Copy-45" transform="translate(304.828427, 309.414214) rotate(45.000000) translate(-304.828427, -309.414214) " cx="304.828427" cy="309.414214" rx="2" ry="2"></ellipse>
                        <circle id="Oval-Copy-3" cx="712" cy="176" r="2"></circle>
                        <ellipse id="Oval-Copy-46" cx="97" cy="556" rx="2" ry="2"></ellipse>
                    </g>
                    <g id="Group-3-Copy-2" transform="translate(2004.569462, 943.569462) rotate(45.000000) translate(-2004.569462, -943.569462) translate(1478.069462, 524.569462)">
                        <ellipse id="Oval-Copy-41" transform="translate(156.828427, 802.414214) rotate(45.000000) translate(-156.828427, -802.414214) " cx="156.828427" cy="802.414214" rx="2" ry="2"></ellipse>
                        <circle id="Oval-Copy-6" opacity="0.358208955" cx="747" cy="529" r="2"></circle>
                        <ellipse id="Oval-Copy-42" opacity="0.358208955" cx="93" cy="835.585786" rx="2" ry="2"></ellipse>
                        <circle id="Oval-Copy-21" opacity="0.358208955" transform="translate(1049.828427, 440.828427) rotate(45.000000) translate(-1049.828427, -440.828427) " cx="1049.82843" cy="440.828427" r="2"></circle>
                        <ellipse id="Oval-Copy-43" opacity="0.358208955" transform="translate(395.828427, 747.414214) rotate(45.000000) translate(-395.828427, -747.414214) " cx="395.828427" cy="747.414214" rx="2" ry="2"></ellipse>
                        <circle id="Oval-Copy-2" opacity="0.880597015" cx="656" cy="91" r="2"></circle>
                        <ellipse id="Oval-Copy-45" opacity="0.880597015" transform="translate(304.828427, 309.414214) rotate(45.000000) translate(-304.828427, -309.414214) " cx="304.828427" cy="309.414214" rx="2" ry="2"></ellipse>
                        <circle id="Oval-Copy-3" opacity="0.880597015" cx="712" cy="176" r="2"></circle>
                        <ellipse id="Oval-Copy-46" opacity="0.880597015" cx="97" cy="556" rx="2" ry="2"></ellipse>
                    </g>
                    <circle id="Oval-Copy-23" opacity="0.880597015" transform="translate(1971.828427, 888.828427) rotate(45.000000) translate(-1971.828427, -888.828427) " cx="1971.82843" cy="888.828427" r="2"></circle>
                    <ellipse id="Oval-Copy-47" opacity="0.880597015" transform="translate(1317.828427, 1195.828427) rotate(45.000000) translate(-1317.828427, -1195.828427) " cx="1317.82843" cy="1195.82843" rx="2" ry="2"></ellipse>
                    <ellipse id="Oval-Copy-48" opacity="0.880597015" transform="translate(1078.828427, 870.828427) rotate(45.000000) translate(-1078.828427, -870.828427) " cx="1078.82843" cy="870.828427" rx="2" ry="2"></ellipse>
                    <g id="Group-2" transform="translate(629.500000, 486.500000) scale(1, -1) translate(-629.500000, -486.500000) ">
                        <circle id="Oval-Copy-123" cx="656" cy="91" r="2"></circle>
                        <circle id="Oval-Copy-121" transform="translate(958.828427, 2.828427) rotate(45.000000) translate(-958.828427, -2.828427) " cx="958.828427" cy="2.82842712" r="2"></circle>
                        <circle id="Oval-Copy-119" opacity="0.358208955" cx="696" cy="94" r="1"></circle>
                        <circle id="Oval-Copy-117" opacity="0.358208955" transform="translate(999.414214, 6.414214) rotate(45.000000) translate(-999.414214, -6.414214) " cx="999.414214" cy="6.41421356" r="1"></circle>
                        <circle id="Oval-Copy-115" opacity="0.358208955" cx="822" cy="201" r="1"></circle>
                        <circle id="Oval-Copy-113" opacity="0.358208955" transform="translate(1125.414214, 113.414214) rotate(45.000000) translate(-1125.414214, -113.414214) " cx="1125.41421" cy="113.414214" r="1"></circle>
                        <circle id="Oval-Copy-105" cx="890" cy="150" r="1"></circle>
                        <circle id="Oval-Copy-103" transform="translate(1193.414214, 62.414214) rotate(45.000000) translate(-1193.414214, -62.414214) " cx="1193.41421" cy="62.4142136" r="1"></circle>
                        <circle id="Oval-Copy-100" opacity="0.358208955" transform="translate(1189.414214, 169.414214) rotate(90.000000) translate(-1189.414214, -169.414214) " cx="1189.41421" cy="169.414214" r="1"></circle>
                        <circle id="Oval-Copy-92" transform="translate(954.000000, 206.000000) rotate(90.000000) translate(-954.000000, -206.000000) " cx="954" cy="206" r="1"></circle>
                        <circle id="Oval-Copy-90" transform="translate(1257.414214, 118.414214) rotate(90.000000) translate(-1257.414214, -118.414214) " cx="1257.41421" cy="118.414214" r="1"></circle>
                        <circle id="Oval-Copy-86" opacity="0.358208955" cx="751" cy="156" r="2"></circle>
                        <circle id="Oval-Copy-84" opacity="0.358208955" transform="translate(1053.828427, 67.828427) rotate(45.000000) translate(-1053.828427, -67.828427) " cx="1053.82843" cy="67.8284271" r="2"></circle>
                        <circle id="Oval-Copy-70" opacity="0.880597015" cx="816" cy="119" r="2"></circle>
                        <circle id="Oval-Copy-68" opacity="0.880597015" transform="translate(1118.828427, 30.828427) rotate(45.000000) translate(-1118.828427, -30.828427) " cx="1118.82843" cy="30.8284271" r="2"></circle>
                        <circle id="Oval-Copy-66" opacity="0.880597015" cx="872" cy="204" r="2"></circle>
                        <circle id="Oval-Copy-64" opacity="0.880597015" transform="translate(1174.828427, 115.828427) rotate(45.000000) translate(-1174.828427, -115.828427) " cx="1174.82843" cy="115.828427" r="2"></circle>
                    </g>
                </g>
            </g>
        </g>
    </g>
</svg>