<?xml version="1.0" encoding="UTF-8" standalone="no"?>
<svg width="453px" height="19px" viewBox="0 0 453 19" version="1.1" xmlns="http://www.w3.org/2000/svg" xmlns:xlink="http://www.w3.org/1999/xlink">
    <!-- Generator: sketchtool 40 (33762) - http://www.bohemiancoding.com/sketch -->
    <title>7619C365-FD9D-43E7-B116-E9D37BEF6D27</title>
    <desc>Created with sketchtool.</desc>
    <defs>
        <rect id="path-1" x="97" y="8.80645161" width="370" height="17.6129032" rx="8.80645161"></rect>
        <mask id="mask-2" maskContentUnits="userSpaceOnUse" maskUnits="objectBoundingBox" x="0" y="0" width="370" height="17.6129032" fill="white">
            <use xlink:href="#path-1"></use>
        </mask>
    </defs>
    <g id="home" stroke="none" stroke-width="1" fill="none" fill-rule="evenodd">
        <g id="Desktop-landin-alt4" transform="translate(-486.000000, -550.000000)">
            <g id="elements-desktop" transform="translate(472.000000, 542.000000)">
                <g id="plan">
                    <g id="browser">
                        <g id="navbar">
                            <rect id="navbarbg" x="0" y="0" width="480" height="34.2473118" rx="8"></rect>
                            <ellipse id="Oval-3" fill="#FF6B6B" cx="19" cy="17.6129032" rx="5" ry="4.89247312"></ellipse>
                            <ellipse id="Oval-3-Copy" fill="#FF6B6B" cx="38" cy="17.6129032" rx="5" ry="4.89247312"></ellipse>
                            <ellipse id="Oval-3-Copy-2" fill="#FF6B6B" cx="57" cy="17.6129032" rx="5" ry="4.89247312"></ellipse>
                            <use id="address" stroke="#FF6B6B" mask="url(#mask-2)" stroke-width="4" xlink:href="#path-1"></use>
                            <text id="www.circuito.io" font-family="Roboto-Light, Roboto" font-size="12" font-weight="300" letter-spacing="-0.150000006" fill="#FFFFFF">
                                <tspan x="107" y="21.7634409">www.circuito.io</tspan>
                            </text>
                        </g>
                    </g>
                </g>
            </g>
        </g>
    </g>
</svg>