<svg xmlns="http://www.w3.org/2000/svg" width="58" height="64" viewBox="0 0 58 64">
    <g fill="#FDB72F" fill-rule="nonzero" stroke="#FDB72F">
        <path d="M24 54.933l10.512 7.65-4.024-12.353L41 42.75H28.108L24 30l-4.108 12.75H7l10.512 7.48-4.024 12.353zM50.984 25.665l6.255 2.16-3.797-5.415 4.003-5.204-6.274 1.918-3.897-5.594-.102 6.817-6.275 1.918 6.23 2.076-.12 6.612zM6.839 29.593l4.091 1.412-2.483-3.541 2.618-3.405-4.104 1.255-2.549-3.66-.067 4.46-4.104 1.254 4.075 1.359-.079 4.324zM52.39 54.82l3.335 1.151-2.024-2.887 2.135-2.775-3.346 1.023-2.078-2.983-.055 3.635-3.345 1.023 3.321 1.107-.064 3.525zM24.39 6.82l3.335 1.151-2.024-2.887 2.135-2.775-3.346 1.023L22.412.349l-.055 3.635-3.345 1.023 3.321 1.107-.064 3.525z"/>
    </g>
</svg>
