<?xml version="1.0" encoding="UTF-8"?>
<svg width="230px" height="200px" viewBox="0 0 230 200" version="1.1" xmlns="http://www.w3.org/2000/svg" xmlns:xlink="http://www.w3.org/1999/xlink">
    <!-- Generator: Sketch 48.2 (47327) - http://www.bohemiancoding.com/sketch -->
    <title>Page 1</title>
    <desc>Created with Sketch.</desc>
    <defs>
        <polygon id="path-1" points="0 0.3712 16.4405 0.3712 16.4405 2.9562 0 2.9562"></polygon>
        <polygon id="path-3" points="0.022 1.044 98.357 7.372 98.37 7.167 0.035 0.839"></polygon>
    </defs>
    <g id="Mobile---Walkthrough-3" stroke="none" stroke-width="1" fill="none" fill-rule="evenodd" transform="translate(-73.000000, -191.000000)">
        <g id="Page-1" transform="translate(73.000000, 191.000000)">
            <g id="Group-20" transform="translate(0.000000, 0.753000)">
                <g id="Group-3" transform="translate(0.000000, 158.000000)">
                    <mask id="mask-2" fill="white">
                        <use xlink:href="#path-1"></use>
                    </mask>
                    <g id="Clip-2"></g>
                    <path d="M15.3445,2.9562 L1.0955,2.9562 C0.4905,2.9562 -0.0005,2.3772 -0.0005,1.6632 C-0.0005,0.9492 0.4905,0.3712 1.0955,0.3712 L15.3445,0.3712 C15.9495,0.3712 16.4405,0.9492 16.4405,1.6632 C16.4405,2.3772 15.9495,2.9562 15.3445,2.9562" id="Fill-1" fill="#DFDFDE" mask="url(#mask-2)"></path>
                </g>
                <path d="M227.9739,160.9562 L219.2059,160.9562 C218.5999,160.9562 218.1099,160.3772 218.1099,159.6632 C218.1099,158.9492 218.5999,158.3712 219.2059,158.3712 L227.9739,158.3712 C228.5799,158.3712 229.0699,158.9492 229.0699,159.6632 C229.0699,160.3772 228.5799,160.9562 227.9739,160.9562" id="Fill-4" fill="#DFDFDE"></path>
                <path d="M211.5335,160.9562 L23.0165,160.9562 C22.4105,160.9562 21.9205,160.3772 21.9205,159.6632 C21.9205,158.9492 22.4105,158.3712 23.0165,158.3712 L211.5335,158.3712 C212.1395,158.3712 212.6295,158.9492 212.6295,159.6632 C212.6295,160.3772 212.1395,160.9562 211.5335,160.9562" id="Fill-6" fill="#DFDFDE"></path>
                <path d="M159.0935,197.9884 L57.6715,191.4614 C54.5465,191.2594 52.1765,188.5634 52.3775,185.4384 L63.9545,5.5524 C64.1555,2.4274 66.8525,0.0574 69.9765,0.2594 L171.3985,6.7864 C174.5235,6.9874 176.8935,9.6834 176.6925,12.8084 L165.1145,192.6944 C164.9135,195.8194 162.2185,198.1894 159.0935,197.9884" id="Fill-8" fill="#DFDFDE"></path>
                <path d="M159.0935,197.9884 L57.6715,191.4614 C54.5465,191.2594 52.1765,188.5634 52.3775,185.4384 L63.9545,5.5524 C64.1555,2.4274 66.8525,0.0574 69.9765,0.2594 L171.3985,6.7864 C174.5235,6.9874 176.8935,9.6834 176.6925,12.8084 L165.1145,192.6944 C164.9135,195.8194 162.2185,198.1894 159.0935,197.9884 Z" id="Stroke-10" stroke="#7F8181" stroke-width="2"></path>
                <path d="M156.1267,175.8575 L63.4497,169.8925 C61.8877,169.7925 60.7027,168.4435 60.8027,166.8815 L70.8437,10.8735 C70.9437,9.3115 72.2927,8.1265 73.8547,8.2275 L166.5317,14.1915 C168.0937,14.2925 169.2787,15.6405 169.1787,17.2025 L159.1377,173.2105 C159.0377,174.7725 157.6887,175.9585 156.1267,175.8575" id="Fill-12" fill="#FEFEFE"></path>
                <polygon id="Fill-14" fill="#DFDFDE" points="158.2537 186.9474 62.7477 180.8014 63.4497 169.8924 158.9557 176.0394"></polygon>
                <path d="M159.5232,22.1315 L159.1652,22.1085 L159.0462,21.9785 C159.5232,21.4895 159.8342,20.8365 159.8812,20.1075 C159.9852,18.4805 158.7522,17.0765 157.1252,16.9725 C155.4982,16.8675 154.0952,18.1015 153.9902,19.7285 C153.8852,21.3545 155.1192,22.7575 156.7462,22.8625 C157.4762,22.9095 158.1632,22.6855 158.7092,22.2755 L158.8232,22.4095 L158.7992,22.7675 L160.9202,25.1745 L161.6382,24.5425 L159.5232,22.1315 Z" id="Fill-16" fill="#808080"></path>
                <path d="M156.8045,21.9566 C155.6765,21.8836 154.8245,20.9146 154.8965,19.7866 C154.9695,18.6576 155.9385,17.8056 157.0675,17.8786 C158.1955,17.9506 159.0475,18.9206 158.9745,20.0486 C158.9025,21.1766 157.9325,22.0296 156.8045,21.9566" id="Fill-18" fill="#FEFEFE"></path>
            </g>
            <g id="Group-23" transform="translate(70.000000, 22.753000)">
                <mask id="mask-4" fill="white">
                    <use xlink:href="#path-3"></use>
                </mask>
                <g id="Clip-22"></g>
                <polygon id="Fill-21" fill="#D6D7D7" mask="url(#mask-4)" points="-1.0681 2.0021 99.3149 8.4631 99.4599 6.2101 -0.9231 -0.2509"></polygon>
            </g>
            <g id="Group-76" transform="translate(60.000000, 24.753000)">
                <polygon id="Fill-24" fill="#DFDFDE" points="98.2537 162.9474 2.7477 156.8014 3.4497 145.8924 98.9557 152.0394"></polygon>
                <polygon id="Fill-26" fill="#E4E4E3" points="97.8352 132.6642 3.5612 126.4282 11.8912 0.5172 106.1652 6.7542"></polygon>
                <polygon id="Fill-28" fill="#808080" points="97.9846 132.9386 96.9836 132.8726 97.0176 132.3466 97.6856 132.3906 97.7556 131.3396 98.0886 131.3626"></polygon>
                <path d="M7.7459,126.9689 L6.0619,126.8569 L6.0969,126.3319 L7.7809,126.4439 L7.7459,126.9689 Z M11.1129,127.1919 L9.4299,127.0799 L9.4639,126.5549 L11.1479,126.6659 L11.1129,127.1919 Z M14.4809,127.4139 L12.7969,127.3029 L12.8319,126.7779 L14.5159,126.8889 L14.4809,127.4139 Z M17.8479,127.6369 L16.1639,127.5259 L16.1989,126.9999 L17.8829,127.1119 L17.8479,127.6369 Z M21.2159,127.8599 L19.5319,127.7479 L19.5669,127.2229 L21.2499,127.3339 L21.2159,127.8599 Z M24.5829,128.0819 L22.8989,127.9709 L22.9339,127.4459 L24.6179,127.5569 L24.5829,128.0819 Z M27.9509,128.3049 L26.2669,128.1939 L26.3019,127.6679 L27.9849,127.7799 L27.9509,128.3049 Z M31.3179,128.5279 L29.6339,128.4159 L29.6689,127.8909 L31.3529,128.0029 L31.3179,128.5279 Z M34.6849,128.7509 L33.0019,128.6399 L33.0369,128.1149 L34.7199,128.2259 L34.6849,128.7509 Z M38.0529,128.9739 L36.3689,128.8629 L36.4039,128.3369 L38.0879,128.4479 L38.0529,128.9739 Z M41.4199,129.1969 L39.7369,129.0849 L39.7709,128.5599 L41.4549,128.6709 L41.4199,129.1969 Z M44.7879,129.4189 L43.1039,129.3079 L43.1389,128.7819 L44.8229,128.8939 L44.7879,129.4189 Z M48.1549,129.6419 L46.4719,129.5309 L46.5059,129.0049 L48.1899,129.1159 L48.1549,129.6419 Z M51.5229,129.8649 L49.8389,129.7529 L49.8739,129.2279 L51.5579,129.3389 L51.5229,129.8649 Z M54.8899,130.0869 L53.2059,129.9759 L53.2409,129.4499 L54.9249,129.5619 L54.8899,130.0869 Z M58.2579,130.3099 L56.5739,130.1979 L56.6089,129.6729 L58.2919,129.7849 L58.2579,130.3099 Z M61.6249,130.5329 L59.9409,130.4219 L59.9759,129.8969 L61.6599,130.0079 L61.6249,130.5329 Z M64.9929,130.7559 L63.3089,130.6449 L63.3439,130.1189 L65.0269,130.2309 L64.9929,130.7559 Z M68.3599,130.9789 L66.6759,130.8669 L66.7109,130.3419 L68.3939,130.4529 L68.3599,130.9789 Z M71.7269,131.2009 L70.0439,131.0899 L70.0789,130.5649 L71.7619,130.6759 L71.7269,131.2009 Z M75.0949,131.4239 L73.4109,131.3129 L73.4459,130.7869 L75.1299,130.8989 L75.0949,131.4239 Z M78.4619,131.6469 L76.7789,131.5349 L76.8129,131.0099 L78.4969,131.1209 L78.4619,131.6469 Z M81.8289,131.8689 L80.1459,131.7579 L80.1809,131.2329 L81.8649,131.3439 L81.8289,131.8689 Z M85.1969,132.0919 L83.5139,131.9809 L83.5479,131.4549 L85.2319,131.5679 L85.1969,132.0919 Z M88.5649,132.3159 L86.8809,132.2039 L86.9149,131.6789 L88.5999,131.7899 L88.5649,132.3159 Z M91.9319,132.5379 L90.2479,132.4269 L90.2829,131.9019 L91.9669,132.0129 L91.9319,132.5379 Z M95.2999,132.7609 L93.6159,132.6499 L93.6509,132.1239 L95.3339,132.2359 L95.2999,132.7609 Z" id="Fill-30" fill="#808080"></path>
                <polygon id="Fill-32" fill="#808080" points="4.3782 126.7452 3.3772 126.6802 3.4812 125.1032 3.8152 125.1252 3.7452 126.1762 4.4132 126.2212"></polygon>
                <path d="M11.6238,7.0875 L11.2898,7.0655 L11.4638,4.4425 L11.7968,4.4645 L11.6238,7.0875 Z M11.2768,12.3335 L10.9428,12.3115 L11.1168,9.6885 L11.4508,9.7105 L11.2768,12.3335 Z M10.9298,17.5795 L10.5958,17.5575 L10.7698,14.9345 L11.1028,14.9565 L10.9298,17.5795 Z M10.5828,22.8265 L10.2488,22.8035 L10.4218,20.1805 L10.7558,20.2025 L10.5828,22.8265 Z M10.2358,28.0715 L9.9018,28.0495 L10.0748,25.4265 L10.4088,25.4495 L10.2358,28.0715 Z M9.8888,33.3185 L9.5548,33.2955 L9.7278,30.6735 L10.0618,30.6955 L9.8888,33.3185 Z M9.5408,38.5645 L9.2068,38.5425 L9.3808,35.9195 L9.7148,35.9415 L9.5408,38.5645 Z M9.1938,43.8105 L8.8608,43.7885 L9.0338,41.1655 L9.3678,41.1875 L9.1938,43.8105 Z M8.8478,49.0565 L8.5138,49.0345 L8.6868,46.4115 L9.0208,46.4335 L8.8478,49.0565 Z M8.4998,54.3025 L8.1658,54.2805 L8.3398,51.6575 L8.6738,51.6795 L8.4998,54.3025 Z M8.1528,59.5485 L7.8188,59.5265 L7.9928,56.9045 L8.3268,56.9255 L8.1528,59.5485 Z M7.8058,64.7955 L7.4728,64.7735 L7.6458,62.1495 L7.9798,62.1715 L7.8058,64.7955 Z M7.4588,70.0415 L7.1248,70.0185 L7.2988,67.3965 L7.6328,67.4185 L7.4588,70.0415 Z M7.1118,75.2875 L6.7778,75.2655 L6.9518,72.6415 L7.2858,72.6645 L7.1118,75.2875 Z M6.7648,80.5335 L6.4308,80.5105 L6.6048,77.8885 L6.9378,77.9105 L6.7648,80.5335 Z M6.4178,85.7795 L6.0838,85.7575 L6.2578,83.1345 L6.5918,83.1565 L6.4178,85.7795 Z M6.0708,91.0255 L5.7368,91.0045 L5.9108,88.3805 L6.2448,88.4025 L6.0708,91.0255 Z M5.7238,96.2715 L5.3898,96.2505 L5.5628,93.6275 L5.8968,93.6485 L5.7238,96.2715 Z M5.3768,101.5175 L5.0428,101.4965 L5.2158,98.8735 L5.5498,98.8945 L5.3768,101.5175 Z M5.0298,106.7635 L4.6958,106.7425 L4.8698,104.1195 L5.2028,104.1405 L5.0298,106.7635 Z M4.6828,112.0095 L4.3488,111.9885 L4.5218,109.3655 L4.8558,109.3865 L4.6828,112.0095 Z M4.3348,117.2565 L4.0018,117.2345 L4.1748,114.6115 L4.5088,114.6335 L4.3348,117.2565 Z M3.9888,122.5025 L3.6548,122.4805 L3.8278,119.8575 L4.1618,119.8795 L3.9888,122.5025 Z" id="Fill-34" fill="#808080"></path>
                <polygon id="Fill-36" fill="#808080" points="11.971 1.8414 11.637 1.8194 11.742 0.2434 12.743 0.3094 12.708 0.8354 12.04 0.7904"></polygon>
                <path d="M16.0755,1.0577 L14.3915,0.9467 L14.4265,0.4207 L16.1105,0.5327 L16.0755,1.0577 Z M19.4435,1.2807 L17.7595,1.1687 L17.7935,0.6437 L19.4775,0.7547 L19.4435,1.2807 Z M22.8105,1.5037 L21.1265,1.3917 L21.1615,0.8667 L22.8455,0.9777 L22.8105,1.5037 Z M26.1785,1.7257 L24.4935,1.6147 L24.5295,1.0897 L26.2125,1.2007 L26.1785,1.7257 Z M29.5455,1.9487 L27.8615,1.8377 L27.8965,1.3117 L29.5795,1.4237 L29.5455,1.9487 Z M32.9125,2.1717 L31.2285,2.0597 L31.2635,1.5347 L32.9475,1.6457 L32.9125,2.1717 Z M36.2805,2.3947 L34.5965,2.2827 L34.6315,1.7577 L36.3155,1.8697 L36.2805,2.3947 Z M39.6475,2.6177 L37.9645,2.5057 L37.9985,1.9807 L39.6825,2.0917 L39.6475,2.6177 Z M43.0145,2.8397 L41.3315,2.7287 L41.3665,2.2037 L43.0505,2.3147 L43.0145,2.8397 Z M46.3825,3.0627 L44.6995,2.9517 L44.7335,2.4257 L46.4175,2.5367 L46.3825,3.0627 Z M49.7505,3.2857 L48.0665,3.1737 L48.1005,2.6487 L49.7845,2.7607 L49.7505,3.2857 Z M53.1175,3.5087 L51.4335,3.3967 L51.4685,2.8717 L53.1525,2.9827 L53.1175,3.5087 Z M56.4845,3.7307 L54.8015,3.6197 L54.8355,3.0947 L56.5195,3.2057 L56.4845,3.7307 Z M59.8525,3.9537 L58.1685,3.8427 L58.2035,3.3167 L59.8875,3.4287 L59.8525,3.9537 Z M63.2195,4.1767 L61.5355,4.0647 L61.5705,3.5397 L63.2545,3.6517 L63.2195,4.1767 Z M66.5875,4.3997 L64.9035,4.2877 L64.9385,3.7627 L66.6215,3.8737 L66.5875,4.3997 Z M69.9545,4.6217 L68.2705,4.5107 L68.3055,3.9857 L69.9895,4.0967 L69.9545,4.6217 Z M73.3225,4.8447 L71.6385,4.7337 L71.6735,4.2077 L73.3565,4.3197 L73.3225,4.8447 Z M76.6895,5.0677 L75.0055,4.9557 L75.0405,4.4317 L76.7245,4.5427 L76.6895,5.0677 Z M80.0565,5.2907 L78.3735,5.1797 L78.4085,4.6537 L80.0925,4.7657 L80.0565,5.2907 Z M83.4245,5.5137 L81.7405,5.4017 L81.7755,4.8767 L83.4595,4.9877 L83.4245,5.5137 Z M86.7915,5.7357 L85.1085,5.6247 L85.1425,5.0997 L86.8265,5.2107 L86.7915,5.7357 Z M90.1595,5.9587 L88.4755,5.8477 L88.5105,5.3227 L90.1945,5.4337 L90.1595,5.9587 Z M93.5265,6.1817 L91.8435,6.0707 L91.8775,5.5447 L93.5615,5.6567 L93.5265,6.1817 Z M96.8945,6.4047 L95.2105,6.2927 L95.2455,5.7677 L96.9295,5.8787 L96.8945,6.4047 Z M100.2625,6.6267 L98.5775,6.5157 L98.6135,5.9907 L100.2965,6.1017 L100.2625,6.6267 Z M103.6295,6.8497 L101.9455,6.7387 L101.9805,6.2137 L103.6635,6.3247 L103.6295,6.8497 Z" id="Fill-38" fill="#808080"></path>
                <polygon id="Fill-40" fill="#808080" points="106.2449 8.0782 105.9109 8.0562 105.9809 7.0052 105.3129 6.9612 105.3479 6.4362 106.3489 6.5022"></polygon>
                <path d="M105.8977,13.3243 L105.5647,13.3023 L105.7377,10.6793 L106.0717,10.7013 L105.8977,13.3243 Z M105.5507,18.5703 L105.2167,18.5483 L105.3907,15.9253 L105.7247,15.9473 L105.5507,18.5703 Z M105.2037,23.8163 L104.8697,23.7943 L105.0437,21.1713 L105.3767,21.1933 L105.2037,23.8163 Z M104.8567,29.0623 L104.5227,29.0403 L104.6967,26.4173 L105.0297,26.4393 L104.8567,29.0623 Z M104.5097,34.3093 L104.1757,34.2863 L104.3497,31.6633 L104.6837,31.6853 L104.5097,34.3093 Z M104.1627,39.5543 L103.8287,39.5323 L104.0017,36.9093 L104.3357,36.9313 L104.1627,39.5543 Z M103.8157,44.8013 L103.4817,44.7793 L103.6547,42.1563 L103.9887,42.1783 L103.8157,44.8013 Z M103.4687,50.0473 L103.1347,50.0253 L103.3077,47.4023 L103.6417,47.4243 L103.4687,50.0473 Z M103.1217,55.2933 L102.7877,55.2713 L102.9607,52.6483 L103.2947,52.6703 L103.1217,55.2933 Z M102.7737,60.5393 L102.4397,60.5173 L102.6137,57.8943 L102.9477,57.9163 L102.7737,60.5393 Z M102.4267,65.7853 L102.0937,65.7633 L102.2667,63.1403 L102.6007,63.1623 L102.4267,65.7853 Z M102.0807,71.0313 L101.7467,71.0103 L101.9197,68.3873 L102.2537,68.4093 L102.0807,71.0313 Z M101.7327,76.2773 L101.3987,76.2563 L101.5727,73.6333 L101.9067,73.6543 L101.7327,76.2773 Z M101.3857,81.5243 L101.0517,81.5023 L101.2257,78.8793 L101.5597,78.9013 L101.3857,81.5243 Z M101.0387,86.7703 L100.7057,86.7483 L100.8787,84.1253 L101.2127,84.1463 L101.0387,86.7703 Z M100.6917,92.0163 L100.3577,91.9943 L100.5317,89.3713 L100.8657,89.3933 L100.6917,92.0163 Z M100.3447,97.2623 L100.0107,97.2403 L100.1847,94.6173 L100.5187,94.6383 L100.3447,97.2623 Z M99.9977,102.5093 L99.6637,102.4863 L99.8377,99.8633 L100.1707,99.8863 L99.9977,102.5093 Z M99.6507,107.7543 L99.3167,107.7323 L99.4907,105.1093 L99.8247,105.1323 L99.6507,107.7543 Z M99.3037,113.0013 L98.9697,112.9783 L99.1437,110.3553 L99.4777,110.3783 L99.3037,113.0013 Z M98.9567,118.2473 L98.6227,118.2243 L98.7957,115.6013 L99.1297,115.6243 L98.9567,118.2473 Z M98.6097,123.4933 L98.2757,123.4703 L98.4487,120.8473 L98.7827,120.8703 L98.6097,123.4933 Z M98.2627,128.7393 L97.9287,128.7173 L98.1027,126.0943 L98.4357,126.1163 L98.2627,128.7393 Z" id="Fill-42" fill="#808080"></path>
                <path d="M55.1111,160.171 C54.9441,162.772 52.6991,164.745 50.0971,164.578 C47.4961,164.41 45.5231,162.166 45.6901,159.565 C45.8571,156.963 48.1021,154.989 50.7031,155.157 C53.3051,155.324 55.2781,157.569 55.1111,160.171" id="Fill-44" fill="#E6E5E5"></path>
                <path d="M48.3074,164.6124 C45.1994,164.4134 42.8354,161.7224 43.0354,158.6154 C43.2354,155.5084 45.9254,153.1424 49.0334,153.3424 C50.5154,153.4384 51.9274,154.1314 52.9044,155.2424 C53.1614,155.5354 53.1334,155.9804 52.8404,156.2384 C52.5474,156.4964 52.1014,156.4664 51.8444,156.1744 C51.1114,155.3414 50.0554,154.8234 48.9424,154.7524 C46.6114,154.6014 44.5944,156.3754 44.4444,158.7064 C44.2934,161.0364 46.0674,163.0534 48.3984,163.2044 C49.5684,163.2794 50.6884,162.8784 51.5484,162.0734 C51.8354,161.8074 52.2824,161.8224 52.5464,162.1064 C52.8124,162.3914 52.7984,162.8394 52.5134,163.1044 C51.3654,164.1774 49.8714,164.7144 48.3074,164.6124" id="Fill-46" fill="#808080"></path>
                <path d="M53.2034,161.5187 C53.1264,161.5137 53.0484,161.4967 52.9734,161.4637 C52.6144,161.3117 52.4464,160.8977 52.5994,160.5387 C52.6824,160.3417 52.7414,160.1317 52.7914,159.9097 C52.8774,159.5287 53.2544,159.2897 53.6354,159.3767 C54.0164,159.4617 54.2554,159.8397 54.1694,160.2207 C54.0994,160.5297 54.0144,160.8187 53.8984,161.0897 C53.7774,161.3727 53.4934,161.5377 53.2034,161.5187" id="Fill-48" fill="#808080"></path>
                <polygon id="Fill-50" fill="#1B93A7" points="90.8328 86.7648 37.8488 83.3048 39.3118 60.8948 92.2958 64.3548"></polygon>
                <polygon id="Stroke-52" stroke="#333333" stroke-width="0.25" points="90.8328 86.7648 37.8488 83.3048 39.3118 60.8948 92.2958 64.3548"></polygon>
                <polygon id="Fill-54" fill="#333333" points="63.3616 78.4347 63.5656 75.3157 84.7166 76.6977 84.5136 79.8157"></polygon>
                <polygon id="Fill-56" fill="#333333" points="70.3518 67.3136 70.4558 65.7096 85.3718 66.6836 85.2668 68.2876"></polygon>
                <polygon id="Fill-58" fill="#333333" points="43.6346 65.5685 43.7396 63.9645 69.0986 65.6215 68.9936 67.2245"></polygon>
                <polygon id="Fill-60" fill="#333333" points="87.1638 75.5812 87.4118 71.7842 89.8738 71.9442 89.6258 75.7422"></polygon>
                <polygon id="Fill-62" fill="#333333" points="36.116 79.7247 36.364 75.9267 43.199 76.3727 42.95 80.1707"></polygon>
                <polygon id="Fill-64" fill="#969696" points="35.9768 71.6388 36.3738 65.5558 43.2078 66.0018 42.8108 72.0848"></polygon>
                <polygon id="Fill-66" fill="#333333" points="72.6678 83.2052 72.7728 81.6012 84.3478 82.3582 84.2428 83.9612"></polygon>
                <polygon id="Fill-68" fill="#333333" points="53.0042 81.921 53.1092 80.318 71.5342 81.522 71.4292 83.125"></polygon>
                <polygon id="Fill-70" fill="#333333" points="37.4363 72.9103 24.1643 72.0433 22.2313 70.5613 22.6253 64.5183 24.7343 63.3013 38.0073 64.1673"></polygon>
                <polygon id="Fill-72" fill="#333333" points="24.3509 69.1827 13.8639 68.4977 14.0609 65.4767 24.5479 66.1617"></polygon>
                <path d="M96.8802,152.1134 L2.5542,146.0424 C1.4792,145.9724 0.6642,145.0464 0.7332,143.9704 L1.7302,128.4774 L99.9482,134.7994 L98.9512,150.2924 C98.8822,151.3674 97.9552,152.1824 96.8802,152.1134" id="Fill-74" fill="#EB686F"></path>
            </g>
        </g>
    </g>
</svg>