<?xml version="1.0" encoding="UTF-8"?>
<svg width="223px" height="207px" viewBox="0 0 223 207" version="1.1" xmlns="http://www.w3.org/2000/svg" xmlns:xlink="http://www.w3.org/1999/xlink">
    <!-- Generator: Sketch 48.2 (47327) - http://www.bohemiancoding.com/sketch -->
    <title>Page 1</title>
    <desc>Created with Sketch.</desc>
    <defs>
        <polygon id="path-1" points="2.34375 206.880487 224.935156 206.880487 224.935156 0.781132075 2.34375 0.781132075"></polygon>
    </defs>
    <g id="Mobile---Walkthrough-4" stroke="none" stroke-width="1" fill="none" fill-rule="evenodd" transform="translate(-75.000000, -182.000000)">
        <g id="Page-1" transform="translate(75.000000, 182.000000)">
            <path d="M28.71,170.745083 L16.8467188,170.745083 C16.3420313,170.745083 15.9342188,170.336551 15.9342188,169.83272 C15.9342188,169.32889 16.3420313,168.920358 16.8467188,168.920358 L28.71,168.920358 C29.2146875,168.920358 29.6225,169.32889 29.6225,169.83272 C29.6225,170.336551 29.2146875,170.745083 28.71,170.745083" id="Fill-1" fill="#DFDFDE"></path>
            <path d="M205.744375,170.745083 L198.443594,170.745083 C197.939687,170.745083 197.531094,170.336551 197.531094,169.83272 C197.531094,169.32889 197.939687,168.920358 198.443594,168.920358 L205.744375,168.920358 C206.249062,168.920358 206.656875,169.32889 206.656875,169.83272 C206.656875,170.336551 206.249062,170.745083 205.744375,170.745083" id="Fill-3" fill="#DFDFDE"></path>
            <path d="M192.056094,170.745083 L35.0975,170.745083 C34.5935937,170.745083 34.185,170.336551 34.185,169.83272 C34.185,169.32889 34.5935937,168.920358 35.0975,168.920358 L192.056094,168.920358 C192.560781,168.920358 192.968594,169.32889 192.968594,169.83272 C192.968594,170.336551 192.560781,170.745083 192.056094,170.745083" id="Fill-5" fill="#DFDFDE"></path>
            <path d="M134.293203,23.9132649 C134.293203,36.6129102 123.997109,46.9074498 111.295547,46.9074498 C98.5947656,46.9074498 88.2978906,36.6129102 88.2978906,23.9132649 C88.2978906,11.2144008 98.5947656,0.91908 111.295547,0.91908 C123.997109,0.91908 134.293203,11.2144008 134.293203,23.9132649" id="Fill-7" fill="#FEFEFE"></path>
            <path d="M111.295938,1.83901925 C99.1225,1.83901925 89.2185938,11.7422117 89.2185938,23.9130306 C89.2185938,36.0846306 99.1225,45.987823 111.295938,45.987823 C123.469375,45.987823 133.373281,36.0846306 133.373281,23.9130306 C133.373281,11.7422117 123.469375,1.83901925 111.295938,1.83901925 M111.295938,47.8273891 C98.1076563,47.8273891 87.37875,37.0993211 87.37875,23.9130306 C87.37875,10.7275211 98.1076563,0.000234339623 111.295938,0.000234339623 C124.484219,0.000234339623 135.213125,10.7275211 135.213125,23.9130306 C135.213125,37.0993211 124.484219,47.8273891 111.295938,47.8273891" id="Fill-9" fill="#818181"></path>
            <path d="M221.668437,66.8156162 C221.862187,79.5136992 211.723906,89.9636842 199.023906,90.1574049 C186.324687,90.3503445 175.872344,80.2135936 175.679375,67.5162917 C175.485625,54.8182087 185.623906,44.3682238 198.323906,44.174503 C211.023125,43.9815634 221.474687,54.1183143 221.668437,66.8156162" id="Fill-11" fill="#FEFEFE"></path>
            <path d="M198.678047,45.0915521 C198.563984,45.0915521 198.451484,45.0923332 198.337422,45.0938955 C186.164766,45.2798049 176.413984,55.3321936 176.599141,67.5022313 C176.688984,73.3974351 179.069453,78.9051974 183.302266,83.0108275 C187.534297,87.1156766 193.133516,89.3286238 199.009297,89.2372313 C204.906172,89.1481823 210.414766,86.7680728 214.521016,82.5358992 C218.626484,78.3029445 220.838203,72.7248804 220.748359,66.8296766 C220.565547,54.7736842 210.696016,45.0915521 198.678047,45.0915521 M198.663984,91.0799219 C192.413984,91.0799219 186.517891,88.6920011 182.021016,84.3309408 C177.435078,79.8839558 174.856172,73.9168879 174.759297,67.5303521 C174.558516,54.3456238 185.123359,43.4558615 198.308516,43.2543294 C211.539766,43.0465483 222.388203,53.6176087 222.588203,66.8015558 C222.685859,73.1880917 220.289766,79.2309294 215.842109,83.8161747 C211.392891,88.40142 205.425703,90.979937 199.038203,91.0767974 C198.913203,91.0791408 198.788203,91.0799219 198.663984,91.0799219" id="Fill-13" fill="#818181"></path>
            <path d="M46.9149219,67.1421294 C46.9149219,79.8409936 36.6188281,90.1363143 23.9172656,90.1363143 C11.2164844,90.1363143 0.919609375,79.8409936 0.919609375,67.1421294 C0.919609375,54.4432653 11.2164844,44.1479445 23.9172656,44.1479445 C36.6188281,44.1479445 46.9149219,54.4432653 46.9149219,67.1421294" id="Fill-15" fill="#FEFEFE"></path>
            <path d="M23.9171875,45.0678838 C11.74375,45.0678838 1.83984375,54.9702951 1.83984375,67.1418951 C1.83984375,79.3134951 11.74375,89.2166875 23.9171875,89.2166875 C36.090625,89.2166875 45.9945313,79.3134951 45.9945313,67.1418951 C45.9945313,54.9702951 36.090625,45.0678838 23.9171875,45.0678838 M23.9171875,91.0562536 C10.7289062,91.0562536 0,80.3281857 0,67.1418951 C0,53.9556045 10.7289062,43.2283177 23.9171875,43.2283177 C37.1054687,43.2283177 47.834375,53.9556045 47.834375,67.1418951 C47.834375,80.3281857 37.1054687,91.0562536 23.9171875,91.0562536" id="Fill-17" fill="#818181"></path>
            <polygon id="Fill-19" fill="#B2B4B6" points="179.937578 109.824045 160.343828 122.094068 111.294609 111.332411 129.821953 98.8421094"></polygon>
            <path d="M112.441875,111.113616 L160.259063,121.60422 L178.737969,110.032529 L129.915313,99.3333634 L112.441875,111.113616 Z M160.429375,122.582978 L110.147344,111.551831 L129.727031,98.3514804 L181.137188,109.616186 L160.429375,122.582978 Z" id="Fill-21" fill="#B2B4B6"></path>
            <polygon id="Fill-23" fill="#939598" points="177.536641 133.995631 161.135078 137.527129 128.367891 144.590906 110.724141 132.873144 111.294453 132.487265 110.806953 132.395091 160.343672 122.093521"></polygon>
            <path d="M111.55,132.869707 L128.460156,144.100043 L176.401563,133.769571 L160.244531,122.584541 L111.889844,132.639273 L111.55,132.869707 Z M128.275,145.081145 L109.898438,132.876737 L110.1125,132.732228 L108.442969,132.41665 L160.44375,121.603439 L178.671094,134.221065 L128.275,145.081145 Z" id="Fill-25" fill="#818181"></path>
            <polygon id="Fill-27" fill="#FEFEFE" points="160.34375 122.093677 110.807031 132.395247 61.3445313 122.295991 111.294531 111.332802"></polygon>
            <path d="M63.5633594,122.280212 L110.806328,131.925631 L158.143047,122.081804 L111.294609,111.803668 L63.5633594,122.280212 Z M110.807891,132.864551 L110.714922,132.845804 L59.1258594,122.312238 L111.294609,110.862404 L111.393828,110.883495 L162.544609,122.106019 L110.807891,132.864551 Z" id="Fill-29" fill="#818181"></path>
            <polygon id="Fill-31" fill="#FEFEFE" points="160.34375 122.093677 110.807031 132.395247 61.3445313 122.295991 111.294531 111.332802"></polygon>
            <path d="M63.5633594,122.280212 L110.806328,131.925631 L158.143047,122.081804 L111.294609,111.803668 L63.5633594,122.280212 Z M110.807891,132.864551 L110.714922,132.845804 L59.1258594,122.312238 L111.294609,110.862404 L111.393828,110.883495 L162.544609,122.106019 L110.807891,132.864551 Z" id="Fill-33" fill="#818181"></path>
            <polygon id="Fill-35" fill="#5B5755" points="160.34375 122.093677 110.807031 132.395247 61.3445313 122.295991 111.294531 111.332802"></polygon>
            <path d="M63.5633594,122.280212 L110.806328,131.925631 L158.143047,122.081804 L111.294609,111.803668 L63.5633594,122.280212 Z M110.807891,132.864551 L110.714922,132.845804 L59.1258594,122.312238 L111.294609,110.862404 L111.393828,110.883495 L162.544609,122.106019 L110.807891,132.864551 Z" id="Fill-37" fill="#5B5755"></path>
            <polygon id="Fill-39" fill="#B2B4B6" points="111.294766 111.332568 61.3439844 122.296537 42.6517969 109.824202 92.7682031 98.8422657"></polygon>
            <path d="M43.8070312,110.041825 L61.4367187,121.804893 L110.147656,111.113538 L92.675,99.3340664 L43.8070312,110.041825 Z M61.2523437,122.787557 L41.4960937,109.605953 L92.8625,98.3514023 L112.442187,111.551753 L61.2523437,122.787557 Z" id="Fill-41" fill="#B2B4B6"></path>
            <polygon id="Fill-43" fill="#FEFEFE" points="110.761094 205.138953 110.761094 205.148326 110.761094 205.166292 110.69625 205.18504 110.641562 205.166292"></polygon>
            <polygon id="Fill-45" fill="#818181" points="110.749297 205.648095 110.550078 205.620755 109.014141 205.105208 111.221172 204.559197 111.221172 205.494993"></polygon>
            <polygon id="Fill-47" fill="#B2B4B6" points="161.236016 138.005416 161.236016 194.111008 110.761016 205.139031 110.761016 132.928057 110.641484 133.010857 110.641484 132.928057 110.724297 132.873378 128.368047 144.59114 161.135234 137.527363"></polygon>
            <path d="M111.221172,133.755354 L111.221172,204.56732 L160.775859,193.74083 L160.775859,138.075015 L128.275078,145.081769 L111.221172,133.755354 Z M110.300859,205.710117 L110.300859,133.805347 L110.181328,133.888147 L110.181328,132.76566 L110.468047,132.491483 L110.723516,132.320415 L110.778203,132.357128 L111.221172,132.051705 L111.221172,132.650834 L128.460234,144.100668 L161.488359,136.980649 L161.696172,138.005494 L161.696172,194.481343 L110.300859,205.710117 Z" id="Fill-49" fill="#818181"></path>
            <path d="M160.968984,145.330091 C160.968984,145.330091 127.719766,144.885627 127.719766,175.43414 L127.719766,201.193533 L109.276016,205.221831 L109.276016,133.010857 L109.156484,133.093657 L109.156484,133.010857 L109.239297,132.956178 L126.883047,144.67394 L160.968984,137.563295 L160.968984,145.330091 Z" id="Fill-51" fill="#939598"></path>
            <path d="M59.5136719,137.706789 L59.5136719,150.776691 L76.4253906,154.106657 C88.0042969,156.386782 96.3417969,166.553215 96.3089844,178.352215 L96.2449219,201.841638 L109.987891,204.839623 L109.987891,132.629431 L110.108203,132.712231 L110.108203,132.629431 L110.025391,132.574751 L92.3816406,144.292514 L59.6144531,137.228736 L59.5136719,137.706789 Z" id="Fill-53" fill="#E7E6E6"></path>
            <path d="M96.7058594,201.471303 L109.528516,204.269318 L109.528516,133.456571 L92.4738281,144.782986 L59.9738281,137.776232 L59.9738281,150.398545 L76.5144531,153.655866 C88.2839844,155.973485 96.8027344,166.360198 96.7699219,178.3537 L96.7058594,201.471303 Z M110.448828,205.411334 L95.7839844,202.211817 L95.8496094,178.351356 C95.8808594,166.796851 87.6746094,156.790549 76.3371094,154.558073 L59.0535156,151.154681 L59.0636719,137.611413 L59.2613281,136.681085 L92.2886719,143.801885 L109.528516,132.352051 L109.528516,131.752922 L109.971484,132.058345 L110.026172,132.021632 L110.568359,132.384077 L110.568359,133.506564 L110.448828,133.437824 L110.448828,205.411334 Z" id="Fill-55" fill="#818181"></path>
            <polygon id="Fill-57" fill="#FEFEFE" points="110.761094 205.138953 110.641562 205.166292 110.641562 205.148326 110.641562 133.01156 110.761094 132.92876"></polygon>
            <polygon id="Fill-59" fill="#818181" points="110.181641 205.745736 110.181641 132.770034 111.221484 132.051393 111.221484 205.503585"></polygon>
            <polygon id="Fill-61" fill="#FEFEFE" points="110.641719 132.81823 110.641719 132.92837 110.374531 133.112717 110.374531 132.92837 110.374531 132.81823 110.374531 132.643257"></polygon>
            <polygon id="Fill-63" fill="#818181" points="109.915 133.987272 109.915 131.792291 111.101719 132.570299 111.101719 133.170208"></polygon>
            <polygon id="Fill-65" fill="#939598" points="110.374688 132.81823 110.374688 132.92837 110.374688 133.112717 92.7957813 144.958585 60.2035938 137.840128 60.1942188 137.867468 60.0840625 137.840128 42.6520313 134.014143 61.3442188 122.296381 110.8075 132.394857 110.374688 132.48703 110.191094 132.523743 110.374688 132.643257"></polygon>
            <path d="M59.9401563,137.337626 L60.3010938,137.390743 L92.7010938,144.4678 L109.894844,132.880486 L109.440156,132.586 L61.4323438,122.783573 L43.8495313,133.806128 L59.9401563,137.337626 Z M92.889375,145.450464 L60.5135938,138.378875 L60.5089063,138.391373 L59.9721875,138.28592 L41.4542188,134.22169 L61.2565625,121.80872 L113.058906,132.38603 L110.834688,132.859396 L110.834688,133.356977 L92.889375,145.450464 Z" id="Fill-67" fill="#818181"></path>
            <path d="M43.5125781,133.995631 L59.9149219,137.527129 L92.6813281,144.590906 L99.2860156,140.204068 L74.9266406,134.952517 L71.4446094,134.201849 C61.7750781,131.852204 57.5852344,127.066989 61.7750781,122.482525 L60.7055469,122.093521 L43.5125781,133.995631 Z" id="Fill-69" fill="#B2B4B6"></path>
            <path d="M177.909297,133.995631 L161.507734,137.527129 L128.740547,144.590906 L122.135859,140.204068 L146.495234,134.952517 L149.978047,134.201849 C159.646797,131.852204 163.836641,127.066989 159.646797,122.482525 L160.716328,122.093521 L177.909297,133.995631 Z" id="Fill-71" fill="#B2B4B6"></path>
            <polygon id="Fill-73" fill="#B2B4B6" points="110.641719 205.148092 110.641719 205.166058 110.632344 205.166058 60.1667187 194.110696 60.1667187 138.005103 60.1940625 137.867624 92.7682812 144.977488 92.795625 144.958741 92.8784375 144.977488 110.374531 133.1863 110.641719 133.011326"></polygon>
            <path d="M60.6267969,193.74083 L110.181484,204.597003 L110.181484,133.870962 L92.9713281,145.469211 L60.6174219,138.431211 L60.6267969,193.74083 Z M111.101797,205.626535 L110.533828,205.6156 L59.7064844,194.481343 L59.7439844,137.776622 L59.8361719,137.318879 L92.6721094,144.485766 L92.6744531,144.484985 L92.7689844,144.496702 L111.101797,132.160283 L111.101797,205.626535 Z" id="Fill-75" fill="#818181"></path>
            <path d="M59.7803125,145.330091 C59.7803125,145.330091 93.0295312,144.885627 93.0295312,175.43414 L93.0295312,201.193533 L111.473281,205.221831 L111.473281,133.010857 L111.592812,133.093657 L111.592812,133.010857 L111.51,132.956178 L93.86625,144.67394 L59.7803125,137.563295 L59.7803125,145.330091 Z" id="Fill-77" fill="#939598"></path>
            <polygon id="Fill-79" fill="#FEFEFE" points="92.7679688 144.977254 60.1945313 137.86739 60.203125 137.84005 92.7953125 144.959288"></polygon>
            <polygon id="Fill-81" fill="#818181" points="92.8915625 145.451011 92.6704687 145.426795 59.6009375 138.209135 59.8845312 137.32958 60.3017187 137.39129 93.9353125 144.737056"></polygon>
            <path d="M113.590078,110.894665 L160.173672,121.114216 L177.540078,110.240857 L130.008828,99.8252423 L113.590078,110.894665 Z M160.343984,123.013148 C160.278359,123.013148 160.211953,123.006118 160.147109,122.992057 L111.097891,112.230401 C110.737734,112.152288 110.460391,111.867174 110.390859,111.50551 C110.321328,111.143846 110.475234,110.775933 110.780703,110.569714 L129.307266,98.0794121 C129.515078,97.9395894 129.774453,97.8919404 130.017422,97.9434951 L180.134609,108.925431 C180.500234,109.005888 180.779922,109.298812 180.843984,109.666725 C180.908047,110.03542 180.742422,110.405676 180.426016,110.603303 L160.833047,122.873325 C160.684609,122.965499 160.515078,123.013148 160.343984,123.013148 Z" id="Fill-83" fill="#818181"></path>
            <path d="M44.9614063,110.259995 L61.529375,121.313795 L108.999688,110.894274 L92.5809375,99.8248517 L44.9614063,110.259995 Z M61.3442188,123.215852 C61.16375,123.215852 60.9864063,123.162735 60.8340625,123.061188 L42.141875,110.589633 C41.8348438,110.384976 41.6801563,110.016282 41.748125,109.653837 C41.816875,109.291391 42.095,109.004716 42.4551563,108.925822 L92.5715625,97.9438857 C92.8129688,97.8907687 93.0739063,97.9391989 93.2825,98.0798026 L111.808281,110.570105 C112.114531,110.775542 112.267656,111.143455 112.198125,111.50512 C112.129375,111.866784 111.852031,112.151897 111.492656,112.230791 L61.541875,123.194761 C61.47625,123.208822 61.4098438,123.215852 61.3442188,123.215852 Z" id="Fill-85" fill="#818181"></path>
            <path d="M112.478828,132.962818 L128.548359,143.635425 L160.946016,136.652105 L175.325703,133.554916 L160.149922,123.049471 L112.478828,132.962818 Z M128.367109,145.486708 C128.192109,145.486708 128.020234,145.435935 127.871797,145.337512 L109.703047,133.276052 C109.397578,133.076863 109.242109,132.713637 109.310078,132.355878 C109.378828,131.99812 109.656953,131.716912 110.014766,131.645048 L110.620234,131.518505 L160.161641,121.216154 C160.401484,121.167723 160.653047,121.216935 160.853828,121.357538 L178.046797,133.258867 C178.340547,133.461961 178.485078,133.820501 178.414766,134.170448 C178.346016,134.521176 178.074141,134.796135 177.724922,134.871123 L128.556172,145.466399 C128.494453,145.479678 128.430391,145.486708 128.367109,145.486708 Z" id="Fill-87" fill="#818181"></path>
            <path d="M60.4040625,136.971822 L92.580625,143.99498 L108.959531,132.956022 L61.52125,123.270765 L45.0470312,133.598112 L60.4040625,136.971822 Z M92.7478125,145.894694 C92.6884375,145.894694 92.6290625,145.889226 92.5728125,145.875946 L59.9985937,138.766082 C59.9892187,138.76452 59.9790625,138.762177 59.9696875,138.759833 L59.8595312,138.731712 L42.4540625,134.911977 C42.0892187,134.832301 41.8095312,134.539377 41.7454687,134.170682 C41.6814062,133.802769 41.8470312,133.433294 42.1634375,133.234105 L60.855625,121.517124 C61.0548437,121.391362 61.29625,121.348399 61.5282812,121.395267 L111.465,131.583573 C111.832187,131.652312 112.120469,131.935863 112.195469,132.300652 C112.27125,132.665441 112.119687,133.040384 111.810312,133.248946 L110.897031,133.869946 L93.3095312,145.722063 C93.149375,145.829078 92.9454687,145.894694 92.7478125,145.894694 Z" id="Fill-89" fill="#818181"></path>
            <path d="M59.7803125,194.920183 C59.2717188,194.920183 58.8607813,194.508526 58.8607813,194.000791 L58.8607813,137.895198 C58.8607813,137.387462 59.2717188,136.975806 59.7803125,136.975806 C60.2889063,136.975806 60.700625,137.387462 60.700625,137.895198 L60.700625,194.000791 C60.700625,194.508526 60.2889063,194.920183 59.7803125,194.920183" id="Fill-91" fill="#818181"></path>
            <path d="M160.969375,194.920183 C160.460781,194.920183 160.049063,194.508526 160.049063,194.000791 L160.049063,137.895198 C160.049063,137.387462 160.460781,136.975806 160.969375,136.975806 C161.477188,136.975806 161.888906,137.387462 161.888906,137.895198 L161.888906,194.000791 C161.888906,194.508526 161.477188,194.920183 160.969375,194.920183" id="Fill-93" fill="#818181"></path>
            <path d="M110.545547,206.099355 C110.486953,206.099355 110.430703,206.094668 110.380703,206.082951 L59.8502344,195.009623 C59.3541406,194.901045 59.0400781,194.410494 59.1486719,193.914475 C59.2580469,193.416894 59.7471094,193.101317 60.2439844,193.213019 L110.563516,204.24026 L160.769766,193.102879 C161.268984,192.985709 161.757266,193.305974 161.867422,193.801211 C161.977578,194.29723 161.664297,194.788562 161.168203,194.898702 L110.850234,206.062642 C110.829141,206.067328 110.807266,206.071234 110.786172,206.074358 C110.708828,206.089981 110.625234,206.099355 110.545547,206.099355" id="Fill-95" fill="#818181"></path>
            <path d="M110.374688,205.957423 C109.866875,205.957423 109.455156,205.545766 109.455156,205.037249 L109.455156,132.376344 C109.455156,131.868608 109.866875,131.456951 110.374688,131.456951 C110.883281,131.456951 111.295,131.868608 111.295,132.376344 L111.295,205.037249 C111.295,205.545766 110.883281,205.957423 110.374688,205.957423" id="Fill-97" fill="#818181"></path>
            <path d="M65.5916406,181.677104 L74.7002344,183.99941 C74.6182031,181.212331 73.9174219,179.290746 71.1635156,178.351825 C69.8338281,177.898768 68.3619531,178.111236 67.2291406,178.922832 C66.2822656,179.599293 65.6994531,180.588987 65.5916406,181.677104 M75.1869531,185.093776 C75.1471094,185.093776 75.1080469,185.089089 75.0689844,185.078934 L64.9783594,182.506666 C64.7658594,182.452768 64.6182031,182.262172 64.6182031,182.043455 C64.6182031,180.500719 65.3674219,179.07984 66.6736719,178.144825 C68.0564844,177.155131 69.8502344,176.894232 71.4721094,177.447274 C75.3408594,178.766606 75.6650781,181.83958 75.6650781,184.616504 C75.6650781,184.763357 75.5963281,184.90318 75.4799219,184.993791 C75.3955469,185.059406 75.2924219,185.093776 75.1869531,185.093776" id="Fill-99" fill="#818181"></path>
            <path d="M68.9317969,190.395475 C68.7044531,190.395475 68.4747656,190.354075 68.2489844,190.268932 C67.4591406,189.972102 67.0591406,189.19097 67.0591406,187.945064 C67.0591406,187.691196 67.2646094,187.484977 67.5185156,187.484977 C67.7732031,187.484977 67.9786719,187.691196 67.9786719,187.945064 C67.9786719,188.768377 68.1778906,189.260491 68.5724219,189.408125 C68.9677344,189.557321 69.2638281,189.438589 69.4450781,189.31517 C69.7716406,189.088642 69.9677344,188.662143 69.9677344,188.175498 L69.9677344,183.883177 C69.9677344,183.629309 70.1732031,183.423091 70.4278906,183.423091 C70.6817969,183.423091 70.8872656,183.629309 70.8872656,183.883177 L70.8872656,188.175498 C70.8872656,188.96366 70.5435156,189.672928 69.9685156,190.070525 C69.6575781,190.286117 69.2989844,190.395475 68.9317969,190.395475" id="Fill-101" fill="#818181"></path>
            <path d="M79.1666406,179.816994 L79.1666406,184.34756 C79.1666406,185.745787 79.4853906,186.872179 80.0885156,187.604881 C80.5627344,188.181357 81.2017969,188.499277 81.8885156,188.499277 C82.7986719,188.499277 83.7658594,187.895462 83.7658594,186.776881 L83.7658594,181.171477 L79.1666406,179.816994 Z M81.8885156,189.41867 C80.9221094,189.41867 80.0307031,188.982017 79.3775781,188.189168 C78.6385156,187.289304 78.2463281,185.961379 78.2463281,184.34756 L78.2463281,179.202243 C78.2463281,179.056953 78.3150781,178.921036 78.4307031,178.83433 C78.5478906,178.746843 78.6963281,178.720285 78.8369531,178.760904 L84.3564844,180.38644 C84.5510156,180.444243 84.6861719,180.623904 84.6861719,180.826998 L84.6861719,186.776881 C84.6861719,188.258689 83.4572656,189.41867 81.8885156,189.41867 Z" id="Fill-103" fill="#818181"></path>
            <path d="M81.4660937,192.620999 C81.2121875,192.620999 81.0067187,192.415561 81.0067187,192.160912 L81.0067187,189.401954 C81.0067187,189.147305 81.2121875,188.941867 81.4660937,188.941867 C81.7207812,188.941867 81.92625,189.147305 81.92625,189.401954 L81.92625,192.160912 C81.92625,192.415561 81.7207812,192.620999 81.4660937,192.620999" id="Fill-105" fill="#818181"></path>
            <path d="M83.9117188,193.826676 C83.8742188,193.826676 83.834375,193.822771 83.7960938,193.811835 L78.453125,192.424544 C78.2078125,192.361272 78.0601563,192.109748 78.1234375,191.864472 C78.1875,191.619197 78.4382813,191.466876 78.6851563,191.534835 L84.0273438,192.922125 C84.2726563,192.985397 84.4210938,193.236922 84.3570313,193.482197 C84.303125,193.689197 84.1164063,193.826676 83.9117188,193.826676" id="Fill-107" fill="#818181"></path>
            <path d="M96.4407031,155.01527 C96.4078906,155.01527 96.3750781,155.012145 96.3422656,155.004334 L64.5711719,148.047572 C64.3235156,147.993674 64.1657031,147.748398 64.2211719,147.499998 C64.2750781,147.252379 64.5203906,147.096153 64.7688281,147.14927 L96.5391406,154.106032 C96.7875781,154.160711 96.9446094,154.405987 96.8899219,154.654387 C96.8430469,154.869198 96.6524219,155.01527 96.4407031,155.01527" id="Fill-109" fill="#818181"></path>
            <path d="M96.4407031,160.274554 C96.4078906,160.274554 96.3750781,160.270648 96.3422656,160.263618 L64.5711719,153.306856 C64.3235156,153.252958 64.1657031,153.007682 64.2211719,152.759282 C64.2750781,152.511663 64.5203906,152.355437 64.7688281,152.408554 L96.5391406,159.365316 C96.7875781,159.419995 96.9446094,159.665271 96.8899219,159.91289 C96.8430469,160.128482 96.6524219,160.274554 96.4407031,160.274554" id="Fill-111" fill="#818181"></path>
            <path d="M85.4632031,163.129826 C85.4303906,163.129826 85.3975781,163.126702 85.3647656,163.11889 L64.5710156,158.565671 C64.3233594,158.511773 64.1663281,158.266498 64.2210156,158.018879 C64.2749219,157.770479 64.5202344,157.615034 64.7686719,157.668151 L85.5616406,162.220588 C85.8100781,162.275268 85.9671094,162.520543 85.9124219,162.768162 C85.8655469,162.983754 85.6749219,163.129826 85.4632031,163.129826" id="Fill-113" fill="#818181"></path>
            <g id="Group-129" transform="translate(132.031250, 165.480487)">
                <polygon id="Fill-115" fill="#FEFEFE" points="11.2707031 2.85636566 10.7386719 32.2839543 1.11523437 34.2805279 1.04804687 33.9485468 1.53007812 7.2799166 4.04648437 10.0849619 6.16523437 7.36427887 8.32539062 9.01246755"></polygon>
                <path d="M1.96898438,8.45817623 L1.51195312,33.7293611 L10.2853906,31.9085423 L10.7728906,4.96339132 L8.49554687,9.72126679 L6.24867187,8.00590075 L4.07132812,10.8015725 L1.96898438,8.45817623 Z M0.757265625,34.8252894 L0.587734375,33.9402668 L1.09164063,6.10228189 L4.02132812,9.36897623 L6.08304687,6.72171962 L8.15492187,8.30429321 L11.7689844,0.749183774 L11.1916406,32.6592102 L0.757265625,34.8252894 Z" id="Fill-117" fill="#818181"></path>
                <polygon id="Fill-119" fill="#4566A3" points="11.2707031 2.85636566 10.7386719 32.2839543 1.11523437 34.2805279 1.04804687 33.9485468 1.53007812 7.2799166 4.04648437 10.0849619 6.16523437 7.36427887 8.32539062 9.01246755"></polygon>
                <path d="M1.96898438,8.45817623 L1.51195312,33.7293611 L10.2853906,31.9085423 L10.7728906,4.96339132 L8.49554687,9.72126679 L6.24867187,8.00590075 L4.07132812,10.8015725 L1.96898438,8.45817623 Z M0.757265625,34.8252894 L0.587734375,33.9402668 L1.09164063,6.10228189 L4.02132812,9.36897623 L6.08304687,6.72171962 L8.15492187,8.30429321 L11.7689844,0.749183774 L11.1916406,32.6592102 L0.757265625,34.8252894 Z" id="Fill-121" fill="#818181"></path>
                <path d="M10.7301562,32.7438068 C10.47625,32.73912 10.2739062,32.5297766 10.2785937,32.2759087 L10.810625,2.84832 C10.8153125,2.59367094 11.0246875,2.39213887 11.279375,2.39682566 C11.5332812,2.40151245 11.7348437,2.61085585 11.7301562,2.86472377 L11.1989062,32.2923125 C11.1942187,32.5469615 10.9848437,32.7484936 10.7301562,32.7438068" id="Fill-123" fill="#818181"></path>
                <path d="M1.0396875,34.4083211 C0.78578125,34.4036343 0.5834375,34.1950721 0.588125,33.940423 L1.07015625,7.27179283 C1.07328125,7.08275887 1.1928125,6.91481547 1.37015625,6.84920038 C1.54671875,6.78358528 1.7459375,6.83123434 1.8725,6.97340038 L4.02171875,9.36913245 L5.8021875,7.0811966 C5.9584375,6.88122679 6.2459375,6.84607585 6.444375,6.9983966 L8.15453125,8.30444943 L10.8553125,2.65842679 C10.9654687,2.42955509 11.24125,2.33425698 11.469375,2.44127208 C11.6982812,2.5514117 11.7951562,2.82558906 11.6857812,3.05524189 L8.74046875,9.21134377 C8.68109375,9.33632491 8.5678125,9.42771736 8.4334375,9.45974377 C8.2990625,9.49255132 8.15765625,9.46208717 8.04671875,9.37850604 L6.24828125,8.00605698 L4.40921875,10.3674192 C4.32640625,10.4752155 4.19828125,10.5400494 4.06234375,10.5447362 C3.92796875,10.5502042 3.794375,10.4931815 3.70375,10.3924155 L1.96859375,8.45833245 L1.50765625,33.9568268 C1.50296875,34.2114758 1.29359375,34.4130079 1.0396875,34.4083211" id="Fill-125" fill="#818181"></path>
                <path d="M1.1,34.7409272 C0.88671875,34.7370215 0.67578125,34.59798 0.62890625,34.3878555 C0.57578125,34.1417989 0.69296875,33.9066781 0.93828125,33.8504366 L1.0125,33.8332517 L10.6453125,31.8335536 C10.896875,31.7804366 11.1375,31.9421309 11.1890625,32.1905309 C11.240625,32.4389309 11.0804687,32.6826442 10.8320312,32.7341989 L1.209375,34.7315536 C1.17265625,34.7385838 1.13671875,34.7417083 1.1,34.7409272" id="Fill-127" fill="#818181"></path>
            </g>
            <path d="M76.174375,69.9237408 C73.9025,70.55802 72.1017188,72.3585294 71.4673438,74.6300615 C71.4001563,74.8714313 71.0439063,74.8714313 70.9767188,74.6300615 C70.343125,72.3585294 68.5415625,70.55802 66.2696875,69.9237408 C66.0282813,69.8565634 66.0282813,69.5003672 66.2696875,69.4331898 C68.5415625,68.7996917 70.343125,66.9984011 70.9767188,64.7268691 C71.0439063,64.4854992 71.4001563,64.4854992 71.4673438,64.7268691 C72.1017188,66.9984011 73.9025,68.7996917 76.174375,69.4331898 C76.4157813,69.5003672 76.4157813,69.8565634 76.174375,69.9237408" id="Fill-130" fill="#2469A8"></path>
            <path d="M158.579453,70.6335555 C156.849766,71.1162951 155.478672,72.4871819 154.996641,74.2158272 C154.945078,74.3993932 154.673203,74.3993932 154.622422,74.2158272 C154.139609,72.4871819 152.769297,71.1162951 151.039609,70.6335555 C150.856016,70.5827819 150.856016,70.3109479 151.039609,70.2593932 C152.769297,69.7774347 154.139609,68.4065479 154.622422,66.6771215 C154.673203,66.4935555 154.945078,66.4935555 154.996641,66.6771215 C155.478672,68.4065479 156.849766,69.7774347 158.579453,70.2593932 C158.763047,70.3109479 158.763047,70.5827819 158.579453,70.6335555" id="Fill-132" fill="#F8B12D"></path>
            <path d="M34.2946875,127.153538 C32.565,127.635497 31.1939062,129.006384 30.711875,130.73581 C30.6603125,130.919376 30.3884375,130.919376 30.3376562,130.73581 C29.8548437,129.006384 28.4845312,127.635497 26.7548437,127.153538 C26.57125,127.101984 26.57125,126.830931 26.7548437,126.779376 C28.4845312,126.297418 29.8548437,124.926531 30.3376562,123.197105 C30.3884375,123.013538 30.6603125,123.013538 30.711875,123.197105 C31.1939062,124.926531 32.565,126.297418 34.2946875,126.779376 C34.4782812,126.830931 34.4782812,127.101984 34.2946875,127.153538" id="Fill-134" fill="#EB686F"></path>
            <path d="M56.0167188,42.0810691 C54.3245313,42.5528728 52.9839063,43.8932955 52.5120313,45.5844464 C52.4620313,45.7641068 52.1964063,45.7641068 52.1464063,45.5844464 C51.6745313,43.8932955 50.3339063,42.5528728 48.6425,42.0810691 C48.4628125,42.0310766 48.4628125,41.7654917 48.6425,41.7154992 C50.3339063,41.2436955 51.6745313,39.9024917 52.1464063,38.2113408 C52.1964063,38.0316804 52.4620313,38.0316804 52.5120313,38.2113408 C52.9839063,39.9024917 54.3245313,41.2436955 56.0167188,41.7154992 C56.1964063,41.7654917 56.1964063,42.0310766 56.0167188,42.0810691" id="Fill-136" fill="#EB686F"></path>
            <path d="M111.752188,79.1958566 C111.45375,79.1958566 111.212344,78.9544868 111.212344,78.6560943 L111.212344,75.7018528 C111.212344,75.4034604 111.45375,75.1620906 111.752188,75.1620906 C112.050625,75.1620906 112.292031,75.4034604 112.292031,75.7018528 L112.292031,78.6560943 C112.292031,78.9544868 112.050625,79.1958566 111.752188,79.1958566" id="Fill-138" fill="#F8B12D"></path>
            <path d="M113.601875,79.9423064 C113.463594,79.9423064 113.325313,79.8891894 113.220625,79.7837366 C113.009688,79.5728309 113.009688,79.2314762 113.220625,79.0205706 L115.310469,76.9318234 C115.521406,76.7201366 115.862813,76.7201366 116.07375,76.9318234 C116.284688,77.1419479 116.284688,77.4840838 116.07375,77.6942083 L113.983125,79.7837366 C113.878438,79.8891894 113.740156,79.9423064 113.601875,79.9423064" id="Fill-140" fill="#F8B12D"></path>
            <path d="M117.337656,81.7768732 L114.382187,81.7768732 C114.08375,81.7768732 113.842344,81.5355034 113.842344,81.2371109 C113.842344,80.9387185 114.08375,80.6973487 114.382187,80.6973487 L117.337656,80.6973487 C117.636094,80.6973487 117.8775,80.9387185 117.8775,81.2371109 C117.8775,81.5355034 117.636094,81.7768732 117.337656,81.7768732" id="Fill-142" fill="#F8B12D"></path>
            <path d="M115.726328,85.7157317 C115.588047,85.7157317 115.449766,85.6633958 115.344297,85.557943 L113.254453,83.4684147 C113.043516,83.2575091 113.043516,82.9161543 113.254453,82.7052487 C113.465391,82.4935619 113.806797,82.4935619 114.017734,82.7052487 L116.107578,84.794777 C116.318516,85.0049015 116.318516,85.3470374 116.107578,85.557943 C116.002891,85.6633958 115.864609,85.7157317 115.726328,85.7157317" id="Fill-144" fill="#F8B12D"></path>
            <path d="M111.800625,87.361577 C111.502188,87.361577 111.260781,87.1202072 111.260781,86.8218147 L111.260781,83.8667921 C111.260781,83.5691808 111.502188,83.3270298 111.800625,83.3270298 C112.099063,83.3270298 112.340469,83.5691808 112.340469,83.8667921 L112.340469,86.8218147 C112.340469,87.1202072 112.099063,87.361577 111.800625,87.361577" id="Fill-146" fill="#F8B12D"></path>
            <path d="M107.861562,85.7501015 C107.723281,85.7501015 107.585,85.6977657 107.480312,85.5915317 C107.269375,85.3814072 107.269375,85.0392713 107.480312,84.8291468 L109.570156,82.7396185 C109.781094,82.5287128 110.1225,82.5287128 110.333437,82.7396185 C110.544375,82.9505242 110.544375,83.2918789 110.333437,83.5027845 L108.243594,85.5915317 C108.138125,85.6977657 107.999844,85.7501015 107.861562,85.7501015" id="Fill-148" fill="#F8B12D"></path>
            <path d="M109.171094,81.825694 L106.215625,81.825694 C105.917187,81.825694 105.675781,81.5843242 105.675781,81.2859317 C105.675781,80.9875392 105.917187,80.7461694 106.215625,80.7461694 L109.171094,80.7461694 C109.469531,80.7461694 109.710937,80.9875392 109.710937,81.2859317 C109.710937,81.5843242 109.469531,81.825694 109.171094,81.825694" id="Fill-150" fill="#F8B12D"></path>
            <path d="M109.916875,79.9762857 C109.778594,79.9762857 109.640313,79.9239498 109.535625,79.818497 L107.445781,77.7289687 C107.234844,77.518063 107.234844,77.1767083 107.445781,76.9658026 C107.656719,76.754897 107.998125,76.754897 108.209063,76.9658026 L110.298125,79.0553309 C110.509063,79.2662366 110.509063,79.6075913 110.298125,79.818497 C110.193438,79.9239498 110.055156,79.9762857 109.916875,79.9762857" id="Fill-152" fill="#F8B12D"></path>
            <path d="M146.713828,43.6555189 C145.491953,43.6555189 144.497422,44.6491189 144.497422,45.8708094 C144.497422,47.0917189 145.491953,48.0861 146.713828,48.0861 C147.934922,48.0861 148.929453,47.0917189 148.929453,45.8708094 C148.929453,44.6491189 147.934922,43.6555189 146.713828,43.6555189 M146.713828,49.3476283 C144.795859,49.3476283 143.236484,47.7877075 143.236484,45.8708094 C143.236484,43.9539113 144.795859,42.3939906 146.713828,42.3939906 C148.631016,42.3939906 150.190391,43.9539113 150.190391,45.8708094 C150.190391,47.7877075 148.631016,49.3476283 146.713828,49.3476283" id="Fill-154" fill="#EB686F"></path>
            <path d="M200.01625,110.692117 C199.015469,110.692117 198.202187,111.506057 198.202187,112.505125 C198.202187,113.504974 199.015469,114.318914 200.01625,114.318914 C201.01625,114.318914 201.829531,113.504974 201.829531,112.505125 C201.829531,111.506057 201.01625,110.692117 200.01625,110.692117 M200.01625,115.35157 C198.446719,115.35157 197.169375,114.0752 197.169375,112.505125 C197.169375,110.935831 198.446719,109.659461 200.01625,109.659461 C201.585781,109.659461 202.862344,110.935831 202.862344,112.505125 C202.862344,114.0752 201.585781,115.35157 200.01625,115.35157" id="Fill-156" fill="#2469A8"></path>
            <path d="M123.735234,16.2701219 L123.966484,31.4443936 L98.8563281,31.8271483 L98.7782031,26.6951106 C100.129766,26.6654275 101.198516,25.5452842 101.178203,24.2025181 C101.157891,22.8597521 100.055547,21.7724162 98.7032031,21.7841332 L98.6250781,16.6528766 L123.735234,16.2701219 Z" id="Fill-158" fill="#4566A3"></path>
            <path d="M99.0121875,26.9103906 L99.0832812,31.5932774 L123.733281,31.218334 L123.509062,16.5033679 L98.8582812,16.8790925 L98.929375,21.5619792 C100.295,21.6666509 101.386406,22.8047604 101.4075,24.1990811 C101.429375,25.5926208 100.373125,26.7643189 99.0121875,26.9103906 Z M98.6301562,32.0603943 L98.545,26.4706132 L98.773125,26.4651453 C99.9910937,26.4385868 100.966875,25.4246774 100.948125,24.2061113 C100.929375,22.9930132 99.9340625,22.0142547 98.7246875,22.0142547 L98.704375,22.0142547 L98.47625,22.015817 L98.3910937,16.4260358 L123.961406,16.0362509 L124.200469,31.6706094 L98.6301562,32.0603943 Z" id="Fill-160" fill="#818181"></path>
            <path d="M98.8565625,32.0568011 C98.7307812,32.0568011 98.6284375,31.9560351 98.626875,31.8302728 L98.5495312,26.7615068 C98.5432812,26.7404162 98.5385937,26.7185445 98.5385937,26.6951106 C98.5385937,26.5685672 98.633125,26.4654577 98.7596875,26.4654577 L98.7784375,26.4654577 C98.9042187,26.4654577 99.0065625,26.5662238 99.008125,26.691986 L99.083125,31.5935898 L123.733125,31.2186464 L123.508906,16.5036804 L98.858125,16.8786238 L98.933125,21.7810087 C98.9346875,21.9075521 98.833125,22.0130049 98.7065625,22.0145672 L98.7034375,22.0145672 C98.5776562,22.0145672 98.4745312,21.9138011 98.4729687,21.7880389 L98.3948437,16.6560011 C98.3932812,16.5294577 98.4948437,16.424786 98.6214062,16.4224426 L123.731562,16.0404691 L123.735469,16.0404691 C123.86125,16.0404691 123.963594,16.140454 123.965156,16.2662162 L124.197187,31.4412691 C124.197969,31.5021974 124.174531,31.5607823 124.132344,31.6045257 C124.089375,31.6490502 124.031562,31.6732653 123.970625,31.6748275 L98.8604687,32.0568011 L98.8565625,32.0568011 Z" id="Fill-162" fill="#818181"></path>
            <path d="M98.7783594,26.9252321 C98.6533594,26.9252321 98.5510156,26.8260283 98.5486719,26.700266 C98.5455469,26.5737226 98.6463281,26.4682698 98.7728906,26.4651453 C99.9916406,26.4385868 100.966641,25.4246774 100.947891,24.2061113 C100.929141,22.9930132 99.9338281,22.0142547 98.7244531,22.0142547 C98.7174219,22.0150358 98.7111719,22.0126925 98.7033594,22.0142547 C98.5775781,22.0142547 98.4736719,21.9127075 98.4728906,21.7861642 C98.4721094,21.6525906 98.5775781,21.5549491 98.7244531,21.5549491 C100.183828,21.5549491 101.385391,22.7360208 101.408047,24.1990811 C101.430703,25.6699528 100.253359,26.8924245 98.7838281,26.9252321 L98.7783594,26.9252321 Z" id="Fill-164" fill="#818181"></path>
            <path d="M98.7032031,22.0141766 L98.6852344,22.0141766 C98.5578906,22.0141766 98.4555469,21.9118483 98.4555469,21.7845238 C98.4555469,21.6571992 98.5578906,21.5548709 98.6852344,21.5548709 C98.8117969,21.5548709 98.9242969,21.6571992 98.9242969,21.7845238 C98.9242969,21.9118483 98.8297656,22.0141766 98.7032031,22.0141766" id="Fill-166" fill="#818181"></path>
            <path d="M121.42125,23.1740796 L121.410312,23.1740796 C121.218125,23.176423 121.038437,23.2545362 120.904844,23.3927966 C120.769687,23.531057 120.697812,23.7130608 120.700937,23.9052192 C120.706406,24.3028155 121.03375,24.5933966 121.432969,24.6144872 C121.829844,24.6090192 122.147812,24.2809438 122.142344,23.8833475 C122.136094,23.489657 121.813437,23.1740796 121.42125,23.1740796 Z M121.42125,25.0847287 C120.773594,25.0847287 120.241562,24.5621513 120.232187,23.9122494 C120.226719,23.5951098 120.34625,23.2935928 120.566562,23.0655023 C120.788437,22.8374117 121.085312,22.709306 121.403281,22.7038381 C122.060312,22.6804042 122.601719,23.2193853 122.611094,23.8755362 C122.622031,24.5316872 122.095469,25.074574 121.44,25.0847287 L121.42125,25.0847287 Z" id="Fill-168" fill="#818181"></path>
            <path d="M107.913828,17.860663 L107.902109,17.860663 C107.505234,17.8661309 107.187266,18.1949875 107.192734,18.5918026 C107.198203,18.9886177 107.513047,19.2885725 107.923984,19.3010706 C108.116172,19.2987272 108.296641,19.2213951 108.430234,19.0823536 C108.564609,18.9448743 108.635703,18.7620894 108.633359,18.5699309 L108.633359,18.5691498 C108.630234,18.3777725 108.553672,18.1981121 108.415391,18.0637574 C108.279453,17.9325272 108.101328,17.860663 107.913828,17.860663 Z M107.913828,19.7713121 C107.265391,19.7713121 106.733359,19.2487347 106.723984,18.5988328 C106.712266,17.9426819 107.238828,17.4013574 107.895078,17.3904215 C108.232578,17.3951083 108.513828,17.5052479 108.741953,17.7270894 C108.970078,17.9489309 109.098984,18.2457611 109.102109,18.5629008 C109.107578,18.8808215 108.988047,19.1815574 108.766953,19.4096479 C108.546641,19.6377385 108.248984,19.7658442 107.931016,19.7713121 L107.913828,19.7713121 Z" id="Fill-170" fill="#818181"></path>
            <path d="M112.169063,17.7954385 L112.158125,17.7954385 C111.76125,17.8016875 111.4425,18.1305442 111.447969,18.5273592 C111.451875,18.7195177 111.528438,18.8991781 111.666719,19.0327517 C111.802656,19.1639819 111.980781,19.2366272 112.168281,19.2366272 L112.18,19.2366272 C112.576875,19.2303781 112.894844,18.9023026 112.889375,18.5054875 C112.883125,18.111797 112.560469,17.7954385 112.169063,17.7954385 Z M112.168281,19.7060875 C111.857344,19.7060875 111.564375,19.5865743 111.340156,19.3702008 C111.11125,19.1483592 110.983125,18.8523102 110.979219,18.5343894 C110.969844,17.8774574 111.495625,17.3361328 112.151094,17.3259781 L112.168281,17.3259781 C112.816719,17.3259781 113.34875,17.8477743 113.358125,18.4976762 C113.369063,19.1538272 112.8425,19.6959328 112.187031,19.7060875 L112.168281,19.7060875 Z" id="Fill-172" fill="#818181"></path>
            <path d="M116.426328,17.730917 L116.414609,17.730917 C116.221641,17.7332604 116.041953,17.8113736 115.907578,17.949634 C115.773203,18.0878943 115.701328,18.2698981 115.704453,18.4620566 C115.707578,18.6549962 115.784922,18.8346566 115.923203,18.9682302 C116.059141,19.0994604 116.236484,19.1713245 116.424766,19.1713245 L116.436484,19.1713245 C116.628672,19.1689811 116.808359,19.0908679 116.941953,18.9526075 C117.077109,18.8143472 117.148984,18.6323434 117.145859,18.4401849 C117.142734,18.2480264 117.065391,18.068366 116.927109,17.9340113 C116.791953,17.8027811 116.613828,17.730917 116.426328,17.730917 Z M116.424766,19.641566 C116.113828,19.641566 115.820078,19.5220528 115.596641,19.3056792 C115.368516,19.0838377 115.239609,18.7870075 115.235703,18.4690868 C115.229453,18.151166 115.349766,17.8504302 115.570859,17.6223396 C115.791953,17.3942491 116.089609,17.2661434 116.407578,17.2606755 C116.749766,17.2591132 117.025547,17.3755019 117.253672,17.5973434 C117.481797,17.8184038 117.610703,18.115234 117.614609,18.4331547 C117.620078,18.7510755 117.500547,19.0518113 117.279453,19.2799019 C117.058359,19.5079925 116.761484,19.6360981 116.443516,19.641566 L116.424766,19.641566 Z" id="Fill-174" fill="#818181"></path>
            <path d="M108.080859,28.8261951 L108.069141,28.8261951 C107.876953,28.8285385 107.696484,28.9066517 107.562109,29.0449121 C107.428516,29.1831725 107.356641,29.3651762 107.359766,29.5573347 C107.362109,29.7502743 107.439453,29.9299347 107.577734,30.0635083 C107.713672,30.1947385 107.891016,30.2673838 108.079297,30.2673838 L108.091016,30.2673838 C108.283203,30.2642592 108.463672,30.1869272 108.597266,30.0478857 C108.731641,29.9104064 108.802734,29.7284026 108.800391,29.5362442 L108.800391,29.535463 C108.797266,29.3433045 108.720703,29.1636442 108.582422,29.0300706 C108.446484,28.8980592 108.268359,28.8261951 108.080859,28.8261951 Z M108.079297,30.7368442 C107.768359,30.7368442 107.474609,30.6173309 107.251172,30.4001762 C107.023047,30.1791158 106.894141,29.8815045 106.891016,29.5643649 C106.884766,29.2464442 107.005078,28.9464894 107.225391,28.7183989 C107.446484,28.4895272 107.744141,28.3614215 108.062109,28.3567347 C108.368359,28.3567347 108.680859,28.47078 108.908984,28.6934026 C109.137109,28.914463 109.266016,29.2120743 109.269141,29.529214 C109.274609,29.8471347 109.155078,30.1470894 108.933984,30.37518 C108.713672,30.6032706 108.416016,30.7313762 108.098047,30.7368442 L108.079297,30.7368442 Z" id="Fill-176" fill="#818181"></path>
            <path d="M112.337344,28.7617517 L112.325625,28.7617517 C111.92875,28.7672196 111.609219,29.0960762 111.614688,29.4936725 C111.618594,29.6858309 111.695938,29.8654913 111.834219,29.9990649 C111.969375,30.1302951 112.1475,30.2021592 112.335781,30.2021592 L112.346719,30.2021592 C112.744375,30.1966913 113.062344,29.8686158 113.056875,29.4710196 C113.052969,29.2788611 112.975625,29.0984196 112.837344,28.964846 C112.702969,28.8336158 112.524844,28.7617517 112.337344,28.7617517 Z M112.335781,30.6724008 C112.024844,30.6724008 111.731094,30.5528875 111.507656,30.336514 C111.27875,30.1146725 111.150625,29.8178423 111.145938,29.4999215 C111.136563,28.8437706 111.662344,28.302446 112.318594,28.2915102 C112.627188,28.2883857 112.936563,28.4071177 113.164688,28.6281781 C113.392813,28.8492385 113.520938,29.1460687 113.525625,29.4632083 C113.536563,30.1193592 113.01,30.662246 112.35375,30.6724008 L112.335781,30.6724008 Z" id="Fill-178" fill="#818181"></path>
            <path d="M116.592656,28.6965272 L116.581719,28.6965272 C116.38875,28.6988706 116.209062,28.7769838 116.074687,28.9152442 C115.940312,29.0535045 115.868437,29.2355083 115.871562,29.4284479 C115.874687,29.6206064 115.952031,29.8002668 116.090312,29.9338404 C116.22625,30.0650706 116.403594,30.1369347 116.591875,30.1369347 L116.603594,30.1369347 C117.000469,30.1314668 117.318437,29.8033913 117.312969,29.4057951 C117.306719,29.0128857 116.984062,28.6965272 116.592656,28.6965272 Z M116.591875,30.6071762 C116.280937,30.6071762 115.987969,30.487663 115.762969,30.2712894 C115.534844,30.0494479 115.406719,29.7526177 115.402812,29.4354781 C115.396562,29.1175574 115.516875,28.8160404 115.737969,28.5879498 C115.959062,28.3598592 116.256719,28.2317536 116.574687,28.2262857 C117.233281,28.2309725 117.772344,28.7441762 117.781719,29.3987649 C117.792656,30.0549158 117.266094,30.5970215 116.610625,30.6071762 L116.591875,30.6071762 Z" id="Fill-180" fill="#818181"></path>
            <polygon id="Fill-182" fill="#FEFEFE" points="119.269375 27.1464487 105.335 27.3589166 105.236562 20.920826 119.171719 20.7091392"></polygon>
            <path d="M105.469375,21.1472762 L105.56,27.1260611 L119.037344,26.9206234 L118.945937,20.9418385 L105.469375,21.1472762 Z M105.335,27.5884913 C105.274844,27.5884913 105.217812,27.5650574 105.174844,27.5236574 C105.131875,27.4806951 105.106875,27.4228913 105.105312,27.3627442 L105.007656,20.9246536 C105.006094,20.7981102 105.106875,20.6942196 105.233437,20.6918762 L119.167812,20.4794083 C119.224844,20.4848762 119.287344,20.5020611 119.331875,20.5442423 C119.374844,20.5864234 119.399844,20.6442272 119.400625,20.7051555 L119.499062,27.143246 C119.500625,27.2697894 119.399844,27.37368 119.273281,27.3760234 L105.338125,27.5884913 L105.335,27.5884913 Z" id="Fill-184" fill="#818181"></path>
            <polygon id="Fill-186" fill="#FEFEFE" points="102.709375 16.5905423 100.83125 16.6194442 100.807031 15.0478064 102.685156 15.0196857"></polygon>
            <path d="M101.040469,15.273866 L101.057656,16.3861981 L102.477188,16.3643264 L102.46,15.2519943 L101.040469,15.273866 Z M100.831094,16.8486283 C100.771719,16.8486283 100.714688,16.8251943 100.670938,16.7830132 C100.627969,16.7408321 100.602969,16.6830283 100.602188,16.6228811 L100.57875,15.0512434 C100.577188,14.9247 100.677969,14.8208094 100.804531,14.818466 L102.681875,14.7895642 L102.685,14.7895642 C102.81,14.7895642 102.912344,14.8903302 102.914688,15.0153113 L102.938906,16.5869491 C102.939688,16.6478774 102.91625,16.7064623 102.874063,16.7502057 C102.831875,16.7939491 102.774063,16.8197264 102.713125,16.8197264 L100.835,16.8486283 L100.831094,16.8486283 Z" id="Fill-188" fill="#818181"></path>
            <path d="M101.746562,15.0335898 L101.72625,13.692386" id="Fill-190" fill="#FEFEFE"></path>
            <path d="M101.746563,15.2632426 C101.621563,15.2632426 101.519219,15.1624766 101.517656,15.0367143 L101.496563,13.6962917 C101.495,13.5697483 101.595781,13.4650766 101.722344,13.4627332 L101.72625,13.4627332 C101.850469,13.4627332 101.953594,13.5634992 101.955156,13.6892615 L101.975469,15.0296842 C101.977031,15.1570087 101.877031,15.2608992 101.750469,15.2632426 L101.746563,15.2632426 Z" id="Fill-192" fill="#818181"></path>
            <polygon id="Fill-194" fill="#FEFEFE" points="106.471094 16.5328947 104.592969 16.5617966 104.56875 14.9901589 106.446875 14.9620381"></polygon>
            <path d="M104.801797,15.2162966 L104.818984,16.3294098 L106.238516,16.306757 L106.221328,15.195206 L104.801797,15.2162966 Z M104.593203,16.79184 C104.468984,16.79184 104.365859,16.691074 104.364297,16.5653117 L104.340078,14.993674 C104.339297,14.9327457 104.362734,14.8749419 104.404922,14.8304174 C104.447109,14.786674 104.504922,14.7616777 104.565859,14.7608966 L106.443203,14.7327758 L106.446328,14.7327758 C106.572109,14.7327758 106.673672,14.8335419 106.676016,14.958523 L106.700234,16.5293796 C106.701016,16.5903079 106.677578,16.6488928 106.635391,16.6934174 C106.593203,16.7363796 106.535391,16.762157 106.474453,16.762157 L104.597109,16.79184 L104.593203,16.79184 Z" id="Fill-196" fill="#818181"></path>
            <path d="M105.508281,14.9764109 L105.487969,13.6352072" id="Fill-198" fill="#FEFEFE"></path>
            <path d="M105.507891,15.2059857 C105.382891,15.2059857 105.280547,15.1052196 105.278984,14.9802385 L105.258672,13.6390347 C105.256328,13.5124913 105.357109,13.4078196 105.483672,13.4054762 L105.487578,13.4054762 C105.611797,13.4054762 105.714922,13.5062423 105.716484,13.6312234 L105.736797,14.9732083 C105.738359,15.0997517 105.638359,15.2036423 105.511797,15.2059857 L105.507891,15.2059857 Z" id="Fill-200" fill="#818181"></path>
            <polygon id="Fill-202" fill="#FEFEFE" points="110.232734 16.4757158 108.354609 16.5046177 108.330391 14.93298 110.208516 14.9048592"></polygon>
            <path d="M108.563047,15.1594302 L108.580234,16.2717623 L109.999766,16.2498906 L109.982578,15.1375585 L108.563047,15.1594302 Z M108.354453,16.7341925 C108.230234,16.7341925 108.127109,16.6334264 108.125547,16.5084453 L108.101328,14.9368075 C108.100547,14.8758792 108.123984,14.8180755 108.166172,14.7735509 C108.208359,14.7298075 108.266172,14.7048113 108.327109,14.7040302 L110.205234,14.6751283 C110.256016,14.6774717 110.324766,14.6977811 110.369297,14.7399623 C110.412266,14.7829245 110.437266,14.8407283 110.438047,14.9008755 L110.461484,16.4717321 C110.463047,16.5982755 110.362266,16.7029472 110.235703,16.7052906 L108.358359,16.7341925 L108.354453,16.7341925 Z" id="Fill-204" fill="#818181"></path>
            <path d="M109.269922,14.919154 L109.249609,13.5779502" id="Fill-206" fill="#FEFEFE"></path>
            <path d="M109.269141,15.1484162 C109.144141,15.1484162 109.041797,15.0484313 109.040234,14.9226691 L109.020703,13.5814653 C109.018359,13.4549219 109.119141,13.3510313 109.245703,13.3486879 L109.249609,13.3486879 C109.374609,13.3486879 109.476953,13.449454 109.478516,13.5744351 L109.498047,14.9156389 C109.500391,15.0421823 109.399609,15.1460728 109.273047,15.1484162 L109.269141,15.1484162 Z" id="Fill-208" fill="#818181"></path>
            <polygon id="Fill-210" fill="#FEFEFE" points="113.994063 16.418537 112.116719 16.4474389 112.0925 14.8758011 113.970625 14.8476804"></polygon>
            <path d="M112.325469,15.1018608 L112.342656,16.214974 L113.761406,16.1923211 L113.745,15.0799891 L112.325469,15.1018608 Z M112.116094,16.676623 C112.056719,16.676623 111.999687,16.6531891 111.955937,16.6125702 C111.912969,16.5696079 111.887969,16.5118042 111.887187,16.4508758 L111.86375,14.8792381 C111.862187,14.7526947 111.962969,14.6488042 112.089531,14.6464608 L113.966875,14.61834 L113.97,14.61834 C114.095,14.61834 114.197344,14.7183249 114.198906,14.8440872 L114.223906,16.4149438 C114.224687,16.4758721 114.20125,16.534457 114.159062,16.5782004 C114.116875,16.6219438 114.059062,16.6477211 113.998125,16.6477211 L112.12,16.676623 L112.116094,16.676623 Z" id="Fill-212" fill="#818181"></path>
            <path d="M113.03125,14.8615845 L113.010938,13.5203808" id="Fill-214" fill="#FEFEFE"></path>
            <path d="M113.031641,15.0911592 C112.906641,15.0911592 112.804297,14.9903932 112.802734,14.8646309 L112.781641,13.5242083 C112.780078,13.3976649 112.880859,13.2929932 113.007422,13.2906498 L113.011328,13.2906498 C113.135547,13.2906498 113.238672,13.3914158 113.240234,13.5171781 L113.260547,14.8583819 C113.262109,14.9849253 113.162109,15.0888158 113.034766,15.0911592 L113.031641,15.0911592 Z" id="Fill-216" fill="#818181"></path>
            <polygon id="Fill-218" fill="#FEFEFE" points="117.755703 16.36128 115.877578 16.3901819 115.854141 14.8185442 117.732266 14.7904234"></polygon>
            <path d="M116.086797,15.0446819 L116.103984,16.157014 L117.523516,16.1351423 L117.506328,15.0228102 L116.086797,15.0446819 Z M115.877422,16.6194442 C115.818047,16.6194442 115.761016,16.5960102 115.717266,16.5546102 C115.674297,16.5116479 115.649297,16.4538442 115.648516,16.393697 L115.625078,14.8220592 C115.623516,14.6955158 115.724297,14.5916253 115.850859,14.5892819 L117.728203,14.56038 L117.731328,14.56038 C117.856328,14.56038 117.958672,14.661146 117.960234,14.7861272 L117.985234,16.3577649 C117.986016,16.4186932 117.962578,16.476497 117.920391,16.5210215 C117.878203,16.5647649 117.820391,16.5897611 117.759453,16.5905423 L115.881328,16.6194442 L115.877422,16.6194442 Z" id="Fill-220" fill="#818181"></path>
            <path d="M116.792891,14.8044057 L116.772578,13.4632019" id="Fill-222" fill="#FEFEFE"></path>
            <path d="M116.792891,15.0339804 C116.667891,15.0339804 116.565547,14.9332143 116.563984,14.8082332 L116.542891,13.4670294 C116.541328,13.340486 116.642109,13.2365955 116.768672,13.2342521 C116.889766,13.2459691 116.999922,13.3334558 117.001484,13.4599992 L117.021797,14.801203 C117.023359,14.9277464 116.923359,15.031637 116.796016,15.0339804 L116.792891,15.0339804 Z" id="Fill-224" fill="#818181"></path>
            <polygon id="Fill-226" fill="#FEFEFE" points="121.517422 16.3041011 119.639297 16.333003 119.615859 14.7613653 121.493203 14.7324634"></polygon>
            <path d="M119.848047,14.9874249 L119.865234,16.099757 L121.284766,16.0778853 L121.267578,14.9655532 L119.848047,14.9874249 Z M119.639453,16.5621872 C119.514453,16.5621872 119.412109,16.4614211 119.410547,16.33644 L119.386328,14.7648023 C119.385547,14.703874 119.408984,14.6460702 119.451172,14.6015457 C119.493359,14.5578023 119.551172,14.532806 119.612109,14.5320249 L121.490234,14.503123 C121.572266,14.4976551 121.610547,14.5257758 121.654297,14.567957 C121.697266,14.6109192 121.722266,14.668723 121.723047,14.7288702 L121.746484,16.3005079 C121.748047,16.4270513 121.647266,16.531723 121.520703,16.5332853 L119.643359,16.5621872 L119.639453,16.5621872 Z" id="Fill-228" fill="#818181"></path>
            <path d="M120.554531,14.7471487 L120.534219,13.4059449" id="Fill-230" fill="#FEFEFE"></path>
            <path d="M120.554219,14.9764109 C120.429219,14.9764109 120.326875,14.876426 120.325312,14.7506638 L120.305781,13.40946 C120.303437,13.2829166 120.404219,13.179026 120.530781,13.1766826 L120.534687,13.1766826 C120.659687,13.1766826 120.762031,13.2774487 120.763594,13.4024298 L120.783125,14.7436336 C120.784687,14.870177 120.684687,14.9740675 120.558125,14.9764109 L120.554219,14.9764109 Z" id="Fill-232" fill="#818181"></path>
            <polygon id="Fill-234" fill="#FEFEFE" points="102.940547 31.7646577 101.062422 31.7935596 101.086641 33.3644162 102.964766 33.3355143"></polygon>
            <path d="M101.295703,32.0189943 L101.312891,33.1321075 L102.732422,33.1094547 L102.715234,31.9971226 L101.295703,32.0189943 Z M101.086328,33.5937566 C101.026953,33.5937566 100.969922,33.5703226 100.926172,33.5297038 C100.883203,33.4867415 100.858203,33.4289377 100.857422,33.3680094 L100.833984,31.7963717 C100.832422,31.6698283 100.933203,31.5659377 101.059766,31.5635943 L102.937109,31.5354736 C103.055078,31.5425038 103.167578,31.6346774 103.169141,31.7612208 L103.194141,33.3320774 C103.194922,33.3930057 103.171484,33.4515906 103.129297,33.495334 C103.087109,33.5390774 103.029297,33.5648547 102.968359,33.5648547 L101.090234,33.5937566 L101.086328,33.5937566 Z" id="Fill-236" fill="#818181"></path>
            <path d="M102.025469,33.3501215 L102.045781,34.6913253" id="Fill-238" fill="#FEFEFE"></path>
            <path d="M102.045625,34.9208219 C101.920625,34.9208219 101.818281,34.8200558 101.816719,34.6942936 L101.797188,33.3538709 C101.794844,33.2273275 101.895625,33.1226558 102.022188,33.1203125 L102.026094,33.1203125 C102.151094,33.1203125 102.253438,33.2210785 102.255,33.3468408 L102.274531,34.6872634 C102.276875,34.8145879 102.176094,34.9184785 102.049531,34.9208219 L102.045625,34.9208219 Z" id="Fill-240" fill="#818181"></path>
            <polygon id="Fill-242" fill="#FEFEFE" points="106.702266 31.7074008 104.824141 31.7363026 104.848359 33.3071592 106.726484 33.2782574"></polygon>
            <path d="M105.056953,31.9618155 L105.074141,33.0741475 L106.493672,33.0522758 L106.476484,31.9399438 L105.056953,31.9618155 Z M104.848359,33.5365777 C104.723359,33.5365777 104.621016,33.4358117 104.619453,33.3108306 L104.595234,31.739974 C104.594453,31.6782645 104.617891,31.6204608 104.660078,31.5759362 C104.702266,31.532974 104.760078,31.5071966 104.821016,31.5064155 L106.698359,31.4775136 C106.828828,31.479857 106.928828,31.5767174 106.930391,31.7032608 L106.955391,33.2748985 C106.956172,33.3358268 106.932734,33.3936306 106.890547,33.4381551 C106.848359,33.4818985 106.790547,33.5068947 106.729609,33.5076758 L104.852266,33.5365777 L104.848359,33.5365777 Z" id="Fill-244" fill="#818181"></path>
            <path d="M105.787109,33.2925521 L105.807422,34.6337558" id="Fill-246" fill="#FEFEFE"></path>
            <path d="M105.808125,34.8632525 C105.683125,34.8632525 105.580781,34.7624864 105.579219,34.6375053 L105.558125,33.2963015 C105.556563,33.1697581 105.657344,33.0650864 105.783906,33.0635242 L105.787813,33.0635242 C105.912031,33.0635242 106.014375,33.1635091 106.016719,33.2892713 L106.037031,34.6304751 C106.038594,34.7570185 105.938594,34.8609091 105.81125,34.8632525 L105.808125,34.8632525 Z" id="Fill-248" fill="#818181"></path>
            <polygon id="Fill-250" fill="#FEFEFE" points="110.463906 31.6502219 108.585781 31.6791238 108.61 33.2499804 110.487344 33.2210785"></polygon>
            <path d="M108.818281,31.9046366 L108.835469,33.0169687 L110.255,32.995097 L110.237812,31.8827649 L108.818281,31.9046366 Z M108.609687,33.4793989 C108.485469,33.4793989 108.382344,33.3786328 108.380781,33.2536517 L108.356562,31.682014 C108.355781,31.6210857 108.379219,31.5632819 108.421406,31.5187574 C108.463594,31.475014 108.521406,31.4500177 108.582344,31.4492366 L110.460469,31.4203347 C110.497187,31.4078366 110.58,31.4429875 110.624531,31.4851687 C110.6675,31.5281309 110.6925,31.5859347 110.693281,31.6460819 L110.716719,33.2177196 C110.718281,33.344263 110.6175,33.4489347 110.490937,33.450497 L108.613594,33.4793989 L108.609687,33.4793989 Z" id="Fill-252" fill="#818181"></path>
            <path d="M109.54875,33.2353732 L109.569063,34.576577" id="Fill-254" fill="#FEFEFE"></path>
            <path d="M109.569375,34.8059955 C109.444375,34.8059955 109.342031,34.7060106 109.340469,34.5802483 L109.319375,33.2390445 C109.317813,33.1125011 109.418594,33.0086106 109.545156,33.0062672 L109.549063,33.0062672 C109.673281,33.0062672 109.776406,33.1070332 109.777969,33.2320143 L109.798281,34.5732181 C109.799844,34.6997615 109.699844,34.8036521 109.5725,34.8059955 L109.569375,34.8059955 Z" id="Fill-256" fill="#818181"></path>
            <polygon id="Fill-258" fill="#FEFEFE" points="114.225625 31.5925743 112.3475 31.6214762 112.370937 33.1923328 114.249062 33.1642121"></polygon>
            <path d="M112.580703,31.8473796 L112.597109,32.9597117 L114.016641,32.93784 L114.000234,31.8255079 L112.580703,31.8473796 Z M112.371328,33.4221419 C112.311953,33.4221419 112.254922,33.3987079 112.211172,33.3573079 C112.168203,33.3143457 112.143203,33.2565419 112.141641,33.1963947 L112.118984,31.624757 C112.117422,31.4982136 112.217422,31.394323 112.343984,31.3919796 L114.222109,31.3630777 C114.374453,31.3537042 114.451797,31.4622815 114.454141,31.5888249 L114.479141,33.1604626 C114.479922,33.2213909 114.456484,33.2791947 114.414297,33.3237192 C114.371328,33.3674626 114.314297,33.3924589 114.253359,33.39324 L112.374453,33.4221419 L112.371328,33.4221419 Z" id="Fill-260" fill="#818181"></path>
            <path d="M113.310469,33.1781162 L113.330781,34.51932" id="Fill-262" fill="#FEFEFE"></path>
            <path d="M113.330703,34.7488166 C113.205703,34.7488166 113.103359,34.6480506 113.101797,34.5222883 L113.080703,33.1818657 C113.079141,33.0553223 113.179922,32.9506506 113.306484,32.9483072 L113.310391,32.9483072 C113.434609,32.9483072 113.537734,33.0490732 113.539297,33.1748355 L113.559609,34.5160392 C113.561172,34.6425826 113.461172,34.7464732 113.333828,34.7488166 L113.330703,34.7488166 Z" id="Fill-264" fill="#818181"></path>
            <polygon id="Fill-266" fill="#FEFEFE" points="117.986875 31.5353955 116.109531 31.5642974 116.132969 33.135154 118.011094 33.1062521"></polygon>
            <path d="M116.342031,31.7898102 L116.359219,32.9021423 L117.777969,32.8810517 L117.761563,31.7679385 L116.342031,31.7898102 Z M116.132656,33.3645725 C116.073281,33.3645725 116.01625,33.3411385 115.9725,33.2997385 C115.929531,33.2567762 115.904531,33.1989725 115.90375,33.1388253 L115.880313,31.5679687 C115.87875,31.4414253 115.97875,31.3367536 116.105313,31.3344102 L117.983438,31.3055083 L117.986563,31.3055083 C118.111563,31.3055083 118.213906,31.4062743 118.215469,31.5312555 L118.240469,33.1028932 C118.24125,33.1646026 118.217813,33.2224064 118.175625,33.2669309 C118.133438,33.3098932 118.075625,33.3356706 118.014688,33.3356706 L116.136563,33.3645725 L116.132656,33.3645725 Z" id="Fill-268" fill="#818181"></path>
            <path d="M117.072109,33.1209374 L117.092422,34.4621411" id="Fill-270" fill="#FEFEFE"></path>
            <path d="M117.091953,34.6915596 C116.966953,34.6915596 116.864609,34.5907936 116.863047,34.4658125 L116.843516,33.1246087 C116.841172,32.9980653 116.941953,32.8933936 117.068516,32.8910502 L117.072422,32.8910502 C117.197422,32.8910502 117.299766,32.9918162 117.301328,33.1167974 L117.320859,34.4587823 C117.322422,34.5853257 117.222422,34.6892162 117.095859,34.6915596 L117.091953,34.6915596 Z" id="Fill-272" fill="#818181"></path>
            <polygon id="Fill-274" fill="#FEFEFE" points="121.748594 31.4782166 119.870469 31.5071185 119.894687 33.0779751 121.772812 33.0490732"></polygon>
            <path d="M120.103281,31.7325532 L120.120469,32.8456664 L121.54,32.8230136 L121.522813,31.7106815 L120.103281,31.7325532 Z M119.894688,33.3073155 C119.769688,33.3073155 119.667344,33.2065494 119.665781,33.0815683 L119.641563,31.5099306 C119.640781,31.4490023 119.664219,31.3911985 119.706406,31.346674 C119.748594,31.3029306 119.805625,31.2779343 119.867344,31.2771532 L121.745469,31.2490325 C121.812656,31.2576249 121.865,31.2709042 121.90875,31.3138664 C121.951719,31.3560475 121.976719,31.4138513 121.978281,31.4747796 L122.001719,33.0456362 C122.003281,33.1721796 121.9025,33.2768513 121.775938,33.2784136 L119.898594,33.3073155 L119.894688,33.3073155 Z" id="Fill-276" fill="#818181"></path>
            <path d="M120.833828,33.0636804 L120.854141,34.4048842" id="Fill-278" fill="#FEFEFE"></path>
            <path d="M120.854375,34.6339902 C120.729375,34.6339902 120.627031,34.5340053 120.625469,34.408243 L120.604375,33.0670392 C120.602812,32.9404958 120.703594,32.8366053 120.830156,32.8342619 L120.834062,32.8342619 C120.958281,32.8342619 121.060625,32.9350279 121.062969,33.0600091 L121.083281,34.4012128 C121.084844,34.5277562 120.984844,34.6316468 120.8575,34.6339902 L120.854375,34.6339902 Z" id="Fill-280" fill="#818181"></path>
            <polygon id="Fill-282" fill="#CDCDCD" points="42.4639062 71.1476966 42.4639062 71.3875042 17.731875 75.1947419 17.731875 68.5410589 42.4639062 64.7338211"></polygon>
            <path d="M42.4639062,64.7338992 L42.4639062,71.3875823 L17.731875,75.19482 L17.731875,72.9803106 L35.9553125,70.1705785 C38.213125,69.8229747 39.8779687,67.8810804 39.8779687,65.5978313 L39.8779687,65.1260275 L42.4639062,64.7338992 Z" id="Fill-284" fill="#A7A7A8"></path>
            <polygon id="Fill-286" fill="#FEFEFE" points="42.4639062 64.4829215 42.4639062 64.7336649 17.731875 68.5409026 5.3709375 63.18468 14.3826562 61.712246 30.0928125 59.1384158"></polygon>
            <polygon id="Fill-288" fill="#E7E6E6" points="17.7317187 68.5407464 17.7317187 75.1944294 5.3715625 69.9585011 5.3715625 63.1853049"></polygon>
            <path d="M17.7317187,68.7707898 C17.6192187,68.7707898 17.5215625,68.6895521 17.504375,68.5755068 C17.4848437,68.4497445 17.5707812,68.3325747 17.6965625,68.3138275 L42.4285937,64.5073709 C42.55125,64.483937 42.6723437,64.572986 42.6910937,64.6995294 C42.710625,64.8245106 42.6246875,64.9424615 42.4989062,64.9612087 L17.766875,68.7684464 C17.7551562,68.7700087 17.7434375,68.7707898 17.7317187,68.7707898" id="Fill-290" fill="#818181"></path>
            <path d="M17.7317187,75.4244728 C17.6192187,75.4244728 17.5215625,75.3432351 17.504375,75.2291898 C17.4848437,75.1034275 17.5707812,74.9862577 17.6965625,74.9675106 L42.2340625,71.190737 L42.2340625,71.1477747 C42.2340625,71.0204502 42.3371875,70.9173408 42.46375,70.9173408 C42.5903125,70.9173408 42.6942187,71.0204502 42.6942187,71.1477747 L42.6942187,71.3883634 C42.6942187,71.5016275 42.6114062,71.5984879 42.4989062,71.6156728 L17.766875,75.4221294 C17.7551562,75.4236917 17.7434375,75.4244728 17.7317187,75.4244728" id="Fill-292" fill="#818181"></path>
            <polygon id="Fill-294" fill="#F8B12D" points="22.0957031 66.2846808 12.9042969 61.9540845 24.9902344 59.9739147 34.4597656 64.239677"></polygon>
            <path d="M13.6713281,62.061334 L22.1291406,66.0466698 L33.6721094,64.1368019 L24.9588281,60.2123943 L13.6713281,62.061334 Z M22.0627344,66.5231604 L12.1369531,61.8473038 L25.0213281,59.7359038 L35.2471094,64.3422396 L22.0627344,66.5231604 Z" id="Fill-296" fill="#818181"></path>
            <path d="M5.37132813,63.4149577 C5.25960938,63.4149577 5.16273438,63.3352823 5.14398438,63.2220181 C5.12445313,63.097037 5.20882813,62.9783049 5.33460938,62.9587766 L30.0557031,58.9117313 C30.1861719,58.8875162 30.2994531,58.9757842 30.3205469,59.1015464 C30.3392969,59.2265275 30.2557031,59.3452596 30.1291406,59.3647879 L5.40804688,63.4118332 C5.39554688,63.4141766 5.38304688,63.4149577 5.37132813,63.4149577" id="Fill-298" fill="#818181"></path>
            <path d="M5.60132813,69.8066491 L17.5013281,74.8472943 L17.5013281,68.6911925 L5.60132813,63.5357208 L5.60132813,69.8066491 Z M17.7317969,75.4245509 C17.7013281,75.4245509 17.6708594,75.419083 17.6419531,75.4058038 L5.28179688,70.1706566 C5.19585938,70.1347245 5.14117188,70.0511434 5.14117188,69.9589698 L5.14117188,63.1849925 C5.14117188,63.1076604 5.18023438,63.0357962 5.24585938,62.992834 C5.30914063,62.9490906 5.39117188,62.9436226 5.46304688,62.9740868 L17.8232031,68.3295283 C17.9067969,68.3662415 17.9614844,68.4490415 17.9614844,68.540434 L17.9614844,75.194117 C17.9614844,75.2722302 17.9224219,75.3433132 17.8583594,75.3862755 C17.8208594,75.4112717 17.7763281,75.4245509 17.7317969,75.4245509 Z" id="Fill-300" fill="#818181"></path>
            <path d="M42.4639063,71.37774 C42.3373438,71.37774 42.2342188,71.2746306 42.2342188,71.1480872 L42.2342188,64.6342268 L30.0014063,59.3498683 C29.885,59.2990947 29.831875,59.1631777 29.881875,59.0467891 C29.931875,58.9304004 30.063125,58.87494 30.1842188,58.9272758 L42.5553125,64.2717815 C42.6389063,64.3084947 42.6935938,64.3912947 42.6935938,64.4826872 L42.6935938,71.1480872 C42.6935938,71.2746306 42.5904688,71.37774 42.4639063,71.37774" id="Fill-302" fill="#818181"></path>
            <path d="M10.3105469,69.1613558 C9.77539063,69.9502992 8.63398438,70.1096502 7.76132813,69.5183332 C6.88945313,68.9270162 6.61523438,67.807654 7.15039063,67.0179294 C7.68554688,66.2297672 8.82695313,66.0696351 9.69960938,66.6609521 C10.5722656,67.2530502 10.8457031,68.3724125 10.3105469,69.1613558" id="Fill-304" fill="#A7A7A8"></path>
            <path d="M8.5615625,66.5337838 C8.48421875,66.5337838 8.406875,66.5392517 8.3303125,66.5494064 C7.9146875,66.6079913 7.563125,66.8204592 7.34125,67.1469725 C7.119375,67.4742668 7.0521875,67.8796743 7.1521875,68.2882064 C7.25375,68.7045498 7.51546875,69.0732442 7.89125,69.3278932 C8.26625,69.5817611 8.70765625,69.6879951 9.13109375,69.6301913 C9.54671875,69.5716064 9.89828125,69.3591385 10.1201562,69.0326253 C10.3420312,68.7053309 10.4092187,68.2999234 10.3092187,67.8913913 C10.2076562,67.4750479 9.9459375,67.1055725 9.57015625,66.8517045 C9.263125,66.6431423 8.91234375,66.5337838 8.5615625,66.5337838 M8.89984375,70.1059008 C8.456875,70.1059008 8.01625,69.9684215 7.63265625,69.7083045 C7.163125,69.3903838 6.83421875,68.9248291 6.70453125,68.3967838 C6.57484375,67.8609272 6.6646875,67.3258517 6.96078125,66.8891989 C7.25609375,66.4533272 7.719375,66.1705574 8.26703125,66.0940064 C8.8084375,66.0182366 9.36,66.1525913 9.82875,66.4705121 C10.2982812,66.789214 10.6279687,67.2547687 10.756875,67.782814 C10.8873437,68.3186706 10.7967187,68.8545272 10.500625,69.2903989 C10.2053125,69.7262706 9.74203125,70.0090404 9.19515625,70.0855913 C9.09671875,70.0988706 8.99828125,70.1059008 8.89984375,70.1059008" id="Fill-306" fill="#818181"></path>
            <path d="M15.3299219,71.3613362 C14.7947656,72.1502796 13.6533594,72.3104117 12.7807031,71.7183136 C11.9080469,71.1269966 11.6346094,70.0076343 12.1697656,69.2186909 C12.7049219,68.4297475 13.8463281,68.2696155 14.7189844,68.8609325 C15.5908594,69.4530306 15.8650781,70.5723928 15.3299219,71.3613362" id="Fill-308" fill="#A7A7A8"></path>
            <path d="M13.5805469,68.7337642 C13.5032031,68.7337642 13.4258594,68.7392321 13.3492969,68.7493868 C12.9336719,68.8079717 12.5821094,69.0204396 12.3602344,69.3469528 C12.1383594,69.6750283 12.0711719,70.0796547 12.1711719,70.4881868 C12.2727344,70.9045302 12.5352344,71.2740057 12.9102344,71.5278736 C13.2852344,71.7825226 13.7274219,71.8871943 14.1500781,71.8301717 C14.5657031,71.7723679 14.9172656,71.5599 15.1391406,71.2326057 C15.3610156,70.9053113 15.4282031,70.4999038 15.3282031,70.0921528 C15.2266406,69.6750283 14.9649219,69.3055528 14.5891406,69.0516849 C14.2821094,68.8431226 13.9313281,68.7337642 13.5805469,68.7337642 M13.9188281,72.3058811 C13.4766406,72.3058811 13.0352344,72.169183 12.6516406,71.909066 C12.1821094,71.5903642 11.8532031,71.1248094 11.7235156,70.5967642 C11.5938281,70.0609075 11.6836719,69.5258321 11.9797656,69.0899604 C12.2750781,68.6533075 12.7383594,68.3713189 13.2860156,68.2939868 C13.8266406,68.218217 14.3789844,68.3533528 14.8477344,68.6704925 C15.3172656,68.9891943 15.6469531,69.4547491 15.7758594,69.9827943 C15.9063281,70.5186509 15.8157031,71.0545075 15.5196094,71.4903792 C15.2242969,71.9262509 14.7610156,72.2090208 14.2141406,72.2855717 C14.1157031,72.2988509 14.0172656,72.3058811 13.9188281,72.3058811" id="Fill-310" fill="#818181"></path>
            <path d="M14.6780469,70.919606 C14.3639844,71.3828174 13.6928906,71.4765532 13.1803906,71.1297306 C12.6678906,70.7813457 12.5069531,70.1236325 12.8217969,69.6604211 C13.1358594,69.1964287 13.8061719,69.1026928 14.3194531,69.4502966 C14.8319531,69.7979004 14.9928906,70.4556136 14.6780469,70.919606" id="Fill-312" fill="#E7E6E6"></path>
            <path d="M13.6503125,69.4702936 C13.6089062,69.4702936 13.5690625,69.4734181 13.5276562,69.478886 C13.3096875,69.5093502 13.126875,69.6194898 13.0120312,69.7889955 C12.8971875,69.9585011 12.8620312,70.1701879 12.9135937,70.383437 C12.9682812,70.6060596 13.1089062,70.8029049 13.3096875,70.9388219 C13.51125,71.0763011 13.7479687,71.1317615 13.9714062,71.1005162 C14.189375,71.0700521 14.3729687,70.9599125 14.4878125,70.7904068 C14.6026562,70.6209011 14.6378125,70.4099955 14.5854687,70.1959653 C14.5307812,69.9741238 14.3909375,69.7772785 14.189375,69.6413615 C14.0245312,69.5288785 13.8370312,69.4702936 13.6503125,69.4702936 M13.84875,71.5699766 C13.570625,71.5699766 13.2925,71.4832709 13.0510937,71.3200143 C12.7565625,71.1192634 12.54875,70.8255577 12.4675,70.4927955 C12.3839062,70.1514408 12.4425,69.810086 12.6307812,69.5312219 C12.820625,69.2523577 13.1159375,69.0726974 13.464375,69.023486 C13.8003125,68.9750558 14.1526562,69.0601992 14.4479687,69.2601691 C14.7425,69.4601389 14.9503125,69.7538445 15.0323437,70.0873879 C15.1151562,70.4287426 15.0573437,70.7700974 14.8690625,71.0489615 C14.6792187,71.3270445 14.383125,71.507486 14.03625,71.5559162 C13.97375,71.5652898 13.9104687,71.5699766 13.84875,71.5699766" id="Fill-314" fill="#818181"></path>
            <path d="M9.6590625,68.7192351 C9.345,69.1832275 8.67390625,69.2769634 8.16140625,68.9293596 C7.64890625,68.5817558 7.48796875,67.9232615 7.80203125,67.4600502 C8.116875,66.9960577 8.7871875,66.9023219 9.30046875,67.2507068 C9.81296875,67.5975294 9.97390625,68.2560238 9.6590625,68.7192351" id="Fill-316" fill="#E7E6E6"></path>
            <path d="M8.62984375,67.2706257 C8.37359375,67.2706257 8.13453125,67.3799842 7.993125,67.5893275 C7.87828125,67.7588332 7.843125,67.9697389 7.8946875,68.1837691 C7.949375,68.4056106 8.09,68.6024558 8.29078125,68.7383728 C8.49234375,68.8750709 8.72515625,68.9320936 8.95328125,68.9008483 C9.17046875,68.8703842 9.3540625,68.7594634 9.46890625,68.5899577 C9.58375,68.4204521 9.61890625,68.2095464 9.5665625,67.9955162 C9.511875,67.7744558 9.37203125,67.5768294 9.17046875,67.4409125 C9.00171875,67.326086 8.81109375,67.2706257 8.62984375,67.2706257 M8.82984375,69.3695275 C8.55171875,69.3695275 8.27359375,69.2828219 8.0321875,69.1195653 C7.73765625,68.9188143 7.52984375,68.6251087 7.44859375,68.2931275 C7.365,67.9517728 7.42359375,67.609637 7.611875,67.331554 C7.9978125,66.7621087 8.81265625,66.6433766 9.4290625,67.05972 C9.72359375,67.2604709 9.93140625,67.5541766 10.0134375,67.8869389 C10.09625,68.2282936 10.0384375,68.5696483 9.85015625,68.8485125 C9.6603125,69.1273766 9.36421875,69.307037 9.01578125,69.3562483 C8.95484375,69.3648408 8.8915625,69.3695275 8.82984375,69.3695275" id="Fill-318" fill="#818181"></path>
            <path d="M205.508984,60.4643875 L205.508984,68.6865838 L191.839453,68.6865838 L191.839453,60.4643875 C191.839453,56.6930819 194.902734,53.630263 198.673828,53.630263 C200.559766,53.630263 202.270703,54.3942102 203.503516,55.6354291 C204.744922,56.8680555 205.508984,58.5787347 205.508984,60.4643875" id="Fill-320" fill="#E45F62"></path>
            <path d="M192.069062,68.4572434 L205.279219,68.4572434 L205.279219,60.4647 C205.279219,58.6954358 204.590937,57.0386547 203.341719,55.798217 C202.100312,54.5484057 200.4425,53.8602283 198.67375,53.8602283 C195.031562,53.8602283 192.069062,56.8230623 192.069062,60.4647 L192.069062,68.4572434 Z M205.739375,68.9165491 L191.609687,68.9165491 L191.609687,60.4647 C191.609687,56.5691943 194.778437,53.4009226 198.67375,53.4009226 C200.566719,53.4009226 202.339375,54.1367491 203.666719,55.473266 C205.002656,56.7988472 205.739375,58.572017 205.739375,60.4647 L205.739375,68.9165491 Z" id="Fill-322" fill="#818181"></path>
            <path d="M203.966719,56.5190457 C202.93625,55.8933589 201.801875,55.3543777 200.514375,55.3543777 C196.7425,55.3543777 193.679219,58.4171966 193.679219,62.1885023 L193.632344,68.68674 L191.839374,68.68674 L191.839375,61.3597211 C191.837813,56.1097325 194.902656,53.6304192 198.674531,53.6304192 C200.559688,53.6304192 202.015156,54.4006155 203.247969,55.6426155 C203.441719,55.8261815 203.810469,56.3073589 203.966719,56.5190457" id="Fill-324" fill="#FEFEFE"></path>
            <path d="M192.069062,68.4572434 L205.279219,68.4572434 L205.279219,60.4647 C205.279219,58.6954358 204.590937,57.0386547 203.341719,55.798217 C202.100312,54.5484057 200.4425,53.8602283 198.67375,53.8602283 C195.031562,53.8602283 192.069062,56.8230623 192.069062,60.4647 L192.069062,68.4572434 Z M205.509687,68.9165491 L191.839375,68.9165491 C191.712812,68.9165491 191.609687,68.8142208 191.609687,68.6868962 L191.609687,60.4647 C191.609687,56.5691943 194.778437,53.4009226 198.67375,53.4009226 C200.566719,53.4009226 202.339375,54.1367491 203.666719,55.473266 C205.002656,56.7988472 205.739375,58.572017 205.739375,60.4647 L205.739375,68.6868962 C205.739375,68.8142208 205.63625,68.9165491 205.509687,68.9165491 Z" id="Fill-326" fill="#818181"></path>
            <path d="M195.684297,68.9168615 C195.557734,68.9168615 195.454609,68.8145332 195.454609,68.6872087 L195.454609,61.6742049 C195.454609,61.5468804 195.557734,61.4437709 195.684297,61.4437709 C195.810859,61.4437709 195.913984,61.5468804 195.913984,61.6742049 L195.913984,68.6872087 C195.913984,68.8145332 195.810859,68.9168615 195.684297,68.9168615" id="Fill-328" fill="#818181"></path>
            <path d="M195.914297,63.7433457 L200.513516,63.7433457 C201.021328,63.7433457 201.433047,63.3309079 201.433047,62.8231721 C201.433047,62.3162174 201.021328,61.9037796 200.513516,61.9037796 L195.914297,61.9037796 L195.914297,63.7433457 Z M200.513516,64.2034325 L195.684609,64.2034325 C195.557266,64.2034325 195.454141,64.100323 195.454141,63.9729985 L195.454141,61.6741268 C195.454141,61.5468023 195.557266,61.4436928 195.684609,61.4436928 L200.513516,61.4436928 C201.274453,61.4436928 201.893203,62.0631306 201.893203,62.8231721 C201.893203,63.5839947 201.274453,64.2034325 200.513516,64.2034325 Z" id="Fill-330" fill="#818181"></path>
            <mask id="mask-2" fill="white">
                <use xlink:href="#path-1"></use>
            </mask>
            <g id="Clip-333"></g>
            <polygon id="Fill-332" fill="#E7E6E6" mask="url(#mask-2)" points="190.448437 70.6455849 206.899219 70.6455849 206.899219 68.6865057 190.448437 68.6865057"></polygon>
            <path d="M190.678906,70.4159321 L206.669531,70.4159321 L206.669531,68.9169396 L190.678906,68.9169396 L190.678906,70.4159321 Z M206.899219,70.8760189 L190.448437,70.8760189 C190.321875,70.8760189 190.21875,70.7729094 190.21875,70.6455849 L190.21875,68.6865057 C190.21875,68.5599623 190.321875,68.4568528 190.448437,68.4568528 L206.899219,68.4568528 C207.025781,68.4568528 207.128906,68.5599623 207.128906,68.6865057 L207.128906,70.6455849 C207.128906,70.7729094 207.025781,70.8760189 206.899219,70.8760189 Z" id="Fill-334" fill="#818181" mask="url(#mask-2)"></path>
            <path d="M194.994219,80.8836487 C194.872344,80.8836487 194.773125,80.785226 194.773125,80.6625883 L194.773125,70.8671921 L192.060625,70.8671921 L192.060625,80.6625883 C192.060625,80.785226 191.961406,80.8836487 191.839531,80.8836487 C191.716875,80.8836487 191.618438,80.785226 191.618438,80.6625883 L191.618438,70.6461317 C191.618438,70.523494 191.716875,70.4250713 191.839531,70.4250713 L194.994219,70.4250713 C195.116094,70.4250713 195.215313,70.523494 195.215313,70.6461317 L195.215313,80.6625883 C195.215313,80.785226 195.116094,80.8836487 194.994219,80.8836487" id="Fill-335" fill="#818181" mask="url(#mask-2)"></path>
            <path d="M205.509375,80.8836487 C205.386719,80.8836487 205.288281,80.785226 205.288281,80.6625883 L205.288281,70.8671921 L202.574219,70.8671921 L202.574219,80.6625883 C202.574219,80.785226 202.475781,80.8836487 202.353125,80.8836487 C202.23125,80.8836487 202.132031,80.785226 202.132031,80.6625883 L202.132031,70.6461317 C202.132031,70.523494 202.23125,70.4250713 202.353125,70.4250713 L205.509375,70.4250713 C205.63125,70.4250713 205.730469,70.523494 205.730469,70.6461317 L205.730469,80.6625883 C205.730469,80.785226 205.63125,80.8836487 205.509375,80.8836487" id="Fill-336" fill="#818181" mask="url(#mask-2)"></path>
        </g>
    </g>
</svg>