<?xml version="1.0" encoding="UTF-8"?>
<svg width="285px" height="283px" viewBox="0 0 285 283" version="1.1" xmlns="http://www.w3.org/2000/svg" xmlns:xlink="http://www.w3.org/1999/xlink">
    <!-- Generator: Sketch 48.2 (47327) - http://www.bohemiancoding.com/sketch -->
    <title>Group 3</title>
    <desc>Created with Sketch.</desc>
    <defs>
        <polygon id="path-1" points="2.03287907e-20 0.000658857228 2.03287907e-20 282.364 282.94 282.364 282.94 0.000658857228 0 0.000658857228"></polygon>
        <polygon id="path-3" points="0 263.847 284.917 263.847 284.917 0 0 0"></polygon>
    </defs>
    <g id="6.-Onboarding-5" stroke="none" stroke-width="1" fill="none" fill-rule="evenodd" transform="translate(-583.000000, -305.000000)">
        <g id="Group-3" transform="translate(583.000000, 305.000000)">
            <g id="Page-1" transform="translate(1.000000, 0.000000)">
                <mask id="mask-2" fill="white">
                    <use xlink:href="#path-1"></use>
                </mask>
                <g id="Clip-2"></g>
                <path d="M134.3835,1.4185 C148.9005,-0.8785 167.8985,-0.9675 181.0445,5.6045 C194.1905,12.1755 206.6905,29.6235 202.6905,51.1235 C195.0005,92.4545 235.2095,105.3445 242.7855,108.9465 C264.1905,119.1235 275.1905,137.6235 280.2855,156.4465 C289.3945,190.0925 276.2485,263.8865 222.2855,265.4465 C175.2855,267.1965 169.0355,250.1965 112.4205,276.6845 C47.2855,301.4465 -20.2605,240.5855 5.6905,184.1235 C16.1975,161.2595 43.6095,139.6775 41.6905,95.1235 C39.7715,50.5685 93.2285,7.9305 134.3835,1.4185" id="Fill-1" fill="#E5EFF6" mask="url(#mask-2)"></path>
            </g>
            <g id="Page-1" transform="translate(0.000000, 16.000000)">
                <path d="M36.7488,218.5867 L21.5638,218.5867 C20.9178,218.5867 20.3958,218.0637 20.3958,217.4187 C20.3958,216.7737 20.9178,216.2507 21.5638,216.2507 L36.7488,216.2507 C37.3948,216.2507 37.9168,216.7737 37.9168,217.4187 C37.9168,218.0637 37.3948,218.5867 36.7488,218.5867" id="Fill-1" fill="#DFDFDE"></path>
                <path d="M263.3528,218.5867 L254.0078,218.5867 C253.3628,218.5867 252.8398,218.0637 252.8398,217.4187 C252.8398,216.7737 253.3628,216.2507 254.0078,216.2507 L263.3528,216.2507 C263.9988,216.2507 264.5208,216.7737 264.5208,217.4187 C264.5208,218.0637 263.9988,218.5867 263.3528,218.5867" id="Fill-3" fill="#DFDFDE"></path>
                <path d="M245.8318,218.5867 L44.9248,218.5867 C44.2798,218.5867 43.7568,218.0637 43.7568,217.4187 C43.7568,216.7737 44.2798,216.2507 44.9248,216.2507 L245.8318,216.2507 C246.4778,216.2507 246.9998,216.7737 246.9998,217.4187 C246.9998,218.0637 246.4778,218.5867 245.8318,218.5867" id="Fill-5" fill="#DFDFDE"></path>
                <path d="M171.8953,30.6136 C171.8953,46.8716 158.7163,60.0506 142.4583,60.0506 C126.2013,60.0506 113.0213,46.8716 113.0213,30.6136 C113.0213,14.3566 126.2013,1.1766 142.4583,1.1766 C158.7163,1.1766 171.8953,14.3566 171.8953,30.6136" id="Fill-7" fill="#FEFEFE"></path>
                <path d="M142.4588,2.3543 C126.8768,2.3543 114.1998,15.0323 114.1998,30.6133 C114.1998,46.1953 126.8768,58.8733 142.4588,58.8733 C158.0408,58.8733 170.7178,46.1953 170.7178,30.6133 C170.7178,15.0323 158.0408,2.3543 142.4588,2.3543 M142.4588,61.2283 C125.5778,61.2283 111.8448,47.4943 111.8448,30.6133 C111.8448,13.7333 125.5778,0.0003 142.4588,0.0003 C159.3398,0.0003 173.0728,13.7333 173.0728,30.6133 C173.0728,47.4943 159.3398,61.2283 142.4588,61.2283" id="Fill-9" fill="#818181"></path>
                <path d="M283.7356,85.5369 C283.9836,101.7929 271.0066,115.1709 254.7506,115.4189 C238.4956,115.6659 225.1166,102.6889 224.8696,86.4339 C224.6216,70.1779 237.5986,56.7999 253.8546,56.5519 C270.1096,56.3049 283.4876,69.2819 283.7356,85.5369" id="Fill-11" fill="#FEFEFE"></path>
                <path d="M254.3079,57.7259 C254.1619,57.7259 254.0179,57.7269 253.8719,57.7289 C238.2909,57.9669 225.8099,70.8359 226.0469,86.4159 C226.1619,93.9629 229.2089,101.0139 234.6269,106.2699 C240.0439,111.5249 247.2109,114.3579 254.7319,114.2409 C262.2799,114.1269 269.3309,111.0799 274.5869,105.6619 C279.8419,100.2429 282.6729,93.1019 282.5579,85.5549 C282.3239,70.1209 269.6909,57.7259 254.3079,57.7259 M254.2899,116.5999 C246.2899,116.5999 238.7429,113.5429 232.9869,107.9599 C227.1169,102.2669 223.8159,94.6279 223.6919,86.4519 C223.4349,69.5729 236.9579,55.6319 253.8349,55.3739 C270.7709,55.1079 284.6569,68.6409 284.9129,85.5189 C285.0379,93.6949 281.9709,101.4309 276.2779,107.3009 C270.5829,113.1709 262.9449,116.4719 254.7689,116.5959 C254.6089,116.5989 254.4489,116.5999 254.2899,116.5999" id="Fill-13" fill="#818181"></path>
                <path d="M60.0511,85.9549 C60.0511,102.2119 46.8721,115.3919 30.6141,115.3919 C14.3571,115.3919 1.1771,102.2119 1.1771,85.9549 C1.1771,69.6979 14.3571,56.5179 30.6141,56.5179 C46.8721,56.5179 60.0511,69.6979 60.0511,85.9549" id="Fill-15" fill="#FEFEFE"></path>
                <path d="M30.614,57.6956 C15.032,57.6956 2.355,70.3726 2.355,85.9546 C2.355,101.5366 15.032,114.2146 30.614,114.2146 C46.196,114.2146 58.873,101.5366 58.873,85.9546 C58.873,70.3726 46.196,57.6956 30.614,57.6956 M30.614,116.5696 C13.733,116.5696 0,102.8356 0,85.9546 C0,69.0736 13.733,55.3406 30.614,55.3406 C47.495,55.3406 61.228,69.0736 61.228,85.9546 C61.228,102.8356 47.495,116.5696 30.614,116.5696" id="Fill-17" fill="#818181"></path>
                <polygon id="Fill-19" fill="#B2B4B6" points="230.3201 140.596 205.2401 156.304 142.4571 142.527 166.1721 126.537"></polygon>
                <path d="M143.9256,142.2469 L205.1316,155.6769 L228.7846,140.8629 L166.2916,127.1659 L143.9256,142.2469 Z M205.3496,156.9299 L140.9886,142.8079 L166.0506,125.9089 L231.8556,140.3299 L205.3496,156.9299 Z" id="Fill-21" fill="#B2B4B6"></path>
                <polygon id="Fill-23" fill="#939598" points="227.2469 171.5403 206.2529 176.0613 164.3109 185.1043 141.7269 170.1033 142.4569 169.6093 141.8329 169.4913 205.2399 156.3033"></polygon>
                <path d="M142.784,170.0989 L164.429,184.4759 L225.794,171.2509 L205.113,156.9319 L143.219,169.8039 L142.784,170.0989 Z M164.192,185.7319 L140.67,170.1079 L140.944,169.9229 L138.807,169.5189 L205.368,155.6759 L228.699,171.8289 L164.192,185.7319 Z" id="Fill-25" fill="#818181"></path>
                <polygon id="Fill-27" fill="#FEFEFE" points="205.24 156.3035 141.833 169.4915 78.521 156.5625 142.457 142.5275"></polygon>
                <path d="M81.3611,156.5423 L141.8321,168.8903 L202.4231,156.2883 L142.4571,143.1303 L81.3611,156.5423 Z M141.8341,170.0923 L141.7151,170.0683 L75.6811,156.5833 L142.4571,141.9253 L142.5841,141.9523 L208.0571,156.3193 L141.8341,170.0923 Z" id="Fill-29" fill="#818181"></path>
                <polygon id="Fill-31" fill="#FEFEFE" points="205.24 156.3035 141.833 169.4915 78.521 156.5625 142.457 142.5275"></polygon>
                <path d="M81.3611,156.5423 L141.8321,168.8903 L202.4231,156.2883 L142.4571,143.1303 L81.3611,156.5423 Z M141.8341,170.0923 L141.7151,170.0683 L75.6811,156.5833 L142.4571,141.9253 L142.5841,141.9523 L208.0571,156.3193 L141.8341,170.0923 Z" id="Fill-33" fill="#818181"></path>
                <polygon id="Fill-35" fill="#5B5755" points="205.24 156.3035 141.833 169.4915 78.521 156.5625 142.457 142.5275"></polygon>
                <path d="M81.3611,156.5423 L141.8321,168.8903 L202.4231,156.2883 L142.4571,143.1303 L81.3611,156.5423 Z M141.8341,170.0923 L141.7151,170.0683 L75.6811,156.5833 L142.4571,141.9253 L142.5841,141.9523 L208.0571,156.3193 L141.8341,170.0923 Z" id="Fill-37" fill="#5B5755"></path>
                <polygon id="Fill-39" fill="#B2B4B6" points="142.4573 142.5272 78.5203 156.5632 54.5943 140.5962 118.7433 126.5372"></polygon>
                <path d="M56.073,140.8748 L78.639,155.9338 L140.989,142.2468 L118.624,127.1668 L56.073,140.8748 Z M78.403,157.1918 L53.115,140.3168 L118.864,125.9088 L143.926,142.8078 L78.403,157.1918 Z" id="Fill-41" fill="#B2B4B6"></path>
                <polygon id="Fill-43" fill="#FEFEFE" points="141.7742 262.6175 141.7742 262.6295 141.7742 262.6525 141.6912 262.6765 141.6212 262.6525"></polygon>
                <polygon id="Fill-45" fill="#818181" points="141.7591 263.2693 141.5041 263.2343 139.5381 262.5743 142.3631 261.8753 142.3631 263.0733"></polygon>
                <polygon id="Fill-47" fill="#B2B4B6" points="206.3821 176.6736 206.3821 248.4996 141.7741 262.6176 141.7741 170.1736 141.6211 170.2796 141.6211 170.1736 141.7271 170.1036 164.3111 185.1046 206.2531 176.0616"></polygon>
                <path d="M142.3631,171.2327 L142.3631,261.8857 L205.7931,248.0257 L205.7931,176.7627 L164.1921,185.7327 L142.3631,171.2327 Z M141.1851,263.3487 L141.1851,171.2967 L141.0321,171.4027 L141.0321,169.9657 L141.3991,169.6147 L141.7261,169.3957 L141.7961,169.4427 L142.3631,169.0517 L142.3631,169.8187 L164.4291,184.4767 L206.7051,175.3617 L206.9711,176.6737 L206.9711,248.9737 L141.1851,263.3487 Z" id="Fill-49" fill="#818181"></path>
                <path d="M206.0403,186.0506 C206.0403,186.0506 163.4813,185.4816 163.4813,224.5896 L163.4813,257.5666 L139.8733,262.7236 L139.8733,170.2796 L139.7203,170.3856 L139.7203,170.2796 L139.8263,170.2096 L162.4103,185.2106 L206.0403,176.1076 L206.0403,186.0506 Z" id="Fill-51" fill="#939598"></path>
                <path d="M76.1775,176.2913 L76.1775,193.0233 L97.8245,197.2863 C112.6455,200.2053 123.3175,213.2203 123.2755,228.3253 L123.1935,258.3963 L140.7845,262.2343 L140.7845,169.7913 L140.9385,169.8973 L140.9385,169.7913 L140.8325,169.7213 L118.2485,184.7223 L76.3065,175.6793 L76.1775,176.2913 Z" id="Fill-53" fill="#E7E6E6"></path>
                <path d="M123.7835,257.9222 L140.1965,261.5042 L140.1965,170.8502 L118.3665,185.3502 L76.7665,176.3802 L76.7665,192.5392 L97.9385,196.7092 C113.0035,199.6762 123.9075,212.9732 123.8655,228.3272 L123.7835,257.9222 Z M141.3745,262.9662 L122.6035,258.8702 L122.6875,228.3242 C122.7275,213.5322 112.2235,200.7222 97.7115,197.8642 L75.5885,193.5072 L75.6015,176.1692 L75.8545,174.9782 L118.1295,184.0942 L140.1965,169.4362 L140.1965,168.6692 L140.7635,169.0602 L140.8335,169.0132 L141.5275,169.4772 L141.5275,170.9142 L141.3745,170.8262 L141.3745,262.9662 Z" id="Fill-55" fill="#818181"></path>
                <polygon id="Fill-57" fill="#FEFEFE" points="141.7742 262.6175 141.6212 262.6525 141.6212 262.6295 141.6212 170.2805 141.7742 170.1745"></polygon>
                <polygon id="Fill-59" fill="#818181" points="141.0325 263.3943 141.0325 169.9713 142.3635 169.0513 142.3635 263.0843"></polygon>
                <polygon id="Fill-61" fill="#FEFEFE" points="141.6214 170.033 141.6214 170.174 141.2794 170.41 141.2794 170.174 141.2794 170.033 141.2794 169.809"></polygon>
                <polygon id="Fill-63" fill="#818181" points="140.6912 171.5296 140.6912 168.7196 142.2102 169.7156 142.2102 170.4836"></polygon>
                <polygon id="Fill-65" fill="#939598" points="141.2796 170.033 141.2796 170.174 141.2796 170.41 118.7786 185.575 77.0606 176.462 77.0486 176.497 76.9076 176.462 54.5946 171.564 78.5206 156.563 141.8336 169.491 141.2796 169.609 141.0446 169.656 141.2796 169.809"></polygon>
                <path d="M76.7234,175.8187 L77.1854,175.8867 L118.6574,184.9467 L140.6654,170.1127 L140.0834,169.7357 L78.6334,157.1867 L56.1274,171.2977 L76.7234,175.8187 Z M118.8984,186.2047 L77.4574,177.1517 L77.4514,177.1677 L76.7644,177.0327 L53.0614,171.8297 L78.4084,155.9387 L144.7154,169.4797 L141.8684,170.0857 L141.8684,170.7227 L118.8984,186.2047 Z" id="Fill-67" fill="#818181"></path>
                <path d="M55.6961,171.5403 L76.6911,176.0613 L118.6321,185.1043 L127.0861,179.4883 L95.9061,172.7653 L91.4491,171.8043 C79.0721,168.7963 73.7091,162.6703 79.0721,156.8013 L77.7031,156.3033 L55.6961,171.5403 Z" id="Fill-69" fill="#B2B4B6"></path>
                <path d="M227.7239,171.5403 L206.7299,176.0613 L164.7879,185.1043 L156.3339,179.4883 L187.5139,172.7653 L191.9719,171.8043 C204.3479,168.7963 209.7109,162.6703 204.3479,156.8013 L205.7169,156.3033 L227.7239,171.5403 Z" id="Fill-71" fill="#B2B4B6"></path>
                <polygon id="Fill-73" fill="#B2B4B6" points="141.6214 262.6292 141.6214 262.6522 141.6094 262.6522 77.0134 248.4992 77.0134 176.6732 77.0484 176.4972 118.7434 185.5992 118.7784 185.5752 118.8844 185.5992 141.2794 170.5042 141.6214 170.2802"></polygon>
                <path d="M77.6023,248.0257 L141.0323,261.9237 L141.0323,171.3807 L119.0033,186.2287 L77.5903,177.2187 L77.6023,248.0257 Z M142.2103,263.2417 L141.4833,263.2277 L76.4243,248.9737 L76.4723,176.3807 L76.5903,175.7947 L118.6203,184.9697 L118.6233,184.9687 L118.7443,184.9837 L142.2103,169.1907 L142.2103,263.2417 Z" id="Fill-75" fill="#818181"></path>
                <path d="M76.5188,186.0506 C76.5188,186.0506 119.0778,185.4816 119.0778,224.5896 L119.0778,257.5666 L142.6858,262.7236 L142.6858,170.2796 L142.8388,170.3856 L142.8388,170.2796 L142.7328,170.2096 L120.1488,185.2106 L76.5188,176.1076 L76.5188,186.0506 Z" id="Fill-77" fill="#939598"></path>
                <polygon id="Fill-79" fill="#FEFEFE" points="118.743 185.5989 77.049 176.4969 77.06 176.4619 118.778 185.5759"></polygon>
                <polygon id="Fill-81" fill="#818181" points="118.9012 186.2054 118.6182 186.1744 76.2892 176.9344 76.6522 175.8084 77.1862 175.8874 120.2372 185.2914"></polygon>
                <path d="M145.3953,141.9666 L205.0223,155.0496 L227.2513,141.1296 L166.4113,127.7956 L145.3953,141.9666 Z M205.2403,157.4806 C205.1563,157.4806 205.0713,157.4716 204.9883,157.4536 L142.2053,143.6766 C141.7443,143.5766 141.3893,143.2116 141.3003,142.7486 C141.2113,142.2856 141.4083,141.8146 141.7993,141.5506 L165.5133,125.5606 C165.7793,125.3816 166.1113,125.3206 166.4223,125.3866 L230.5723,139.4456 C231.0403,139.5486 231.3983,139.9236 231.4803,140.3946 C231.5623,140.8666 231.3503,141.3406 230.9453,141.5936 L205.8663,157.3016 C205.6763,157.4196 205.4593,157.4806 205.2403,157.4806 Z" id="Fill-83" fill="#818181"></path>
                <path d="M57.5506,141.1541 L78.7576,155.3051 L139.5196,141.9661 L118.5036,127.7951 L57.5506,141.1541 Z M78.5206,157.7401 C78.2896,157.7401 78.0626,157.6721 77.8676,157.5421 L53.9416,141.5761 C53.5486,141.3141 53.3506,140.8421 53.4376,140.3781 C53.5256,139.9141 53.8816,139.5471 54.3426,139.4461 L118.4916,125.3871 C118.8006,125.3191 119.1346,125.3811 119.4016,125.5611 L143.1146,141.5511 C143.5066,141.8141 143.7026,142.2851 143.6136,142.7481 C143.5256,143.2111 143.1706,143.5761 142.7106,143.6771 L78.7736,157.7131 C78.6896,157.7311 78.6046,157.7401 78.5206,157.7401 Z" id="Fill-85" fill="#818181"></path>
                <path d="M143.9729,170.2181 L164.5419,183.8811 L206.0109,174.9411 L224.4169,170.9761 L204.9919,157.5271 L143.9729,170.2181 Z M164.3099,186.2511 C164.0859,186.2511 163.8659,186.1861 163.6759,186.0601 L140.4199,170.6191 C140.0289,170.3641 139.8299,169.8991 139.9169,169.4411 C140.0049,168.9831 140.3609,168.6231 140.8189,168.5311 L141.5939,168.3691 L205.0069,155.1801 C205.3139,155.1181 205.6359,155.1811 205.8929,155.3611 L227.8999,170.5971 C228.2759,170.8571 228.4609,171.3161 228.3709,171.7641 C228.2829,172.2131 227.9349,172.5651 227.4879,172.6611 L164.5519,186.2251 C164.4729,186.2421 164.3909,186.2511 164.3099,186.2511 Z" id="Fill-87" fill="#818181"></path>
                <path d="M77.3172,175.3504 L118.5032,184.3414 L139.4682,170.2094 L78.7472,157.8104 L57.6602,171.0314 L77.3172,175.3504 Z M118.7172,186.7734 C118.6412,186.7734 118.5652,186.7664 118.4932,186.7494 L76.7982,177.6474 C76.7862,177.6454 76.7732,177.6424 76.7612,177.6394 L76.6202,177.6034 L54.3412,172.7134 C53.8742,172.6114 53.5162,172.2364 53.4342,171.7644 C53.3522,171.2934 53.5642,170.8204 53.9692,170.5654 L77.8952,155.5654 C78.1502,155.4044 78.4592,155.3494 78.7562,155.4094 L142.6752,168.4524 C143.1452,168.5404 143.5142,168.9034 143.6102,169.3704 C143.7072,169.8374 143.5132,170.3174 143.1172,170.5844 L141.9482,171.3794 L119.4362,186.5524 C119.2312,186.6894 118.9702,186.7734 118.7172,186.7734 Z" id="Fill-89" fill="#818181"></path>
                <path d="M76.5188,249.5355 C75.8678,249.5355 75.3418,249.0085 75.3418,248.3585 L75.3418,176.5325 C75.3418,175.8825 75.8678,175.3555 76.5188,175.3555 C77.1698,175.3555 77.6968,175.8825 77.6968,176.5325 L77.6968,248.3585 C77.6968,249.0085 77.1698,249.5355 76.5188,249.5355" id="Fill-91" fill="#818181"></path>
                <path d="M206.0408,249.5355 C205.3898,249.5355 204.8628,249.0085 204.8628,248.3585 L204.8628,176.5325 C204.8628,175.8825 205.3898,175.3555 206.0408,175.3555 C206.6908,175.3555 207.2178,175.8825 207.2178,176.5325 L207.2178,248.3585 C207.2178,249.0085 206.6908,249.5355 206.0408,249.5355" id="Fill-93" fill="#818181"></path>
                <path d="M141.4983,263.847 C141.4233,263.847 141.3513,263.841 141.2873,263.826 L76.6083,249.65 C75.9733,249.511 75.5713,248.883 75.7103,248.248 C75.8503,247.611 76.4763,247.207 77.1123,247.35 L141.5213,261.467 L205.7853,247.209 C206.4243,247.059 207.0493,247.469 207.1903,248.103 C207.3313,248.738 206.9303,249.367 206.2953,249.508 L141.8883,263.8 C141.8613,263.806 141.8333,263.811 141.8063,263.815 C141.7073,263.835 141.6003,263.847 141.4983,263.847" id="Fill-95" fill="#818181"></path>
                <path d="M141.2796,263.6653 C140.6296,263.6653 140.1026,263.1383 140.1026,262.4873 L140.1026,169.4673 C140.1026,168.8173 140.6296,168.2903 141.2796,168.2903 C141.9306,168.2903 142.4576,168.8173 142.4576,169.4673 L142.4576,262.4873 C142.4576,263.1383 141.9306,263.6653 141.2796,263.6653" id="Fill-97" fill="#818181"></path>
                <path d="M83.9573,232.5818 L95.6163,235.5548 C95.5113,231.9868 94.6143,229.5268 91.0893,228.3248 C89.3873,227.7448 87.5033,228.0168 86.0533,229.0558 C84.8413,229.9218 84.0953,231.1888 83.9573,232.5818 M96.2393,236.9558 C96.1883,236.9558 96.1383,236.9498 96.0883,236.9368 L83.1723,233.6438 C82.9003,233.5748 82.7113,233.3308 82.7113,233.0508 C82.7113,231.0758 83.6703,229.2568 85.3423,228.0598 C87.1123,226.7928 89.4083,226.4588 91.4843,227.1668 C96.4363,228.8558 96.8513,232.7898 96.8513,236.3448 C96.8513,236.5328 96.7633,236.7118 96.6143,236.8278 C96.5063,236.9118 96.3743,236.9558 96.2393,236.9558" id="Fill-99" fill="#818181"></path>
                <path d="M88.2327,243.743 C87.9417,243.743 87.6477,243.69 87.3587,243.581 C86.3477,243.201 85.8357,242.201 85.8357,240.606 C85.8357,240.281 86.0987,240.017 86.4237,240.017 C86.7497,240.017 87.0127,240.281 87.0127,240.606 C87.0127,241.66 87.2677,242.29 87.7727,242.479 C88.2787,242.67 88.6577,242.518 88.8897,242.36 C89.3077,242.07 89.5587,241.524 89.5587,240.901 L89.5587,235.406 C89.5587,235.081 89.8217,234.817 90.1477,234.817 C90.4727,234.817 90.7357,235.081 90.7357,235.406 L90.7357,240.901 C90.7357,241.91 90.2957,242.818 89.5597,243.327 C89.1617,243.603 88.7027,243.743 88.2327,243.743" id="Fill-101" fill="#818181"></path>
                <path d="M101.3333,230.2005 L101.3333,236.0005 C101.3333,237.7905 101.7413,239.2325 102.5133,240.1705 C103.1203,240.9085 103.9383,241.3155 104.8173,241.3155 C105.9823,241.3155 107.2203,240.5425 107.2203,239.1105 L107.2203,231.9345 L101.3333,230.2005 Z M104.8173,242.4925 C103.5803,242.4925 102.4393,241.9335 101.6033,240.9185 C100.6573,239.7665 100.1553,238.0665 100.1553,236.0005 L100.1553,229.4135 C100.1553,229.2275 100.2433,229.0535 100.3913,228.9425 C100.5413,228.8305 100.7313,228.7965 100.9113,228.8485 L107.9763,230.9295 C108.2253,231.0035 108.3983,231.2335 108.3983,231.4935 L108.3983,239.1105 C108.3983,241.0075 106.8253,242.4925 104.8173,242.4925 Z" id="Fill-103" fill="#818181"></path>
                <path d="M104.2766,246.5921 C103.9516,246.5921 103.6886,246.3291 103.6886,246.0031 L103.6886,242.4711 C103.6886,242.1451 103.9516,241.8821 104.2766,241.8821 C104.6026,241.8821 104.8656,242.1451 104.8656,242.4711 L104.8656,246.0031 C104.8656,246.3291 104.6026,246.5921 104.2766,246.5921" id="Fill-105" fill="#818181"></path>
                <path d="M107.407,248.1356 C107.359,248.1356 107.308,248.1306 107.259,248.1166 L100.42,246.3406 C100.106,246.2596 99.917,245.9376 99.998,245.6236 C100.08,245.3096 100.401,245.1146 100.717,245.2016 L107.555,246.9776 C107.869,247.0586 108.059,247.3806 107.977,247.6946 C107.908,247.9596 107.669,248.1356 107.407,248.1356" id="Fill-107" fill="#818181"></path>
                <path d="M123.4441,198.4495 C123.4021,198.4495 123.3601,198.4455 123.3181,198.4355 L82.6511,189.5295 C82.3341,189.4605 82.1321,189.1465 82.2031,188.8285 C82.2721,188.5115 82.5861,188.3115 82.9041,188.3795 L123.5701,197.2855 C123.8881,197.3555 124.0891,197.6695 124.0191,197.9875 C123.9591,198.2625 123.7151,198.4495 123.4441,198.4495" id="Fill-109" fill="#818181"></path>
                <path d="M123.4441,205.1824 C123.4021,205.1824 123.3601,205.1774 123.3181,205.1684 L82.6511,196.2624 C82.3341,196.1934 82.1321,195.8794 82.2031,195.5614 C82.2721,195.2444 82.5861,195.0444 82.9041,195.1124 L123.5701,204.0184 C123.8881,204.0884 124.0891,204.4024 124.0191,204.7194 C123.9591,204.9954 123.7151,205.1824 123.4441,205.1824" id="Fill-111" fill="#818181"></path>
                <path d="M109.3929,208.8377 C109.3509,208.8377 109.3089,208.8337 109.2669,208.8237 L82.6509,202.9947 C82.3339,202.9257 82.1329,202.6117 82.2029,202.2947 C82.2719,201.9767 82.5859,201.7777 82.9039,201.8457 L109.5189,207.6737 C109.8369,207.7437 110.0379,208.0577 109.9679,208.3747 C109.9079,208.6507 109.6639,208.8377 109.3929,208.8377" id="Fill-113" fill="#818181"></path>
                <g id="Group-129" transform="translate(169.000000, 211.847000)">
                    <polygon id="Fill-115" fill="#FEFEFE" points="14.4265 3.6567 13.7455 41.3297 1.4275 43.8857 1.3415 43.4607 1.9585 9.3197 5.1795 12.9107 7.8915 9.4277 10.6565 11.5377"></polygon>
                    <path d="M2.5203,10.8281 L1.9353,43.1801 L13.1653,40.8491 L13.7893,6.3541 L10.8743,12.4451 L7.9983,10.2491 L5.2113,13.8281 L2.5203,10.8281 Z M0.9693,44.5831 L0.7523,43.4501 L1.3973,7.8121 L5.1473,11.9941 L7.7863,8.6051 L10.4383,10.6311 L15.0643,0.9591 L14.3253,41.8101 L0.9693,44.5831 Z" id="Fill-117" fill="#818181"></path>
                    <polygon id="Fill-119" fill="#4566A3" points="14.4265 3.6567 13.7455 41.3297 1.4275 43.8857 1.3415 43.4607 1.9585 9.3197 5.1795 12.9107 7.8915 9.4277 10.6565 11.5377"></polygon>
                    <path d="M2.5203,10.8281 L1.9353,43.1801 L13.1653,40.8491 L13.7893,6.3541 L10.8743,12.4451 L7.9983,10.2491 L5.2113,13.8281 L2.5203,10.8281 Z M0.9693,44.5831 L0.7523,43.4501 L1.3973,7.8121 L5.1473,11.9941 L7.7863,8.6051 L10.4383,10.6311 L15.0643,0.9591 L14.3253,41.8101 L0.9693,44.5831 Z" id="Fill-121" fill="#818181"></path>
                    <path d="M13.7346,41.9184 C13.4096,41.9124 13.1506,41.6444 13.1566,41.3194 L13.8376,3.6464 C13.8436,3.3204 14.1116,3.0624 14.4376,3.0684 C14.7626,3.0744 15.0206,3.3424 15.0146,3.6674 L14.3346,41.3404 C14.3286,41.6664 14.0606,41.9244 13.7346,41.9184" id="Fill-123" fill="#818181"></path>
                    <path d="M1.3308,44.0493 C1.0058,44.0433 0.7468,43.7763 0.7528,43.4503 L1.3698,9.3093 C1.3738,9.0673 1.5268,8.8523 1.7538,8.7683 C1.9798,8.6843 2.2348,8.7453 2.3968,8.9273 L5.1478,11.9943 L7.4268,9.0653 C7.6268,8.8093 7.9948,8.7643 8.2488,8.9593 L10.4378,10.6313 L13.8948,3.4033 C14.0358,3.1103 14.3888,2.9883 14.6808,3.1253 C14.9738,3.2663 15.0978,3.6173 14.9578,3.9113 L11.1878,11.7923 C11.1118,11.9523 10.9668,12.0693 10.7948,12.1103 C10.6228,12.1523 10.4418,12.1133 10.2998,12.0063 L7.9978,10.2493 L5.6438,13.2723 C5.5378,13.4103 5.3738,13.4933 5.1998,13.4993 C5.0278,13.5063 4.8568,13.4333 4.7408,13.3043 L2.5198,10.8283 L1.9298,43.4713 C1.9238,43.7973 1.6558,44.0553 1.3308,44.0493" id="Fill-125" fill="#818181"></path>
                    <path d="M1.408,44.4751 C1.135,44.4701 0.865,44.2921 0.805,44.0231 C0.737,43.7081 0.887,43.4071 1.201,43.3351 L1.296,43.3131 L13.626,40.7531 C13.948,40.6851 14.256,40.8921 14.322,41.2101 C14.388,41.5281 14.183,41.8401 13.865,41.9061 L1.548,44.4631 C1.501,44.4721 1.455,44.4761 1.408,44.4751" id="Fill-127" fill="#818181"></path>
                </g>
                <path d="M97.5032,89.5159 C94.5952,90.3279 92.2902,92.6329 91.4782,95.5409 C91.3922,95.8499 90.9362,95.8499 90.8502,95.5409 C90.0392,92.6329 87.7332,90.3279 84.8252,89.5159 C84.5162,89.4299 84.5162,88.9739 84.8252,88.8879 C87.7332,88.0769 90.0392,85.7709 90.8502,82.8629 C90.9362,82.5539 91.3922,82.5539 91.4782,82.8629 C92.2902,85.7709 94.5952,88.0769 97.5032,88.8879 C97.8122,88.9739 97.8122,89.4299 97.5032,89.5159" id="Fill-130" fill="#2469A8"></path>
                <path d="M202.9817,90.4246 C200.7677,91.0426 199.0127,92.7976 198.3957,95.0106 C198.3297,95.2456 197.9817,95.2456 197.9167,95.0106 C197.2987,92.7976 195.5447,91.0426 193.3307,90.4246 C193.0957,90.3596 193.0957,90.0116 193.3307,89.9456 C195.5447,89.3286 197.2987,87.5736 197.9167,85.3596 C197.9817,85.1246 198.3297,85.1246 198.3957,85.3596 C199.0127,87.5736 200.7677,89.3286 202.9817,89.9456 C203.2167,90.0116 203.2167,90.3596 202.9817,90.4246" id="Fill-132" fill="#F8B12D"></path>
                <path d="M43.8972,162.7811 C41.6832,163.3981 39.9282,165.1531 39.3112,167.3671 C39.2452,167.6021 38.8972,167.6021 38.8322,167.3671 C38.2142,165.1531 36.4602,163.3981 34.2462,162.7811 C34.0112,162.7151 34.0112,162.3681 34.2462,162.3021 C36.4602,161.6851 38.2142,159.9301 38.8322,157.7161 C38.8972,157.4811 39.2452,157.4811 39.3112,157.7161 C39.9282,159.9301 41.6832,161.6851 43.8972,162.3021 C44.1322,162.3681 44.1322,162.7151 43.8972,162.7811" id="Fill-134" fill="#EB686F"></path>
                <path d="M71.7014,53.8719 C69.5354,54.4759 67.8194,56.1919 67.2154,58.3569 C67.1514,58.5869 66.8114,58.5869 66.7474,58.3569 C66.1434,56.1919 64.4274,54.4759 62.2624,53.8719 C62.0324,53.8079 62.0324,53.4679 62.2624,53.4039 C64.4274,52.7999 66.1434,51.0829 66.7474,48.9179 C66.8114,48.6879 67.1514,48.6879 67.2154,48.9179 C67.8194,51.0829 69.5354,52.7999 71.7014,53.4039 C71.9314,53.4679 71.9314,53.8079 71.7014,53.8719" id="Fill-136" fill="#EB686F"></path>
                <path d="M143.0428,101.386 C142.6608,101.386 142.3518,101.077 142.3518,100.695 L142.3518,96.913 C142.3518,96.531 142.6608,96.222 143.0428,96.222 C143.4248,96.222 143.7338,96.531 143.7338,96.913 L143.7338,100.695 C143.7338,101.077 143.4248,101.386 143.0428,101.386" id="Fill-138" fill="#F8B12D"></path>
                <path d="M145.4104,102.3416 C145.2334,102.3416 145.0564,102.2736 144.9224,102.1386 C144.6524,101.8686 144.6524,101.4316 144.9224,101.1616 L147.5974,98.4876 C147.8674,98.2166 148.3044,98.2166 148.5744,98.4876 C148.8444,98.7566 148.8444,99.1946 148.5744,99.4636 L145.8984,102.1386 C145.7644,102.2736 145.5874,102.3416 145.4104,102.3416" id="Fill-140" fill="#F8B12D"></path>
                <path d="M150.1922,104.6902 L146.4092,104.6902 C146.0272,104.6902 145.7182,104.3812 145.7182,103.9992 C145.7182,103.6172 146.0272,103.3082 146.4092,103.3082 L150.1922,103.3082 C150.5742,103.3082 150.8832,103.6172 150.8832,103.9992 C150.8832,104.3812 150.5742,104.6902 150.1922,104.6902" id="Fill-142" fill="#F8B12D"></path>
                <path d="M148.1297,109.7327 C147.9527,109.7327 147.7757,109.6657 147.6407,109.5307 L144.9657,106.8557 C144.6957,106.5857 144.6957,106.1487 144.9657,105.8787 C145.2357,105.6077 145.6727,105.6077 145.9427,105.8787 L148.6177,108.5537 C148.8877,108.8227 148.8877,109.2607 148.6177,109.5307 C148.4837,109.6657 148.3067,109.7327 148.1297,109.7327" id="Fill-144" fill="#F8B12D"></path>
                <path d="M143.1048,111.8397 C142.7228,111.8397 142.4138,111.5307 142.4138,111.1487 L142.4138,107.3657 C142.4138,106.9847 142.7228,106.6747 143.1048,106.6747 C143.4868,106.6747 143.7958,106.9847 143.7958,107.3657 L143.7958,111.1487 C143.7958,111.5307 143.4868,111.8397 143.1048,111.8397" id="Fill-146" fill="#F8B12D"></path>
                <path d="M138.0628,109.7767 C137.8858,109.7767 137.7088,109.7097 137.5748,109.5737 C137.3048,109.3047 137.3048,108.8667 137.5748,108.5977 L140.2498,105.9227 C140.5198,105.6527 140.9568,105.6527 141.2268,105.9227 C141.4968,106.1927 141.4968,106.6297 141.2268,106.8997 L138.5518,109.5737 C138.4168,109.7097 138.2398,109.7767 138.0628,109.7767" id="Fill-148" fill="#F8B12D"></path>
                <path d="M139.739,104.7527 L135.956,104.7527 C135.574,104.7527 135.265,104.4437 135.265,104.0617 C135.265,103.6797 135.574,103.3707 135.956,103.3707 L139.739,103.3707 C140.121,103.3707 140.43,103.6797 140.43,104.0617 C140.43,104.4437 140.121,104.7527 139.739,104.7527" id="Fill-150" fill="#F8B12D"></path>
                <path d="M140.6936,102.3851 C140.5166,102.3851 140.3396,102.3181 140.2056,102.1831 L137.5306,99.5081 C137.2606,99.2381 137.2606,98.8011 137.5306,98.5311 C137.8006,98.2611 138.2376,98.2611 138.5076,98.5311 L141.1816,101.2061 C141.4516,101.4761 141.4516,101.9131 141.1816,102.1831 C141.0476,102.3181 140.8706,102.3851 140.6936,102.3851" id="Fill-152" fill="#F8B12D"></path>
                <path d="M187.7937,55.8875 C186.2297,55.8875 184.9567,57.1595 184.9567,58.7235 C184.9567,60.2865 186.2297,61.5595 187.7937,61.5595 C189.3567,61.5595 190.6297,60.2865 190.6297,58.7235 C190.6297,57.1595 189.3567,55.8875 187.7937,55.8875 M187.7937,63.1745 C185.3387,63.1745 183.3427,61.1775 183.3427,58.7235 C183.3427,56.2695 185.3387,54.2725 187.7937,54.2725 C190.2477,54.2725 192.2437,56.2695 192.2437,58.7235 C192.2437,61.1775 190.2477,63.1745 187.7937,63.1745" id="Fill-154" fill="#EB686F"></path>
                <path d="M256.0208,141.7073 C254.7398,141.7073 253.6988,142.7493 253.6988,144.0283 C253.6988,145.3083 254.7398,146.3503 256.0208,146.3503 C257.3008,146.3503 258.3418,145.3083 258.3418,144.0283 C258.3418,142.7493 257.3008,141.7073 256.0208,141.7073 M256.0208,147.6723 C254.0118,147.6723 252.3768,146.0383 252.3768,144.0283 C252.3768,142.0193 254.0118,140.3853 256.0208,140.3853 C258.0298,140.3853 259.6638,142.0193 259.6638,144.0283 C259.6638,146.0383 258.0298,147.6723 256.0208,147.6723" id="Fill-156" fill="#2469A8"></path>
                <path d="M158.3811,20.8289 L158.6771,40.2549 L126.5361,40.7449 L126.4361,34.1749 C128.1661,34.1369 129.5341,32.7029 129.5081,30.9839 C129.4821,29.2649 128.0711,27.8729 126.3401,27.8879 L126.2401,21.3189 L158.3811,20.8289 Z" id="Fill-158" fill="#4566A3"></path>
                <path d="M126.7356,34.4505 L126.8266,40.4455 L158.3786,39.9655 L158.0916,21.1275 L126.5386,21.6085 L126.6296,27.6035 C128.3776,27.7375 129.7746,29.1945 129.8016,30.9795 C129.8296,32.7635 128.4776,34.2635 126.7356,34.4505 Z M126.2466,41.0435 L126.1376,33.8875 L126.4296,33.8805 C127.9886,33.8465 129.2376,32.5485 129.2136,30.9885 C129.1896,29.4355 127.9156,28.1825 126.3676,28.1825 L126.3416,28.1825 L126.0496,28.1845 L125.9406,21.0285 L158.6706,20.5295 L158.9766,40.5445 L126.2466,41.0435 Z" id="Fill-160" fill="#818181"></path>
                <path d="M126.5364,41.0389 C126.3754,41.0389 126.2444,40.9099 126.2424,40.7489 L126.1434,34.2599 C126.1354,34.2329 126.1294,34.2049 126.1294,34.1749 C126.1294,34.0129 126.2504,33.8809 126.4124,33.8809 L126.4364,33.8809 C126.5974,33.8809 126.7284,34.0099 126.7304,34.1709 L126.8264,40.4459 L158.3784,39.9659 L158.0914,21.1279 L126.5384,21.6079 L126.6344,27.8839 C126.6364,28.0459 126.5064,28.1809 126.3444,28.1829 L126.3404,28.1829 C126.1794,28.1829 126.0474,28.0539 126.0454,27.8929 L125.9454,21.3229 C125.9434,21.1609 126.0734,21.0269 126.2354,21.0239 L158.3764,20.5349 L158.3814,20.5349 C158.5424,20.5349 158.6734,20.6629 158.6754,20.8239 L158.9724,40.2509 C158.9734,40.3289 158.9434,40.4039 158.8894,40.4599 C158.8344,40.5169 158.7604,40.5479 158.6824,40.5499 L126.5414,41.0389 L126.5364,41.0389 Z" id="Fill-162" fill="#818181"></path>
                <path d="M126.4363,34.4695 C126.2763,34.4695 126.1453,34.3425 126.1423,34.1815 C126.1383,34.0195 126.2673,33.8845 126.4293,33.8805 C127.9893,33.8465 129.2373,32.5485 129.2133,30.9885 C129.1893,29.4355 127.9153,28.1825 126.3673,28.1825 C126.3583,28.1835 126.3503,28.1805 126.3403,28.1825 C126.1793,28.1825 126.0463,28.0525 126.0453,27.8905 C126.0443,27.7195 126.1793,27.5945 126.3673,27.5945 C128.2353,27.5945 129.7733,29.1065 129.8023,30.9795 C129.8313,32.8625 128.3243,34.4275 126.4433,34.4695 L126.4363,34.4695 Z" id="Fill-164" fill="#818181"></path>
                <path d="M126.3401,28.1824 L126.3171,28.1824 C126.1541,28.1824 126.0231,28.0514 126.0231,27.8884 C126.0231,27.7254 126.1541,27.5944 126.3171,27.5944 C126.4791,27.5944 126.6231,27.7254 126.6231,27.8884 C126.6231,28.0514 126.5021,28.1824 126.3401,28.1824" id="Fill-166" fill="#818181"></path>
                <path d="M155.4192,29.6673 L155.4052,29.6673 C155.1592,29.6703 154.9292,29.7703 154.7582,29.9473 C154.5852,30.1243 154.4932,30.3573 154.4972,30.6033 C154.5042,31.1123 154.9232,31.4843 155.4342,31.5113 C155.9422,31.5043 156.3492,31.0843 156.3422,30.5753 C156.3342,30.0713 155.9212,29.6673 155.4192,29.6673 Z M155.4192,32.1133 C154.5902,32.1133 153.9092,31.4443 153.8972,30.6123 C153.8902,30.2063 154.0432,29.8203 154.3252,29.5283 C154.6092,29.2363 154.9892,29.0723 155.3962,29.0653 C156.2372,29.0353 156.9302,29.7253 156.9422,30.5653 C156.9562,31.4053 156.2822,32.1003 155.4432,32.1133 L155.4192,32.1133 Z" id="Fill-168" fill="#818181"></path>
                <path d="M138.1297,22.8651 L138.1147,22.8651 C137.6067,22.8721 137.1997,23.2931 137.2067,23.8011 C137.2137,24.3091 137.6167,24.6931 138.1427,24.7091 C138.3887,24.7061 138.6197,24.6071 138.7907,24.4291 C138.9627,24.2531 139.0537,24.0191 139.0507,23.7731 L139.0507,23.7721 C139.0467,23.5271 138.9487,23.2971 138.7717,23.1251 C138.5977,22.9571 138.3697,22.8651 138.1297,22.8651 Z M138.1297,25.3111 C137.2997,25.3111 136.6187,24.6421 136.6067,23.8101 C136.5917,22.9701 137.2657,22.2771 138.1057,22.2631 C138.5377,22.2691 138.8977,22.4101 139.1897,22.6941 C139.4817,22.9781 139.6467,23.3581 139.6507,23.7641 C139.6577,24.1711 139.5047,24.5561 139.2217,24.8481 C138.9397,25.1401 138.5587,25.3041 138.1517,25.3111 L138.1297,25.3111 Z" id="Fill-170" fill="#818181"></path>
                <path d="M143.5764,22.7816 L143.5624,22.7816 C143.0544,22.7896 142.6464,23.2106 142.6534,23.7186 C142.6584,23.9646 142.7564,24.1946 142.9334,24.3656 C143.1074,24.5336 143.3354,24.6266 143.5754,24.6266 L143.5904,24.6266 C144.0984,24.6186 144.5054,24.1986 144.4984,23.6906 C144.4904,23.1866 144.0774,22.7816 143.5764,22.7816 Z M143.5754,25.2276 C143.1774,25.2276 142.8024,25.0746 142.5154,24.7976 C142.2224,24.5136 142.0584,24.1346 142.0534,23.7276 C142.0414,22.8866 142.7144,22.1936 143.5534,22.1806 L143.5754,22.1806 C144.4054,22.1806 145.0864,22.8486 145.0984,23.6806 C145.1124,24.5206 144.4384,25.2146 143.5994,25.2276 L143.5754,25.2276 Z" id="Fill-172" fill="#818181"></path>
                <path d="M149.0257,22.699 L149.0107,22.699 C148.7637,22.702 148.5337,22.802 148.3617,22.979 C148.1897,23.156 148.0977,23.389 148.1017,23.635 C148.1057,23.882 148.2047,24.112 148.3817,24.283 C148.5557,24.451 148.7827,24.543 149.0237,24.543 L149.0387,24.543 C149.2847,24.54 149.5147,24.44 149.6857,24.263 C149.8587,24.086 149.9507,23.853 149.9467,23.607 C149.9427,23.361 149.8437,23.131 149.6667,22.959 C149.4937,22.791 149.2657,22.699 149.0257,22.699 Z M149.0237,25.145 C148.6257,25.145 148.2497,24.992 147.9637,24.715 C147.6717,24.431 147.5067,24.051 147.5017,23.644 C147.4937,23.237 147.6477,22.852 147.9307,22.56 C148.2137,22.268 148.5947,22.104 149.0017,22.097 C149.4397,22.095 149.7927,22.244 150.0847,22.528 C150.3767,22.811 150.5417,23.191 150.5467,23.598 C150.5537,24.005 150.4007,24.39 150.1177,24.682 C149.8347,24.974 149.4547,25.138 149.0477,25.145 L149.0237,25.145 Z" id="Fill-174" fill="#818181"></path>
                <path d="M138.3435,36.9031 L138.3285,36.9031 C138.0825,36.9061 137.8515,37.0061 137.6795,37.1831 C137.5085,37.3601 137.4165,37.5931 137.4205,37.8391 C137.4235,38.0861 137.5225,38.3161 137.6995,38.4871 C137.8735,38.6551 138.1005,38.7481 138.3415,38.7481 L138.3565,38.7481 C138.6025,38.7441 138.8335,38.6451 139.0045,38.4671 C139.1765,38.2911 139.2675,38.0581 139.2645,37.8121 L139.2645,37.8111 C139.2605,37.5651 139.1625,37.3351 138.9855,37.1641 C138.8115,36.9951 138.5835,36.9031 138.3435,36.9031 Z M138.3415,39.3491 C137.9435,39.3491 137.5675,39.1961 137.2815,38.9181 C136.9895,38.6351 136.8245,38.2541 136.8205,37.8481 C136.8125,37.4411 136.9665,37.0571 137.2485,36.7651 C137.5315,36.4721 137.9125,36.3081 138.3195,36.3021 C138.7115,36.3021 139.1115,36.4481 139.4035,36.7331 C139.6955,37.0161 139.8605,37.3971 139.8645,37.8031 C139.8715,38.2101 139.7185,38.5941 139.4355,38.8861 C139.1535,39.1781 138.7725,39.3421 138.3655,39.3491 L138.3415,39.3491 Z" id="Fill-176" fill="#818181"></path>
                <path d="M143.7918,36.8206 L143.7768,36.8206 C143.2688,36.8276 142.8598,37.2486 142.8668,37.7576 C142.8718,38.0036 142.9708,38.2336 143.1478,38.4046 C143.3208,38.5726 143.5488,38.6646 143.7898,38.6646 L143.8038,38.6646 C144.3128,38.6576 144.7198,38.2376 144.7128,37.7286 C144.7078,37.4826 144.6088,37.2516 144.4318,37.0806 C144.2598,36.9126 144.0318,36.8206 143.7918,36.8206 Z M143.7898,39.2666 C143.3918,39.2666 143.0158,39.1136 142.7298,38.8366 C142.4368,38.5526 142.2728,38.1726 142.2668,37.7656 C142.2548,36.9256 142.9278,36.2326 143.7678,36.2186 C144.1628,36.2146 144.5588,36.3666 144.8508,36.6496 C145.1428,36.9326 145.3068,37.3126 145.3128,37.7186 C145.3268,38.5586 144.6528,39.2536 143.8128,39.2666 L143.7898,39.2666 Z" id="Fill-178" fill="#818181"></path>
                <path d="M149.2386,36.7371 L149.2246,36.7371 C148.9776,36.7401 148.7476,36.8401 148.5756,37.0171 C148.4036,37.1941 148.3116,37.4271 148.3156,37.6741 C148.3196,37.9201 148.4186,38.1501 148.5956,38.3211 C148.7696,38.4891 148.9966,38.5811 149.2376,38.5811 L149.2526,38.5811 C149.7606,38.5741 150.1676,38.1541 150.1606,37.6451 C150.1526,37.1421 149.7396,36.7371 149.2386,36.7371 Z M149.2376,39.1831 C148.8396,39.1831 148.4646,39.0301 148.1766,38.7531 C147.8846,38.4691 147.7206,38.0891 147.7156,37.6831 C147.7076,37.2761 147.8616,36.8901 148.1446,36.5981 C148.4276,36.3061 148.8086,36.1421 149.2156,36.1351 C150.0586,36.1411 150.7486,36.7981 150.7606,37.6361 C150.7746,38.4761 150.1006,39.1701 149.2616,39.1831 L149.2376,39.1831 Z" id="Fill-180" fill="#818181"></path>
                <polygon id="Fill-182" fill="#FEFEFE" points="152.6648 34.7527 134.8288 35.0247 134.7028 26.7827 152.5398 26.5117"></polygon>
                <path d="M135.0008,27.0726 L135.1168,34.7266 L152.3678,34.4636 L152.2508,26.8096 L135.0008,27.0726 Z M134.8288,35.3186 C134.7518,35.3186 134.6788,35.2886 134.6238,35.2356 C134.5688,35.1806 134.5368,35.1066 134.5348,35.0296 L134.4098,26.7876 C134.4078,26.6256 134.5368,26.4926 134.6988,26.4896 L152.5348,26.2176 C152.6078,26.2246 152.6878,26.2466 152.7448,26.3006 C152.7998,26.3546 152.8318,26.4286 152.8328,26.5066 L152.9588,34.7486 C152.9608,34.9106 152.8318,35.0436 152.6698,35.0466 L134.8328,35.3186 L134.8288,35.3186 Z" id="Fill-184" fill="#818181"></path>
                <polygon id="Fill-186" fill="#FEFEFE" points="131.468 21.2391 129.064 21.2761 129.033 19.2641 131.437 19.2281"></polygon>
                <path d="M129.3318,19.5535 L129.3538,20.9775 L131.1708,20.9495 L131.1488,19.5255 L129.3318,19.5535 Z M129.0638,21.5695 C128.9878,21.5695 128.9148,21.5395 128.8588,21.4855 C128.8038,21.4315 128.7718,21.3575 128.7708,21.2805 L128.7408,19.2685 C128.7388,19.1065 128.8678,18.9735 129.0298,18.9705 L131.4328,18.9335 L131.4368,18.9335 C131.5968,18.9335 131.7278,19.0625 131.7308,19.2225 L131.7618,21.2345 C131.7628,21.3125 131.7328,21.3875 131.6788,21.4435 C131.6248,21.4995 131.5508,21.5325 131.4728,21.5325 L129.0688,21.5695 L129.0638,21.5695 Z" id="Fill-188" fill="#818181"></path>
                <path d="M130.2356,19.2459 L130.2096,17.5289" id="Fill-190" fill="#FEFEFE"></path>
                <path d="M130.2356,19.5399 C130.0756,19.5399 129.9446,19.4109 129.9426,19.2499 L129.9156,17.5339 C129.9136,17.3719 130.0426,17.2379 130.2046,17.2349 L130.2096,17.2349 C130.3686,17.2349 130.5006,17.3639 130.5026,17.5249 L130.5286,19.2409 C130.5306,19.4039 130.4026,19.5369 130.2406,19.5399 L130.2356,19.5399 Z" id="Fill-192" fill="#818181"></path>
                <polygon id="Fill-194" fill="#FEFEFE" points="136.283 21.1653 133.879 21.2023 133.848 19.1903 136.252 19.1543"></polygon>
                <path d="M134.1463,19.4798 L134.1683,20.9048 L135.9853,20.8758 L135.9633,19.4528 L134.1463,19.4798 Z M133.8793,21.4968 C133.7203,21.4968 133.5883,21.3678 133.5863,21.2068 L133.5553,19.1948 C133.5543,19.1168 133.5843,19.0428 133.6383,18.9858 C133.6923,18.9298 133.7663,18.8978 133.8443,18.8968 L136.2473,18.8608 L136.2513,18.8608 C136.4123,18.8608 136.5423,18.9898 136.5453,19.1498 L136.5763,21.1608 C136.5773,21.2388 136.5473,21.3138 136.4933,21.3708 C136.4393,21.4258 136.3653,21.4588 136.2873,21.4588 L133.8843,21.4968 L133.8793,21.4968 Z" id="Fill-196" fill="#818181"></path>
                <path d="M135.0506,19.1727 L135.0246,17.4557" id="Fill-198" fill="#FEFEFE"></path>
                <path d="M135.0501,19.4666 C134.8901,19.4666 134.7591,19.3376 134.7571,19.1776 L134.7311,17.4606 C134.7281,17.2986 134.8571,17.1646 135.0191,17.1616 L135.0241,17.1616 C135.1831,17.1616 135.3151,17.2906 135.3171,17.4506 L135.3431,19.1686 C135.3451,19.3306 135.2171,19.4636 135.0551,19.4666 L135.0501,19.4666 Z" id="Fill-200" fill="#818181"></path>
                <polygon id="Fill-202" fill="#FEFEFE" points="141.0979 21.0921 138.6939 21.1291 138.6629 19.1171 141.0669 19.0811"></polygon>
                <path d="M138.9607,19.407 L138.9827,20.831 L140.7997,20.803 L140.7777,19.379 L138.9607,19.407 Z M138.6937,21.423 C138.5347,21.423 138.4027,21.294 138.4007,21.134 L138.3697,19.122 C138.3687,19.044 138.3987,18.97 138.4527,18.913 C138.5067,18.857 138.5807,18.825 138.6587,18.824 L141.0627,18.787 C141.1277,18.79 141.2157,18.816 141.2727,18.87 C141.3277,18.925 141.3597,18.999 141.3607,19.076 L141.3907,21.087 C141.3927,21.249 141.2637,21.383 141.1017,21.386 L138.6987,21.423 L138.6937,21.423 Z" id="Fill-204" fill="#818181"></path>
                <path d="M139.8655,19.0994 L139.8395,17.3824" id="Fill-206" fill="#FEFEFE"></path>
                <path d="M139.8645,19.3929 C139.7045,19.3929 139.5735,19.2649 139.5715,19.1039 L139.5465,17.3869 C139.5435,17.2249 139.6725,17.0919 139.8345,17.0889 L139.8395,17.0889 C139.9995,17.0889 140.1305,17.2179 140.1325,17.3779 L140.1575,19.0949 C140.1605,19.2569 140.0315,19.3899 139.8695,19.3929 L139.8645,19.3929 Z" id="Fill-208" fill="#818181"></path>
                <polygon id="Fill-210" fill="#FEFEFE" points="145.9124 21.0189 143.5094 21.0559 143.4784 19.0439 145.8824 19.0079"></polygon>
                <path d="M143.7766,19.3333 L143.7986,20.7583 L145.6146,20.7293 L145.5936,19.3053 L143.7766,19.3333 Z M143.5086,21.3493 C143.4326,21.3493 143.3596,21.3193 143.3036,21.2673 C143.2486,21.2123 143.2166,21.1383 143.2156,21.0603 L143.1856,19.0483 C143.1836,18.8863 143.3126,18.7533 143.4746,18.7503 L145.8776,18.7143 L145.8816,18.7143 C146.0416,18.7143 146.1726,18.8423 146.1746,19.0033 L146.2066,21.0143 C146.2076,21.0923 146.1776,21.1673 146.1236,21.2233 C146.0696,21.2793 145.9956,21.3123 145.9176,21.3123 L143.5136,21.3493 L143.5086,21.3493 Z" id="Fill-212" fill="#818181"></path>
                <path d="M144.68,19.0257 L144.654,17.3087" id="Fill-214" fill="#FEFEFE"></path>
                <path d="M144.6805,19.3196 C144.5205,19.3196 144.3895,19.1906 144.3875,19.0296 L144.3605,17.3136 C144.3585,17.1516 144.4875,17.0176 144.6495,17.0146 L144.6545,17.0146 C144.8135,17.0146 144.9455,17.1436 144.9475,17.3046 L144.9735,19.0216 C144.9755,19.1836 144.8475,19.3166 144.6845,19.3196 L144.6805,19.3196 Z" id="Fill-216" fill="#818181"></path>
                <polygon id="Fill-218" fill="#FEFEFE" points="150.7273 20.9456 148.3233 20.9826 148.2933 18.9706 150.6973 18.9346"></polygon>
                <path d="M148.5911,19.2601 L148.6131,20.6841 L150.4301,20.6561 L150.4081,19.2321 L148.5911,19.2601 Z M148.3231,21.2761 C148.2471,21.2761 148.1741,21.2461 148.1181,21.1931 C148.0631,21.1381 148.0311,21.0641 148.0301,20.9871 L148.0001,18.9751 C147.9981,18.8131 148.1271,18.6801 148.2891,18.6771 L150.6921,18.6401 L150.6961,18.6401 C150.8561,18.6401 150.9871,18.7691 150.9891,18.9291 L151.0211,20.9411 C151.0221,21.0191 150.9921,21.0931 150.9381,21.1501 C150.8841,21.2061 150.8101,21.2381 150.7321,21.2391 L148.3281,21.2761 L148.3231,21.2761 Z" id="Fill-220" fill="#818181"></path>
                <path d="M149.4949,18.9525 L149.4689,17.2355" id="Fill-222" fill="#FEFEFE"></path>
                <path d="M149.4949,19.2464 C149.3349,19.2464 149.2039,19.1174 149.2019,18.9574 L149.1749,17.2404 C149.1729,17.0784 149.3019,16.9454 149.4639,16.9424 C149.6189,16.9574 149.7599,17.0694 149.7619,17.2314 L149.7879,18.9484 C149.7899,19.1104 149.6619,19.2434 149.4989,19.2464 L149.4949,19.2464 Z" id="Fill-224" fill="#818181"></path>
                <polygon id="Fill-226" fill="#FEFEFE" points="155.5423 20.8724 153.1383 20.9094 153.1083 18.8974 155.5113 18.8604"></polygon>
                <path d="M153.4055,19.1868 L153.4275,20.6108 L155.2445,20.5828 L155.2225,19.1588 L153.4055,19.1868 Z M153.1385,21.2028 C152.9785,21.2028 152.8475,21.0738 152.8455,20.9138 L152.8145,18.9018 C152.8135,18.8238 152.8435,18.7498 152.8975,18.6928 C152.9515,18.6368 153.0255,18.6048 153.1035,18.6038 L155.5075,18.5668 C155.6125,18.5598 155.6615,18.5958 155.7175,18.6498 C155.7725,18.7048 155.8045,18.7788 155.8055,18.8558 L155.8355,20.8678 C155.8375,21.0298 155.7085,21.1638 155.5465,21.1658 L153.1435,21.2028 L153.1385,21.2028 Z" id="Fill-228" fill="#818181"></path>
                <path d="M154.3098,18.8792 L154.2838,17.1622" id="Fill-230" fill="#FEFEFE"></path>
                <path d="M154.3094,19.1727 C154.1494,19.1727 154.0184,19.0447 154.0164,18.8837 L153.9914,17.1667 C153.9884,17.0047 154.1174,16.8717 154.2794,16.8687 L154.2844,16.8687 C154.4444,16.8687 154.5754,16.9977 154.5774,17.1577 L154.6024,18.8747 C154.6044,19.0367 154.4764,19.1697 154.3144,19.1727 L154.3094,19.1727 Z" id="Fill-232" fill="#818181"></path>
                <polygon id="Fill-234" fill="#FEFEFE" points="131.7639 40.6649 129.3599 40.7019 129.3909 42.7129 131.7949 42.6759"></polygon>
                <path d="M129.6585,40.9905 L129.6805,42.4155 L131.4975,42.3865 L131.4755,40.9625 L129.6585,40.9905 Z M129.3905,43.0065 C129.3145,43.0065 129.2415,42.9765 129.1855,42.9245 C129.1305,42.8695 129.0985,42.7955 129.0975,42.7175 L129.0675,40.7055 C129.0655,40.5435 129.1945,40.4105 129.3565,40.4075 L131.7595,40.3715 C131.9105,40.3805 132.0545,40.4985 132.0565,40.6605 L132.0885,42.6715 C132.0895,42.7495 132.0595,42.8245 132.0055,42.8805 C131.9515,42.9365 131.8775,42.9695 131.7995,42.9695 L129.3955,43.0065 L129.3905,43.0065 Z" id="Fill-236" fill="#818181"></path>
                <path d="M130.5926,42.6946 L130.6186,44.4116" id="Fill-238" fill="#FEFEFE"></path>
                <path d="M130.6184,44.7054 C130.4584,44.7054 130.3274,44.5764 130.3254,44.4154 L130.3004,42.6994 C130.2974,42.5374 130.4264,42.4034 130.5884,42.4004 L130.5934,42.4004 C130.7534,42.4004 130.8844,42.5294 130.8864,42.6904 L130.9114,44.4064 C130.9144,44.5694 130.7854,44.7024 130.6234,44.7054 L130.6184,44.7054 Z" id="Fill-240" fill="#818181"></path>
                <polygon id="Fill-242" fill="#FEFEFE" points="136.5789 40.5916 134.1749 40.6286 134.2059 42.6396 136.6099 42.6026"></polygon>
                <path d="M134.4729,40.9173 L134.4949,42.3413 L136.3119,42.3133 L136.2899,40.8893 L134.4729,40.9173 Z M134.2059,42.9333 C134.0459,42.9333 133.9149,42.8043 133.9129,42.6443 L133.8819,40.6333 C133.8809,40.5543 133.9109,40.4803 133.9649,40.4233 C134.0189,40.3683 134.0929,40.3353 134.1709,40.3343 L136.5739,40.2973 C136.7409,40.3003 136.8689,40.4243 136.8709,40.5863 L136.9029,42.5983 C136.9039,42.6763 136.8739,42.7503 136.8199,42.8073 C136.7659,42.8633 136.6919,42.8953 136.6139,42.8963 L134.2109,42.9333 L134.2059,42.9333 Z" id="Fill-244" fill="#818181"></path>
                <path d="M135.4075,42.6209 L135.4335,44.3379" id="Fill-246" fill="#FEFEFE"></path>
                <path d="M135.4344,44.6317 C135.2744,44.6317 135.1434,44.5027 135.1414,44.3427 L135.1144,42.6257 C135.1124,42.4637 135.2414,42.3297 135.4034,42.3277 L135.4084,42.3277 C135.5674,42.3277 135.6984,42.4557 135.7014,42.6167 L135.7274,44.3337 C135.7294,44.4957 135.6014,44.6287 135.4384,44.6317 L135.4344,44.6317 Z" id="Fill-248" fill="#818181"></path>
                <polygon id="Fill-250" fill="#FEFEFE" points="141.3938 40.5184 138.9898 40.5554 139.0208 42.5664 141.4238 42.5294"></polygon>
                <path d="M139.2874,40.8441 L139.3094,42.2681 L141.1264,42.2401 L141.1044,40.8161 L139.2874,40.8441 Z M139.0204,42.8601 C138.8614,42.8601 138.7294,42.7311 138.7274,42.5711 L138.6964,40.5591 C138.6954,40.4811 138.7254,40.4071 138.7794,40.3501 C138.8334,40.2941 138.9074,40.2621 138.9854,40.2611 L141.3894,40.2241 C141.4364,40.2081 141.5424,40.2531 141.5994,40.3071 C141.6544,40.3621 141.6864,40.4361 141.6874,40.5131 L141.7174,42.5251 C141.7194,42.6871 141.5904,42.8211 141.4284,42.8231 L139.0254,42.8601 L139.0204,42.8601 Z" id="Fill-252" fill="#818181"></path>
                <path d="M140.2224,42.5477 L140.2484,44.2647" id="Fill-254" fill="#FEFEFE"></path>
                <path d="M140.2488,44.5584 C140.0888,44.5584 139.9578,44.4304 139.9558,44.2694 L139.9288,42.5524 C139.9268,42.3904 140.0558,42.2574 140.2178,42.2544 L140.2228,42.2544 C140.3818,42.2544 140.5138,42.3834 140.5158,42.5434 L140.5418,44.2604 C140.5438,44.4224 140.4158,44.5554 140.2528,44.5584 L140.2488,44.5584 Z" id="Fill-256" fill="#818181"></path>
                <polygon id="Fill-258" fill="#FEFEFE" points="146.2088 40.4446 143.8048 40.4816 143.8348 42.4926 146.2388 42.4566"></polygon>
                <path d="M144.1033,40.7708 L144.1243,42.1948 L145.9413,42.1668 L145.9203,40.7428 L144.1033,40.7708 Z M143.8353,42.7868 C143.7593,42.7868 143.6863,42.7568 143.6303,42.7038 C143.5753,42.6488 143.5433,42.5748 143.5413,42.4978 L143.5123,40.4858 C143.5103,40.3238 143.6383,40.1908 143.8003,40.1878 L146.2043,40.1508 C146.3993,40.1388 146.4983,40.2778 146.5013,40.4398 L146.5333,42.4518 C146.5343,42.5298 146.5043,42.6038 146.4503,42.6608 C146.3953,42.7168 146.3223,42.7488 146.2443,42.7498 L143.8393,42.7868 L143.8353,42.7868 Z" id="Fill-260" fill="#818181"></path>
                <path d="M145.0374,42.4744 L145.0634,44.1914" id="Fill-262" fill="#FEFEFE"></path>
                <path d="M145.0633,44.4852 C144.9033,44.4852 144.7723,44.3562 144.7703,44.1952 L144.7433,42.4792 C144.7413,42.3172 144.8703,42.1832 145.0323,42.1802 L145.0373,42.1802 C145.1963,42.1802 145.3283,42.3092 145.3303,42.4702 L145.3563,44.1872 C145.3583,44.3492 145.2303,44.4822 145.0673,44.4852 L145.0633,44.4852 Z" id="Fill-264" fill="#818181"></path>
                <polygon id="Fill-266" fill="#FEFEFE" points="151.0232 40.3714 148.6202 40.4084 148.6502 42.4194 151.0542 42.3824"></polygon>
                <path d="M148.9178,40.6971 L148.9398,42.1211 L150.7558,42.0941 L150.7348,40.6691 L148.9178,40.6971 Z M148.6498,42.7131 C148.5738,42.7131 148.5008,42.6831 148.4448,42.6301 C148.3898,42.5751 148.3578,42.5011 148.3568,42.4241 L148.3268,40.4131 C148.3248,40.2511 148.4528,40.1171 148.6148,40.1141 L151.0188,40.0771 L151.0228,40.0771 C151.1828,40.0771 151.3138,40.2061 151.3158,40.3661 L151.3478,42.3781 C151.3488,42.4571 151.3188,42.5311 151.2648,42.5881 C151.2108,42.6431 151.1368,42.6761 151.0588,42.6761 L148.6548,42.7131 L148.6498,42.7131 Z" id="Fill-268" fill="#818181"></path>
                <path d="M149.8523,42.4012 L149.8783,44.1182" id="Fill-270" fill="#FEFEFE"></path>
                <path d="M149.8777,44.4119 C149.7177,44.4119 149.5867,44.2829 149.5847,44.1229 L149.5597,42.4059 C149.5567,42.2439 149.6857,42.1099 149.8477,42.1069 L149.8527,42.1069 C150.0127,42.1069 150.1437,42.2359 150.1457,42.3959 L150.1707,44.1139 C150.1727,44.2759 150.0447,44.4089 149.8827,44.4119 L149.8777,44.4119 Z" id="Fill-272" fill="#818181"></path>
                <polygon id="Fill-274" fill="#FEFEFE" points="155.8382 40.2982 153.4342 40.3352 153.4652 42.3462 155.8692 42.3092"></polygon>
                <path d="M153.7322,40.6238 L153.7542,42.0488 L155.5712,42.0198 L155.5492,40.5958 L153.7322,40.6238 Z M153.4652,42.6398 C153.3052,42.6398 153.1742,42.5108 153.1722,42.3508 L153.1412,40.3388 C153.1402,40.2608 153.1702,40.1868 153.2242,40.1298 C153.2782,40.0738 153.3512,40.0418 153.4302,40.0408 L155.8342,40.0048 C155.9202,40.0158 155.9872,40.0328 156.0432,40.0878 C156.0982,40.1418 156.1302,40.2158 156.1322,40.2938 L156.1622,42.3048 C156.1642,42.4668 156.0352,42.6008 155.8732,42.6028 L153.4702,42.6398 L153.4652,42.6398 Z" id="Fill-276" fill="#818181"></path>
                <path d="M154.6673,42.3279 L154.6933,44.0449" id="Fill-278" fill="#FEFEFE"></path>
                <path d="M154.6936,44.3382 C154.5336,44.3382 154.4026,44.2102 154.4006,44.0492 L154.3736,42.3322 C154.3716,42.1702 154.5006,42.0372 154.6626,42.0342 L154.6676,42.0342 C154.8266,42.0342 154.9576,42.1632 154.9606,42.3232 L154.9866,44.0402 C154.9886,44.2022 154.8606,44.3352 154.6976,44.3382 L154.6936,44.3382 Z" id="Fill-280" fill="#818181"></path>
                <polygon id="Fill-282" fill="#CDCDCD" points="54.3538 91.0828 54.3538 91.3898 22.6968 96.2638 22.6968 87.7458 54.3538 82.8718"></polygon>
                <path d="M54.3538,82.8719 L54.3538,91.3899 L22.6968,96.2639 L22.6968,93.4289 L46.0228,89.8319 C48.9128,89.3869 51.0438,86.9009 51.0438,83.9779 L51.0438,83.3739 L54.3538,82.8719 Z" id="Fill-284" fill="#A7A7A8"></path>
                <polygon id="Fill-286" fill="#FEFEFE" points="54.3538 82.5506 54.3538 82.8716 22.6968 87.7456 6.8748 80.8886 18.4098 79.0036 38.5188 75.7086"></polygon>
                <polygon id="Fill-288" fill="#E7E6E6" points="22.6966 87.7454 22.6966 96.2634 6.8756 89.5604 6.8756 80.8894"></polygon>
                <path d="M22.6966,88.0399 C22.5526,88.0399 22.4276,87.9359 22.4056,87.7899 C22.3806,87.6289 22.4906,87.4789 22.6516,87.4549 L54.3086,82.5819 C54.4656,82.5519 54.6206,82.6659 54.6446,82.8279 C54.6696,82.9879 54.5596,83.1389 54.3986,83.1629 L22.7416,88.0369 C22.7266,88.0389 22.7116,88.0399 22.6966,88.0399" id="Fill-290" fill="#818181"></path>
                <path d="M22.6966,96.5579 C22.5526,96.5579 22.4276,96.4539 22.4056,96.3079 C22.3806,96.1469 22.4906,95.9969 22.6516,95.9729 L54.0596,91.1379 L54.0596,91.0829 C54.0596,90.9199 54.1916,90.7879 54.3536,90.7879 C54.5156,90.7879 54.6486,90.9199 54.6486,91.0829 L54.6486,91.3909 C54.6486,91.5359 54.5426,91.6599 54.3986,91.6819 L22.7416,96.5549 C22.7266,96.5569 22.7116,96.5579 22.6966,96.5579" id="Fill-292" fill="#818181"></path>
                <polygon id="Fill-294" fill="#F8B12D" points="28.2825 84.8572 16.5175 79.3132 31.9875 76.7782 44.1085 82.2392"></polygon>
                <path d="M17.4993,79.4505 L28.3253,84.5525 L43.1003,82.1075 L31.9473,77.0835 L17.4993,79.4505 Z M28.2403,85.1625 L15.5353,79.1765 L32.0273,76.4735 L45.1163,82.3705 L28.2403,85.1625 Z" id="Fill-296" fill="#818181"></path>
                <path d="M6.8753,81.1834 C6.7323,81.1834 6.6083,81.0814 6.5843,80.9364 C6.5593,80.7764 6.6673,80.6244 6.8283,80.5994 L38.4713,75.4184 C38.6383,75.3874 38.7833,75.5004 38.8103,75.6614 C38.8343,75.8214 38.7273,75.9734 38.5653,75.9984 L6.9223,81.1794 C6.9063,81.1824 6.8903,81.1834 6.8753,81.1834" id="Fill-298" fill="#818181"></path>
                <path d="M7.1697,89.366 L22.4017,95.819 L22.4017,87.938 L7.1697,81.338 L7.1697,89.366 Z M22.6967,96.558 C22.6577,96.558 22.6187,96.551 22.5817,96.534 L6.7607,89.832 C6.6507,89.786 6.5807,89.679 6.5807,89.561 L6.5807,80.889 C6.5807,80.79 6.6307,80.698 6.7147,80.643 C6.7957,80.587 6.9007,80.58 6.9927,80.619 L22.8137,87.475 C22.9207,87.522 22.9907,87.628 22.9907,87.745 L22.9907,96.263 C22.9907,96.363 22.9407,96.454 22.8587,96.509 C22.8107,96.541 22.7537,96.558 22.6967,96.558 Z" id="Fill-300" fill="#818181"></path>
                <path d="M54.3538,91.3773 C54.1918,91.3773 54.0598,91.2453 54.0598,91.0833 L54.0598,82.7443 L38.4018,75.9793 C38.2528,75.9143 38.1848,75.7403 38.2488,75.5913 C38.3128,75.4423 38.4808,75.3713 38.6358,75.4383 L54.4708,82.2803 C54.5778,82.3273 54.6478,82.4333 54.6478,82.5503 L54.6478,91.0833 C54.6478,91.2453 54.5158,91.3773 54.3538,91.3773" id="Fill-302" fill="#818181"></path>
                <path d="M13.1975,88.5399 C12.5125,89.5499 11.0515,89.7539 9.9345,88.9969 C8.8185,88.2399 8.4675,86.8069 9.1525,85.7959 C9.8375,84.7869 11.2985,84.5819 12.4155,85.3389 C13.5325,86.0969 13.8825,87.5299 13.1975,88.5399" id="Fill-304" fill="#A7A7A8"></path>
                <path d="M10.9588,85.1761 C10.8598,85.1761 10.7608,85.1831 10.6628,85.1961 C10.1308,85.2711 9.6808,85.5431 9.3968,85.9611 C9.1128,86.3801 9.0268,86.8991 9.1548,87.4221 C9.2848,87.9551 9.6198,88.4271 10.1008,88.7531 C10.5808,89.0781 11.1458,89.2141 11.6878,89.1401 C12.2198,89.0651 12.6698,88.7931 12.9538,88.3751 C13.2378,87.9561 13.3238,87.4371 13.1958,86.9141 C13.0658,86.3811 12.7308,85.9081 12.2498,85.5831 C11.8568,85.3161 11.4078,85.1761 10.9588,85.1761 M11.3918,89.7491 C10.8248,89.7491 10.2608,89.5731 9.7698,89.2401 C9.1688,88.8331 8.7478,88.2371 8.5818,87.5611 C8.4158,86.8751 8.5308,86.1901 8.9098,85.6311 C9.2878,85.0731 9.8808,84.7111 10.5818,84.6131 C11.2748,84.5161 11.9808,84.6881 12.5808,85.0951 C13.1818,85.5031 13.6038,86.0991 13.7688,86.7751 C13.9358,87.4611 13.8198,88.1471 13.4408,88.7051 C13.0628,89.2631 12.4698,89.6251 11.7698,89.7231 C11.6438,89.7401 11.5178,89.7491 11.3918,89.7491" id="Fill-306" fill="#818181"></path>
                <path d="M19.6223,91.3563 C18.9373,92.3663 17.4763,92.5713 16.3593,91.8133 C15.2423,91.0563 14.8923,89.6233 15.5773,88.6133 C16.2623,87.6033 17.7233,87.3983 18.8403,88.1553 C19.9563,88.9133 20.3073,90.3463 19.6223,91.3563" id="Fill-308" fill="#A7A7A8"></path>
                <path d="M17.3831,87.9925 C17.2841,87.9925 17.1851,87.9995 17.0871,88.0125 C16.5551,88.0875 16.1051,88.3595 15.8211,88.7775 C15.5371,89.1975 15.4511,89.7155 15.5791,90.2385 C15.7091,90.7715 16.0451,91.2445 16.5251,91.5695 C17.0051,91.8955 17.5711,92.0295 18.1121,91.9565 C18.6441,91.8825 19.0941,91.6105 19.3781,91.1915 C19.6621,90.7725 19.7481,90.2535 19.6201,89.7315 C19.4901,89.1975 19.1551,88.7245 18.6741,88.3995 C18.2811,88.1325 17.8321,87.9925 17.3831,87.9925 M17.8161,92.5655 C17.2501,92.5655 16.6851,92.3905 16.1941,92.0575 C15.5931,91.6495 15.1721,91.0535 15.0061,90.3775 C14.8401,89.6915 14.9551,89.0065 15.3341,88.4485 C15.7121,87.8895 16.3051,87.5285 17.0061,87.4295 C17.6981,87.3325 18.4051,87.5055 19.0051,87.9115 C19.6061,88.3195 20.0281,88.9155 20.1931,89.5915 C20.3601,90.2775 20.2441,90.9635 19.8651,91.5215 C19.4871,92.0795 18.8941,92.4415 18.1941,92.5395 C18.0681,92.5565 17.9421,92.5655 17.8161,92.5655" id="Fill-310" fill="#818181"></path>
                <path d="M18.7879,90.7908 C18.3859,91.3838 17.5269,91.5038 16.8709,91.0598 C16.2149,90.6138 16.0089,89.7718 16.4119,89.1788 C16.8139,88.5848 17.6719,88.4648 18.3289,88.9098 C18.9849,89.3548 19.1909,90.1968 18.7879,90.7908" id="Fill-312" fill="#E7E6E6"></path>
                <path d="M17.4724,88.9354 C17.4194,88.9354 17.3684,88.9394 17.3154,88.9464 C17.0364,88.9854 16.8024,89.1264 16.6554,89.3434 C16.5084,89.5604 16.4634,89.8314 16.5294,90.1044 C16.5994,90.3894 16.7794,90.6414 17.0364,90.8154 C17.2944,90.9914 17.5974,91.0624 17.8834,91.0224 C18.1624,90.9834 18.3974,90.8424 18.5444,90.6254 C18.6914,90.4084 18.7364,90.1384 18.6694,89.8644 C18.5994,89.5804 18.4204,89.3284 18.1624,89.1544 C17.9514,89.0104 17.7114,88.9354 17.4724,88.9354 M17.7264,91.6234 C17.3704,91.6234 17.0144,91.5124 16.7054,91.3034 C16.3284,91.0464 16.0624,90.6704 15.9584,90.2444 C15.8514,89.8074 15.9264,89.3704 16.1674,89.0134 C16.4104,88.6564 16.7884,88.4264 17.2344,88.3634 C17.6644,88.3014 18.1154,88.4104 18.4934,88.6664 C18.8704,88.9224 19.1364,89.2984 19.2414,89.7254 C19.3474,90.1624 19.2734,90.5994 19.0324,90.9564 C18.7894,91.3124 18.4104,91.5434 17.9664,91.6054 C17.8864,91.6174 17.8054,91.6234 17.7264,91.6234" id="Fill-314" fill="#818181"></path>
                <path d="M12.3636,87.9739 C11.9616,88.5679 11.1026,88.6879 10.4466,88.2429 C9.7906,87.7979 9.5846,86.9549 9.9866,86.3619 C10.3896,85.7679 11.2476,85.6479 11.9046,86.0939 C12.5606,86.5379 12.7666,87.3809 12.3636,87.9739" id="Fill-316" fill="#E7E6E6"></path>
                <path d="M11.0462,86.1194 C10.7182,86.1194 10.4122,86.2594 10.2312,86.5274 C10.0842,86.7444 10.0392,87.0144 10.1052,87.2884 C10.1752,87.5724 10.3552,87.8244 10.6122,87.9984 C10.8702,88.1734 11.1682,88.2464 11.4602,88.2064 C11.7382,88.1674 11.9732,88.0254 12.1202,87.8084 C12.2672,87.5914 12.3122,87.3214 12.2452,87.0474 C12.1752,86.7644 11.9962,86.5114 11.7382,86.3374 C11.5222,86.1904 11.2782,86.1194 11.0462,86.1194 M11.3022,88.8064 C10.9462,88.8064 10.5902,88.6954 10.2812,88.4864 C9.9042,88.2294 9.6382,87.8534 9.5342,87.4284 C9.4272,86.9914 9.5022,86.5534 9.7432,86.1974 C10.2372,85.4684 11.2802,85.3164 12.0692,85.8494 C12.4462,86.1064 12.7122,86.4824 12.8172,86.9084 C12.9232,87.3454 12.8492,87.7824 12.6082,88.1394 C12.3652,88.4964 11.9862,88.7264 11.5402,88.7894 C11.4622,88.8004 11.3812,88.8064 11.3022,88.8064" id="Fill-318" fill="#818181"></path>
                <path d="M263.0515,77.4061 L263.0515,87.9321 L245.5545,87.9321 L245.5545,77.4061 C245.5545,72.5781 249.4755,68.6571 254.3025,68.6571 C256.7165,68.6571 258.9065,69.6351 260.4845,71.2241 C262.0735,72.8021 263.0515,74.9921 263.0515,77.4061" id="Fill-320" fill="#E45F62"></path>
                <path d="M245.8484,87.6385 L262.7574,87.6385 L262.7574,77.4065 C262.7574,75.1415 261.8764,73.0205 260.2774,71.4325 C258.6884,69.8325 256.5664,68.9515 254.3024,68.9515 C249.6404,68.9515 245.8484,72.7445 245.8484,77.4065 L245.8484,87.6385 Z M263.3464,88.2265 L245.2604,88.2265 L245.2604,77.4065 C245.2604,72.4195 249.3164,68.3635 254.3024,68.3635 C256.7254,68.3635 258.9944,69.3055 260.6934,71.0165 C262.4034,72.7135 263.3464,74.9835 263.3464,77.4065 L263.3464,88.2265 Z" id="Fill-322" fill="#818181"></path>
                <path d="M261.0774,72.3553 C259.7584,71.5543 258.3064,70.8643 256.6584,70.8643 C251.8304,70.8643 247.9094,74.7853 247.9094,79.6133 L247.8494,87.9323 L245.554399,87.9323 L245.5544,78.5523 C245.5524,71.8313 249.4754,68.6573 254.3034,68.6573 C256.7164,68.6573 258.5794,69.6433 260.1574,71.2333 C260.4054,71.4683 260.8774,72.0843 261.0774,72.3553" id="Fill-324" fill="#FEFEFE"></path>
                <path d="M245.8484,87.6385 L262.7574,87.6385 L262.7574,77.4065 C262.7574,75.1415 261.8764,73.0205 260.2774,71.4325 C258.6884,69.8325 256.5664,68.9515 254.3024,68.9515 C249.6404,68.9515 245.8484,72.7445 245.8484,77.4065 L245.8484,87.6385 Z M263.0524,88.2265 L245.5544,88.2265 C245.3924,88.2265 245.2604,88.0955 245.2604,87.9325 L245.2604,77.4065 C245.2604,72.4195 249.3164,68.3635 254.3024,68.3635 C256.7254,68.3635 258.9944,69.3055 260.6934,71.0165 C262.4034,72.7135 263.3464,74.9835 263.3464,77.4065 L263.3464,87.9325 C263.3464,88.0955 263.2144,88.2265 263.0524,88.2265 Z" id="Fill-326" fill="#818181"></path>
                <path d="M250.4759,88.2269 C250.3139,88.2269 250.1819,88.0959 250.1819,87.9329 L250.1819,78.9549 C250.1819,78.7919 250.3139,78.6599 250.4759,78.6599 C250.6379,78.6599 250.7699,78.7919 250.7699,78.9549 L250.7699,87.9329 C250.7699,88.0959 250.6379,88.2269 250.4759,88.2269" id="Fill-328" fill="#818181"></path>
                <path d="M250.7703,81.6038 L256.6573,81.6038 C257.3073,81.6038 257.8343,81.0758 257.8343,80.4258 C257.8343,79.7768 257.3073,79.2488 256.6573,79.2488 L250.7703,79.2488 L250.7703,81.6038 Z M256.6573,82.1928 L250.4763,82.1928 C250.3133,82.1928 250.1813,82.0608 250.1813,81.8978 L250.1813,78.9548 C250.1813,78.7918 250.3133,78.6598 250.4763,78.6598 L256.6573,78.6598 C257.6313,78.6598 258.4233,79.4528 258.4233,80.4258 C258.4233,81.3998 257.6313,82.1928 256.6573,82.1928 Z" id="Fill-330" fill="#818181"></path>
                <mask id="mask-4" fill="white">
                    <use xlink:href="#path-3"></use>
                </mask>
                <g id="Clip-333"></g>
                <polygon id="Fill-332" fill="#E7E6E6" mask="url(#mask-4)" points="243.774 90.44 264.831 90.44 264.831 87.932 243.774 87.932"></polygon>
                <path d="M244.069,90.146 L264.537,90.146 L264.537,88.227 L244.069,88.227 L244.069,90.146 Z M264.831,90.735 L243.774,90.735 C243.612,90.735 243.48,90.603 243.48,90.44 L243.48,87.932 C243.48,87.77 243.612,87.638 243.774,87.638 L264.831,87.638 C264.993,87.638 265.125,87.77 265.125,87.932 L265.125,90.44 C265.125,90.603 264.993,90.735 264.831,90.735 Z" id="Fill-334" fill="#818181" mask="url(#mask-4)"></path>
                <path d="M249.5926,103.5467 C249.4366,103.5467 249.3096,103.4207 249.3096,103.2637 L249.3096,90.7237 L245.8376,90.7237 L245.8376,103.2637 C245.8376,103.4207 245.7106,103.5467 245.5546,103.5467 C245.3976,103.5467 245.2716,103.4207 245.2716,103.2637 L245.2716,90.4407 C245.2716,90.2837 245.3976,90.1577 245.5546,90.1577 L249.5926,90.1577 C249.7486,90.1577 249.8756,90.2837 249.8756,90.4407 L249.8756,103.2637 C249.8756,103.4207 249.7486,103.5467 249.5926,103.5467" id="Fill-335" fill="#818181" mask="url(#mask-4)"></path>
                <path d="M263.052,103.5467 C262.895,103.5467 262.769,103.4207 262.769,103.2637 L262.769,90.7237 L259.295,90.7237 L259.295,103.2637 C259.295,103.4207 259.169,103.5467 259.012,103.5467 C258.856,103.5467 258.729,103.4207 258.729,103.2637 L258.729,90.4407 C258.729,90.2837 258.856,90.1577 259.012,90.1577 L263.052,90.1577 C263.208,90.1577 263.335,90.2837 263.335,90.4407 L263.335,103.2637 C263.335,103.4207 263.208,103.5467 263.052,103.5467" id="Fill-336" fill="#818181" mask="url(#mask-4)"></path>
            </g>
        </g>
    </g>
</svg>